<?xml version="1.0" encoding="UTF-8" standalone="no"?>
<svg
   xmlns:dc="http://purl.org/dc/elements/1.1/"
   xmlns:cc="http://creativecommons.org/ns#"
   xmlns:rdf="http://www.w3.org/1999/02/22-rdf-syntax-ns#"
   xmlns:svg="http://www.w3.org/2000/svg"
   xmlns="http://www.w3.org/2000/svg"
   id="svg7932"
   version="1.1"
   viewBox="0 0 21.33761 21.33761"
   height="21.33761mm"
   width="21.33761mm">
  <defs
     id="defs7926" />
  <metadata
     id="metadata7929">
    <rdf:RDF>
      <cc:Work
         rdf:about="">
        <dc:format>image/svg+xml</dc:format>
        <dc:type
           rdf:resource="http://purl.org/dc/dcmitype/StillImage" />
        <dc:title></dc:title>
      </cc:Work>
    </rdf:RDF>
  </metadata>
  <g
     transform="translate(-200.99786,-203.17638)"
     id="layer1">
    <path
       id="path4140-0"
       style="display:inline;fill:#000000;stroke-width:10.58333302;stroke-miterlimit:4;stroke-dasharray:none"
       d="m 204.61485,218.9384 c -0.12257,-0.0994 -0.19033,-0.21344 -0.15051,-0.2534 0.0398,-0.04 0.12268,-0.0223 0.18415,0.0391 0.13313,0.13315 0.35727,0.14799 0.35727,0.0237 0,-0.0484 -0.0875,-0.11583 -0.19437,-0.14975 -0.28567,-0.0907 -0.21136,-0.47044 0.092,-0.47044 0.12556,0 0.24794,0.059 0.27195,0.13118 0.0265,0.0796 0.003,0.1053 -0.0629,0.0652 -0.20769,-0.12833 -0.31426,0.056 -0.11363,0.19651 0.23185,0.16242 0.25739,0.46033 0.0464,0.5413 -0.1982,0.0761 -0.1767,0.0822 -0.43039,-0.12341 z m 1.21437,0.0659 c -0.23077,-0.16876 -0.33697,-0.82955 -0.13329,-0.82955 0.10256,0 0.15737,0.10701 0.17763,0.34682 0.0391,0.46304 0.2654,0.5411 0.2654,0.0916 0,-0.35868 0.14216,-0.52287 0.30864,-0.35642 0.0704,0.0704 0.0753,0.21661 0.0155,0.4592 -0.0965,0.3908 -0.34134,0.50219 -0.63375,0.28838 z m 1.1327,0.0439 c -0.0209,-0.0389 -0.0186,-0.25374 0.005,-0.47735 0.0413,-0.39135 0.054,-0.40549 0.33943,-0.37775 0.39915,0.0388 0.47222,0.39926 0.11405,0.56244 -0.13338,0.0608 -0.24254,0.16741 -0.24254,0.23701 0,0.13479 -0.15212,0.17402 -0.21576,0.0557 z m 0.3534,-0.58368 c 0.0299,-0.0483 0.011,-0.11458 -0.0416,-0.14721 -0.0528,-0.0326 -0.096,0.007 -0.096,0.0879 0,0.16586 0.0567,0.19028 0.13761,0.0593 z m 0.82056,0.5295 c -0.0571,-0.0687 -0.098,-0.27736 -0.091,-0.46363 0.0113,-0.30266 0.0437,-0.34324 0.30463,-0.3819 0.34479,-0.0511 0.54971,0.009 0.46998,0.13817 -0.0313,0.0507 -0.15858,0.0667 -0.28276,0.0355 -0.12745,-0.032 -0.2258,-0.0147 -0.2258,0.0396 0,0.0529 0.0825,0.0962 0.1833,0.0962 0.2588,0 0.3291,0.16338 0.1014,0.23566 -0.26675,0.0847 -0.23735,0.23653 0.0458,0.23653 0.12988,0 0.23611,0.0425 0.23611,0.0944 0,0.14012 -0.62129,0.11452 -0.74166,-0.0306 z m 1.11032,0.0845 c -0.0223,-0.0223 -0.0248,-0.23785 -0.006,-0.47898 0.0377,-0.47371 0.15189,-0.57639 0.53436,-0.4804 0.17738,0.0445 0.23591,0.1213 0.23591,0.30965 0,0.13776 0.0703,0.32817 0.15627,0.42317 0.20148,0.22264 -0.0181,0.24149 -0.26038,0.0223 -0.15285,-0.13838 -0.17966,-0.13457 -0.33531,0.0472 -0.16809,0.19634 -0.24751,0.23469 -0.32512,0.15705 z m 0.48122,-0.72048 c 0,-0.0489 -0.0425,-0.0889 -0.0944,-0.0889 -0.0519,0 -0.0944,0.0662 -0.0944,0.14724 0,0.081 0.0425,0.12096 0.0944,0.0888 0.052,-0.0321 0.0944,-0.0984 0.0944,-0.14721 z m 0.85096,0.65086 c 0.005,-0.65605 0.26528,-1.0694 0.42056,-0.66889 0.061,0.15736 0.0699,0.15736 0.18579,0 0.22369,-0.30379 0.41464,-0.19965 0.48421,0.26404 0.0354,0.23611 0.0408,0.45286 0.0121,0.48162 -0.10677,0.10676 -0.2538,-0.0803 -0.25663,-0.32631 -0.003,-0.21819 -0.0164,-0.23075 -0.0991,-0.0888 -0.11085,0.19033 -0.36564,0.22202 -0.37958,0.0472 -0.005,-0.0649 -0.0382,-0.015 -0.0734,0.11105 -0.0692,0.2476 -0.29554,0.38634 -0.29385,0.18012 z m 1.47904,0.0393 c -0.0607,-0.10242 0.34044,-0.89992 0.47464,-0.94361 0.13747,-0.0448 0.62876,0.88798 0.50724,0.96308 -0.0472,0.0292 -0.15003,-0.011 -0.22843,-0.0894 -0.18249,-0.18248 -0.42971,-0.18293 -0.49956,0 -0.0581,0.1515 -0.18506,0.18692 -0.25389,0.0708 z m 0.53715,-0.543 c -0.0299,-0.0779 -0.071,-0.14164 -0.0915,-0.14164 -0.0203,0 -0.0371,0.0637 -0.0371,0.14164 0,0.0779 0.0412,0.14165 0.0915,0.14165 0.0503,0 0.0671,-0.0637 0.0371,-0.14165 z m 0.83445,0.11806 c 0.0251,-0.4357 0.0549,-0.49951 0.24624,-0.52666 0.2919,-0.0414 0.49058,0.14024 0.49058,0.44848 0,0.13908 0.0502,0.30317 0.11174,0.36461 0.0615,0.0615 0.087,0.13653 0.0567,0.16679 -0.0303,0.0303 -0.14848,-0.0434 -0.26261,-0.16369 l -0.20755,-0.21872 -0.14399,0.21248 c -0.22976,0.33904 -0.32179,0.24946 -0.29114,-0.28329 z m 0.45347,-0.2597 c 0,-0.0519 -0.0425,-0.0944 -0.0944,-0.0944 -0.0519,0 -0.0944,0.0425 -0.0944,0.0944 0,0.0519 0.0425,0.0944 0.0944,0.0944 0.052,0 0.0944,-0.0425 0.0944,-0.0944 z m 1.76276,0.69251 c -0.0346,-0.0346 -0.0629,-0.24711 -0.0629,-0.47215 0,-0.3008 0.0375,-0.40923 0.14162,-0.40923 0.0779,0 0.14165,0.0686 0.14165,0.15252 0,0.13846 0.0226,0.13775 0.24426,-0.008 0.27232,-0.1784 0.41114,-0.12966 0.23504,0.0825 -0.0907,0.10925 -0.0814,0.18762 0.0446,0.38004 0.1356,0.20698 0.13823,0.2424 0.0178,0.2424 -0.0776,0 -0.2056,-0.0956 -0.2846,-0.21252 l -0.14359,-0.21245 -0.067,0.2597 c -0.0667,0.25818 -0.14656,0.31708 -0.26696,0.19674 z m 2.78898,-0.0504 c -0.0623,-0.0623 -0.11331,-0.217 -0.11331,-0.34369 0,-0.12671 -0.0744,-0.28687 -0.1653,-0.35585 -0.14498,-0.11007 -0.11086,-0.12581 0.27776,-0.12847 0.24362,-0.003 0.46923,0.0395 0.50134,0.0914 0.0321,0.052 -0.0345,0.0944 -0.14814,0.0944 -0.18804,0 -0.20111,0.0338 -0.1461,0.37776 0.0615,0.38469 -0.003,0.46753 -0.20625,0.26438 z m -1.37242,-0.044 c -0.0346,-0.0346 -0.063,-0.22586 -0.063,-0.42494 0,-0.34959 0.011,-0.362 0.32492,-0.362 0.17873,0 0.34849,0.038 0.37719,0.0845 0.0627,0.10148 -0.2109,0.22171 -0.33293,0.14627 -0.0472,-0.0292 -0.0859,-0.011 -0.0859,0.0404 0,0.0514 0.0956,0.11027 0.21248,0.13084 0.21201,0.0373 0.21195,0.0377 -0.0237,0.14224 l -0.23611,0.10482 0.2597,0.006 c 0.14284,0.003 0.2597,0.0485 0.2597,0.10041 0,0.10448 -0.59261,0.13141 -0.69254,0.0315 z m -2.51629,-0.38097 c -0.13448,-0.17091 -0.1802,-0.33604 -0.14919,-0.5387 0.0246,-0.16073 0.0714,-0.73118 0.10406,-1.26766 l 0.0593,-0.97542 -0.22058,0.14145 c -0.12128,0.0778 -0.40116,0.18904 -0.62191,0.2472 -0.22073,0.0582 -0.40135,0.14337 -0.40135,0.18932 0,0.046 -0.11001,0.21429 -0.24446,0.37408 -0.2229,0.26487 -0.29447,0.29055 -0.80998,0.29055 -0.49674,0 -0.59836,-0.0329 -0.83664,-0.27122 -0.14916,-0.14912 -0.29817,-0.39347 -0.33114,-0.54299 -0.033,-0.14947 -0.0755,-0.32267 -0.0944,-0.38484 -0.024,-0.0788 -0.20867,-0.0379 -0.60824,0.13451 -0.44207,0.19072 -0.58694,0.30341 -0.63088,0.49081 -0.102,0.43493 -0.49462,0.76259 -0.91381,0.76259 -0.32128,0 -0.4382,-0.0647 -0.83574,-0.46219 l -0.46223,-0.46226 -0.29139,0.36263 c -0.31395,0.39063 -0.67474,0.56182 -1.18401,0.56182 -0.34722,0 -0.77236,-0.18344 -0.96605,-0.41681 -0.10798,-0.13014 -0.13817,-0.12506 -0.27725,0.0467 -0.10163,0.12553 -0.21345,0.17074 -0.32052,0.12968 -0.21982,-0.0844 -0.2082,-0.35176 0.0246,-0.56227 0.12263,-0.11103 0.18886,-0.29089 0.18886,-0.51303 0,-0.67439 0.59744,-1.14068 1.20983,-0.94417 0.40607,0.13033 0.67883,0.34482 0.67883,0.53385 0,0.0961 -0.0594,0.11382 -0.21248,0.0634 -0.41188,-0.13558 -0.57308,-0.0884 -0.75591,0.22095 -0.15508,0.26247 -0.16487,0.35264 -0.0697,0.6411 0.0931,0.28216 0.14332,0.32588 0.31477,0.27429 0.5299,-0.15946 0.89958,-0.41326 1.59577,-1.09559 0.66954,-0.65616 0.79366,-0.73902 1.10712,-0.73902 0.5542,0 0.90588,0.16617 1.09497,0.51731 l 0.17148,0.3184 0.47817,-0.17986 c 0.26297,-0.0989 0.56631,-0.27632 0.67411,-0.39423 0.33633,-0.36785 0.74417,-0.53699 1.09553,-0.45433 0.53606,0.1261 0.8303,0.30737 1.03415,0.63715 0.20306,0.32865 0.22578,0.33189 0.80371,0.11588 0.11114,-0.0415 0.35309,-0.20817 0.53772,-0.37028 0.32001,-0.28095 0.34835,-0.28826 0.60449,-0.15578 0.21669,0.11204 0.34536,0.1185 0.66424,0.0334 0.70559,-0.18836 1.21175,0.17757 1.31547,0.95097 l 0.0521,0.38848 0.42731,-0.32628 c 0.4629,-0.35342 1.05156,-0.57392 1.28899,-0.48282 0.0899,0.0345 0.14879,0.16984 0.14879,0.34202 0,0.22443 -0.0752,0.33489 -0.35416,0.52037 -0.19476,0.12951 -0.47281,0.38509 -0.61781,0.56794 -0.59323,0.74789 -1.53083,0.16366 -1.72929,-1.07744 -0.0719,-0.44913 -0.15133,-0.5255 -0.40538,-0.3895 -0.19192,0.10273 -0.35783,0.70116 -0.57723,2.08272 -0.1964,1.23661 -0.39627,1.51999 -0.75261,1.06703 z m -5.68901,-1.96949 c 0.3114,-0.21807 0.25812,-0.30228 -0.21508,-0.33993 -0.45421,-0.0361 -0.51811,0.0386 -0.26865,0.31425 0.18996,0.20992 0.21855,0.21144 0.48373,0.0257 z m 3.53526,-0.1599 c 0.13123,-0.10279 0.0969,-0.14504 -0.26526,-0.32679 l -0.41594,-0.20876 v 0.21348 c 0,0.39482 0.36683,0.56825 0.6812,0.32207 z m -3.39178,-0.87055 c -0.18965,-0.26057 -0.314,-0.29306 -0.48133,-0.12573 -0.22501,0.22502 -0.12474,0.35885 0.26885,0.35885 h 0.38215 z m 3.65489,0 c 0,-0.20658 -0.38024,-0.38819 -0.47876,-0.22871 -0.043,0.0695 -0.0325,0.1782 0.0237,0.24582 0.13722,0.16538 0.45517,0.15341 0.45517,-0.0172 z m -8.04565,-1.44246 c -0.083,-0.10005 -0.1266,-0.87958 -0.15417,-2.75932 l -0.0385,-2.61987 0.30641,-0.0613 c 0.58443,-0.11692 1.36192,-0.0664 1.70076,0.11044 0.56388,0.29427 0.88589,1.16487 0.72237,1.95303 -0.051,0.24559 -0.0186,0.30841 0.2426,0.47216 0.16572,0.10389 0.40219,0.33759 0.52544,0.5194 0.19392,0.28612 0.21957,0.41933 0.19067,0.99153 -0.0386,0.76477 -0.29015,1.20295 -0.8172,1.4235 -0.44998,0.18827 -2.51646,0.16544 -2.67838,-0.0296 z m 1.88071,-0.84331 0.33231,-0.15771 -0.0606,-0.51556 c -0.0766,-0.65188 -0.3352,-1.0206 -0.81692,-1.1649 -0.20549,-0.0616 -0.39624,-0.0893 -0.42398,-0.0616 -0.0277,0.0277 -0.0212,0.50196 0.0144,1.0539 l 0.0649,1.00353 h 0.27872 c 0.15331,0 0.42827,-0.071 0.61101,-0.15768 z m -0.44575,-3.27245 c 0,-0.44789 -0.29424,-1.00824 -0.52866,-1.00824 -0.1137,0 -0.13916,0.0557 -0.0971,0.21246 0.0313,0.11686 0.0575,0.49606 0.0582,0.84268 l 0.003,0.63018 0.28326,-0.14131 c 0.24715,-0.1233 0.28327,-0.19171 0.28296,-0.53577 z m 3.21742,4.11477 c -0.25061,-0.20359 -0.37877,-0.98391 -0.38382,-2.33722 -0.003,-0.91655 -0.14185,-2.57974 -0.24074,-2.89323 -0.0426,-0.13496 0.0964,-0.16335 1.09175,-0.22318 1.01902,-0.0612 1.16027,-0.0506 1.32583,0.0991 0.17337,0.15689 0.17514,0.17887 0.0282,0.34124 -0.11605,0.12824 -0.29222,0.17353 -0.67494,0.17353 h -0.51793 l 0.0596,0.49578 c 0.0328,0.27266 0.0599,0.71885 0.0604,0.99156 v 0.49578 l 0.49578,0.003 c 0.58344,0.003 0.67525,0.053 0.71535,0.39988 l 0.03,0.25968 h -0.63268 -0.63275 l 0.0438,0.75562 c 0.024,0.41557 0.0633,0.77521 0.0873,0.79922 0.024,0.024 0.26859,-0.0155 0.54358,-0.0883 0.54514,-0.14379 0.71981,-0.11794 0.81114,0.12006 0.0815,0.21234 -0.15141,0.36395 -0.90275,0.58773 -0.77108,0.22964 -1.04591,0.2341 -1.30793,0.0214 z m 3.85146,0.0587 c -0.55445,-0.20317 -0.69588,-1.00462 -0.86021,-4.87482 l -0.0291,-0.68462 h 1.14836 c 1.20865,0 1.41699,0.0689 1.342,0.444 -0.0291,0.14565 -0.13236,0.16888 -0.72562,0.16332 l -0.6917,-0.006 0.0558,0.337 c 0.0307,0.18533 0.0562,0.64157 0.0568,1.01388 v 0.67688 l 0.50848,-0.005 c 0.64688,-0.006 0.74405,0.051 0.60599,0.35397 -0.0914,0.20066 -0.16897,0.23272 -0.56304,0.23272 -0.44311,0 -0.457,0.008 -0.457,0.27864 0,0.34033 0.18486,1.25335 0.27316,1.34899 0.0353,0.0382 0.30946,-2e-4 0.60924,-0.0855 0.48099,-0.13682 0.56156,-0.13863 0.68475,-0.0155 0.29763,0.29763 -0.0752,0.61048 -0.95332,0.79982 -0.66,0.14229 -0.67693,0.14266 -1.00558,0.0223 z m 3.6407,0.0147 c -0.22573,-0.0913 -0.69842,-0.67454 -0.87148,-1.07544 -0.13484,-0.31236 -0.0186,-0.53241 0.28152,-0.53241 0.22964,0 0.64617,0.26955 0.64617,0.41814 0,0.0622 0.12717,0.23498 0.28262,0.38394 l 0.28268,0.27082 0.24581,-0.22953 c 0.21212,-0.19812 0.24012,-0.28911 0.20461,-0.66467 -0.0348,-0.36849 -0.10335,-0.49137 -0.4478,-0.80269 -0.22366,-0.20216 -0.60229,-0.49505 -0.84142,-0.65086 -0.24974,-0.16276 -0.50653,-0.43005 -0.60339,-0.62817 -0.22623,-0.46271 -0.30006,-1.17385 -0.17145,-1.65075 l 0.10527,-0.39023 0.77874,-0.0648 c 0.45003,-0.0375 0.87819,-0.026 1.01447,0.0268 0.51393,0.20009 1.0385,0.99856 1.0385,1.58061 0,0.16234 -0.082,0.24175 -0.33644,0.32569 -0.2888,0.0953 -0.3624,0.0875 -0.51974,-0.0549 -0.10087,-0.0913 -0.23015,-0.33979 -0.2873,-0.55228 -0.17021,-0.63277 -0.34844,-0.90573 -0.59134,-0.90573 -0.52522,0 -0.70446,0.75161 -0.31756,1.33172 0.14218,0.21316 0.46324,0.44949 0.95659,0.70406 0.87421,0.4511 1.09282,0.77261 1.1688,1.71882 0.045,0.56128 0.0311,0.61654 -0.22496,0.88911 -0.49381,0.52575 -1.26865,0.76457 -1.7929,0.55262 z m -5.08709,-11.03433 c -5.89221,0 -10.66882,4.77659 -10.66882,10.66879 0,5.89224 4.77661,10.66882 10.66882,10.66882 5.89224,0 10.66879,-4.77658 10.66879,-10.66882 0,-5.8922 -4.77655,-10.66879 -10.66879,-10.66879 z" />
  </g>
</svg>
