<?xml version="1.0" encoding="UTF-8" standalone="no"?>
<svg
   xmlns:dc="http://purl.org/dc/elements/1.1/"
   xmlns:cc="http://creativecommons.org/ns#"
   xmlns:rdf="http://www.w3.org/1999/02/22-rdf-syntax-ns#"
   xmlns:svg="http://www.w3.org/2000/svg"
   xmlns="http://www.w3.org/2000/svg"
   id="svg10336"
   version="1.1"
   viewBox="0 0 42.849224 16.823055"
   height="16.823055mm"
   width="42.849224mm">
  <defs
     id="defs10330" />
  <metadata
     id="metadata10333">
    <rdf:RDF>
      <cc:Work
         rdf:about="">
        <dc:format>image/svg+xml</dc:format>
        <dc:type
           rdf:resource="http://purl.org/dc/dcmitype/StillImage" />
        <dc:title></dc:title>
      </cc:Work>
    </rdf:RDF>
  </metadata>
  <g
     transform="translate(-204.60515,-53.487282)"
     id="layer1">
    <g
       transform="matrix(0.06819292,0,0,0.06819292,202.13316,51.82508)"
       id="g7891"
       style="display:inline;fill:#000000;fill-opacity:1;stroke-width:155.19694519;stroke-miterlimit:4;stroke-dasharray:none">
      <path
         id="path7889"
         d="m 355,259.96225 c 0,-18.06641 -2.55153,-46.56918 -5.46133,-61.0079 l -2.66367,-13.2174 3.60211,-7.21148 c 5.22085,-10.45223 5.59945,-20.23112 1.50751,-38.93797 -3.99033,-18.24236 -4.00377,-20.18198 -0.16643,-24.01932 3.67133,-3.67134 9.41935,-4.03504 12.36307,-0.78225 2.87244,3.17399 2.6061,9.76562 -1.04494,25.86187 -1.71252,7.54996 -3.11877,16.57822 -3.125,20.06282 -0.0133,7.44254 2.785,17.42947 6.06689,21.65228 2.25091,2.89624 2.25342,3.29886 0.0816,13.125 -3.55759,16.09615 -5.09242,29.789 -5.96848,53.24766 -0.72622,19.44646 -1.05795,21.9068 -3.00387,22.27916 -1.95483,0.37407 -2.1875,-0.80152 -2.1875,-11.05247 z M 85.657494,216.5625 C 85.184505,215.35937 77.480114,193.84375 68.536624,168.75 59.593134,143.65625 51.469475,121.85938 50.48405,120.3125 49.018895,118.01257 47.55858,117.5 42.471184,117.5 39.049532,117.5 36.25,116.9375 36.25,116.25 c 0,-0.7906 8.958334,-1.25 24.375,-1.25 15.416666,0 24.375,0.4594 24.375,1.25 0,0.6875 -2.109375,1.25768 -4.6875,1.26707 -11.167886,0.0407 -11.351563,-2.48062 2.600208,35.6925 6.888752,18.84817 12.722365,34.07203 12.963583,33.8308 0.241219,-0.24121 3.964805,-12.75211 8.274639,-27.80197 7.47782,-26.11245 7.76388,-27.6125 6.25743,-32.81227 C 108.10602,118.47917 106.8789,117.5 99.221944,117.5 95.524875,117.5 92.5,116.9375 92.5,116.25 c 0,-0.79268 9.375,-1.25 25.625,-1.25 14.09375,0 25.625,0.49489 25.625,1.09976 0,0.60487 -3.36316,1.34303 -7.47369,1.64036 -4.11054,0.29733 -7.84011,0.90701 -8.28795,1.35485 -0.66552,0.66553 20.11107,68.0887 21.39764,69.43855 0.66701,0.6998 19.364,-56.81082 19.364,-59.56228 0,-6.59049 -5.39784,-11.47124 -12.68653,-11.47124 -1.27241,0 -2.31347,-0.5625 -2.31347,-1.25 0,-0.77381 6.66666,-1.25 17.5,-1.25 9.625,0 17.5,0.44584 17.5,0.99074 0,0.54491 -2.4511,1.64632 -5.44687,2.44757 -3.16174,0.84563 -6.23652,2.66195 -7.32905,4.32937 -1.0352,1.57991 -8.81624,23.82226 -17.29122,49.42743 -17.57612,53.1022 -17.74913,53.38193 -22.80281,36.86739 -1.63049,-5.32813 -7.12665,-23.30949 -12.2137,-39.95858 -5.08705,-16.64909 -9.59319,-29.86785 -10.01363,-29.375 -0.66124,0.77511 -17.284701,58.75784 -21.132004,73.70858 -1.462283,5.68247 -5.19044,7.38 -6.863222,3.125 z M 501.25,217.72104 c 0,-0.56594 9.21077,-23.76907 20.46839,-51.5625 19.19377,-47.3867 20.67217,-50.55811 23.74078,-50.92818 l 3.27241,-0.39464 -2.58233,6.01964 c -1.42028,3.3108 -9.90805,24.01964 -18.86171,46.01964 -22.24105,54.64838 -20.97444,51.875 -23.69146,51.875 -1.29034,0 -2.34608,-0.46304 -2.34608,-1.02896 z m 54.9986,-1.01292 c 8.1e-4,-0.82683 3.51515,-1.7914 8.4389,-2.31619 14.08954,-1.50174 12.8125,3.34997 12.8125,-48.67717 0,-51.90118 1.40435,-46.6552 -12.8125,-47.86146 -5.28825,-0.44869 -8.4375,-1.27104 -8.4375,-2.20326 0,-1.11903 8.58997,-1.43636 34.6875,-1.2814 38.01026,0.22569 39.65219,0.48853 51.81791,8.29526 15.41662,9.89281 24.80284,33.48605 21.00393,52.79551 -3.14772,15.99954 -14.92838,31.29366 -29.11984,37.80451 -7.49754,3.43978 -8.5381,3.57422 -30.2645,3.91028 -12.375,0.19141 -28.26626,0.48365 -35.3139,0.64941 -8.89331,0.20918 -12.81348,-0.13212 -12.8125,-1.11549 z m 72.00206,-5.51896 c 6.85198,-3.31697 12.19475,-10.90343 14.17214,-20.12367 2.28804,-10.66879 1.66342,-36.85095 -1.1407,-47.815 C 636.31355,123.82368 628.3339,117.5 608.78832,117.5 h -10.90635 l -0.81029,14.0625 c -1.03583,17.97626 -1.03724,39.30985 -0.004,63.17705 0.94577,21.85059 -0.25639,20.34772 15.7289,19.66321 6.79891,-0.29115 11.38896,-1.24561 15.45427,-3.2136 z M 203.75,216.31207 c 0,-0.65336 3.36536,-1.56867 7.47857,-2.03403 4.11323,-0.46536 8.35097,-1.484 9.4172,-2.26367 1.68628,-1.23302 1.94953,-7.24881 2.02244,-46.21493 0.0583,-31.10597 -0.3378,-45.21902 -1.29567,-46.1769 -0.75873,-0.75873 -5.03419,-1.61221 -9.50102,-1.89664 -4.9691,-0.31641 -8.12152,-1.07308 -8.12152,-1.94939 0,-1.03643 6.30464,-1.3384 22.8125,-1.09263 49.60119,0.73844 51.05921,0.83805 58.1341,3.97138 16.29842,7.21825 21.06376,24.05961 9.876,34.90321 -4.41331,4.27757 -16.466,8.86312 -23.74646,9.03458 -2.3255,0.0547 0.16322,0.95621 6.04886,2.19097 11.49153,2.41083 21.00661,7.4776 24.34188,12.96202 9.20816,15.14158 -1.00578,32.18102 -22.76189,37.97265 -7.80502,2.07775 -74.70499,2.60914 -74.70499,0.59338 z m 69.46622,-4.4052 c 7.56111,-3.76785 10.57778,-8.50478 11.42499,-17.9401 1.34333,-14.96028 -4.78937,-24.951 -16.91175,-27.55078 C 264.09807,165.63719 256.93589,165 251.81347,165 H 242.5 v 23.03571 C 242.5,215.96817 241.98946,215 256.71885,215 c 8.44241,0 11.40493,-0.55545 16.49737,-3.09313 z m -0.70693,-53.84475 c 6.50091,-3.75572 8.95967,-9.45043 8.45592,-19.58466 -0.4449,-8.9505 -2.42064,-12.90289 -8.84917,-17.70248 -2.58935,-1.93323 -5.86914,-2.62472 -14.37913,-3.03158 C 242.12926,116.99719 242.5,116.41962 242.5,141.48106 v 20.05249 l 12.82179,-0.47463 c 9.9702,-0.36907 13.79274,-1.03556 17.1875,-2.9968 z M 422.5,216.41355 c 0,-1.33027 7.39526,-2.63125 15.0625,-2.64979 3.12812,-0.007 6.3625,-0.68876 7.1875,-1.51376 1.11305,-1.11305 1.5,-13.52777 1.5,-48.125 V 117.5 h -4.29363 c -13.3461,0 -20.76697,9.23018 -25.24941,31.4055 C 415.47352,155.00747 414.02237,160 413.48217,160 412.94198,160 412.5,149.875 412.5,137.5 V 115 h 44.375 44.375 v 23.125 c 0,12.81969 -0.49986,23.125 -1.12169,23.125 -0.61691,0 -1.7824,-3.79416 -2.58995,-8.43146 -1.97792,-11.35805 -5.86722,-22.60673 -9.44956,-27.33013 C 484.35063,120.55954 477.94299,117.5 471.35856,117.5 h -5.13862 l 0.32752,47.15771 0.32754,47.1577 3.125,0.93529 c 1.71875,0.51441 6.92187,1.27572 11.5625,1.69179 4.64062,0.41607 8.4375,1.27422 8.4375,1.907 0,0.67227 -14.02906,1.15051 -33.75,1.15051 -18.5625,0 -33.75,-0.4889 -33.75,-1.08645 z M 175,163.75 v -5 h 16.875 16.875 v 5 5 H 191.875 175 Z m 157.06874,2.71407 c -4.60133,-5.0844 -0.78965,-13.02657 6.25181,-13.02657 3.65257,0 7.92945,4.13846 7.92945,7.67285 0,1.14586 -0.87565,3.33355 -1.94588,4.86151 -2.45313,3.50234 -9.26332,3.7763 -12.23538,0.49221 z m 38.62713,-0.49221 c -2.54488,-3.63334 -2.45762,-6.31291 0.31717,-9.73964 C 375.46366,150.73594 385,154.15706 385,161.25 c 0,7.03684 -10.30093,10.43722 -14.30413,4.72186 z M 423.125,83.75 c -1.34355,-2.1739 0.64742,-4.037498 2.59056,-2.424835 1.39353,1.15652 1.99779,0.776429 3.01373,-1.895676 C 429.42817,77.591257 430,74.36776 430,72.26616 c 0,-3.682021 -0.10238,-3.753195 -2.8125,-1.955584 -1.54688,1.026029 -4.15411,4.469638 -5.79385,7.652465 -4.31253,8.370831 -7.14806,7.786124 -3.76098,-0.775541 5.85298,-14.79481 7.04602,-18.342145 6.3896,-18.998556 C 423.64336,57.810025 421.49237,57.5 419.24231,57.5 c -4.04229,0 -4.12915,0.125 -7.29167,10.493268 -3.80073,12.460663 -3.8225,12.770302 -1.01314,14.406608 1.66462,0.969558 0.40301,1.283188 -5.27814,1.312113 -7.02774,0.03579 -7.30671,-0.0733 -4.7562,-1.859749 1.7633,-1.235059 3.82469,-5.554081 5.90314,-12.368267 C 408.56284,63.725192 410,58.672935 410,58.256733 c 0,-1.860133 -6.50357,-0.503152 -8.85416,1.847433 -3.16879,3.16878 -4.21374,2.508738 -2.38289,-1.505133 1.31845,-2.890504 1.77619,-2.974033 16.29745,-2.974033 8.21749,0 14.9406,0.124588 14.94025,0.276859 -3.6e-4,0.152271 -1.41419,3.473111 -3.14184,7.379644 -3.45106,7.803458 -3.44853,9.296976 0.009,5.476161 4.67635,-5.167301 9.24534,-1.54384 6.92368,5.490855 C 431.14501,82.268194 425.3819,87.401732 423.125,83.75 Z M 75.65224,79.0625 c 2.294456,-15.775177 2.587234,-20.323026 1.385687,-21.524572 -0.883903,-0.883904 0.457034,-1.281923 4.274573,-1.268787 3.988775,0.01373 5.032031,0.353547 3.6875,1.201134 -1.614227,1.017603 -5.444589,17.368199 -4.348781,18.563561 0.206132,0.22486 2.728378,-3.05698 5.60499,-7.292978 3.279987,-4.829997 4.996715,-8.594674 4.604021,-10.096337 -0.533254,-2.039167 0.05209,-2.391681 3.944295,-2.37538 2.946365,0.01238 3.983101,0.391558 2.917522,1.067174 C 96.637875,58.02372 95.93143,61.830071 95.669024,68.398079 95.269842,78.389569 93.64882,83.75 91.026521,83.75 c -0.959522,0 -1.135481,-2.690311 -0.572293,-8.75 0.447275,-4.8125 0.534315,-8.75 0.193422,-8.75 -0.340892,0 -3.4837,3.9375 -6.984018,8.75 -3.500316,4.8125 -6.888228,8.75 -7.528695,8.75 -0.640465,0 -0.857678,-2.109375 -0.482697,-4.6875 z m 27.45766,3.413063 c -1.30634,-2.113693 1.7254,-9.352589 5.35649,-12.789763 2.40228,-2.273981 4.75993,-3.220545 7.98578,-3.206181 l 4.57716,0.02038 -2.38966,6.945687 C 115.76414,81.803551 115.75105,81.9702 118.125,80 119.35451,78.9796 120,78.911767 120,79.802965 c 0,1.48073 -3.94506,3.947035 -6.31361,3.947035 -0.86223,0 -1.20578,-1.040839 -0.82464,-2.49833 0.65318,-2.497774 0.65262,-2.497774 -2.52278,0 -3.49756,2.751175 -6.02111,3.178416 -7.22907,1.223893 z M 115,71.230279 c 0,-4.367958 -3.7824,-2.680929 -6.22594,2.776901 -1.29454,2.89145 -2.02092,5.79564 -1.61419,6.453756 C 108.21968,82.175731 115,74.192844 115,71.230279 Z m 7.5,12.043833 c 0,-0.261737 1.99227,-5.979628 4.42728,-12.706422 3.46204,-9.56406 4.07522,-12.45388 2.81249,-13.254971 -1.03517,-0.656729 -0.1767,-1.031308 2.39172,-1.043578 l 4.00647,-0.01914 -2.96083,7.8125 c -1.62847,4.296875 -3.57201,9.395994 -4.31898,11.331375 -1.9089,4.945849 -1.73712,6.476755 0.51685,4.606125 1.22951,-1.0204 1.875,-1.088233 1.875,-0.197035 0,1.610813 -4.02062,3.947035 -6.79282,3.947035 -1.07645,0 -1.95718,-0.214149 -1.95718,-0.475889 z M 135,81.940338 c 0,-0.995314 1.76274,-6.681239 3.91721,-12.635389 3.22195,-8.904328 3.6102,-11.020158 2.1875,-11.921198 -1.19909,-0.759412 -0.49035,-1.101341 2.31034,-1.11461 L 147.4551,56.25 143.10255,68.274112 c -2.3939,6.613263 -4.35255,12.220608 -4.35255,12.460769 0,0.240161 0.98437,0.127142 2.1875,-0.251156 1.86779,-0.587286 1.83287,-0.398861 -0.23891,1.289231 C 137.66802,84.242266 135,84.320633 135,81.940338 Z m 12.46076,-0.763653 C 144.53341,75.706869 150.1808,66.25 156.37459,66.25 c 3.07445,0 5.21822,4.343556 4.27141,8.654396 -1.70174,7.74793 -10.22545,11.802708 -13.18524,6.272289 z m 8.86511,-5.075407 c 3.09983,-6.076162 1.66673,-9.31578 -2.46636,-5.575386 -2.67087,2.417108 -5.34587,8.821078 -4.17411,9.992843 1.87106,1.871061 4.23435,0.298921 6.64047,-4.417457 z M 165,82.657159 c 0,-0.601064 0.84375,-3.484285 1.875,-6.407159 1.03125,-2.922874 1.875,-5.87497 1.875,-6.560214 0,-0.689991 -0.8366,-0.551576 -1.875,0.310214 -1.03125,0.855861 -1.875,1.019787 -1.875,0.36428 0,-1.722334 5.77313,-4.556551 7.32621,-3.596684 0.72304,0.446856 0.94928,1.764485 0.50278,2.928064 -0.64343,1.67674 -0.0785,1.538786 2.72316,-0.665031 6.8101,-5.356822 8.61087,-2.808473 5.08241,7.192281 -1.70792,4.840775 -1.693,5.221052 0.1768,4.503542 1.70663,-0.654895 1.78261,-0.470848 0.46239,1.119933 C 179.58406,83.882327 175,84.474739 175,82.657159 c 0,-0.601064 0.84375,-3.484285 1.875,-6.407159 1.03125,-2.922874 1.875,-5.904146 1.875,-6.625051 0,-2.24621 -6.3713,4.512143 -8.89705,9.437551 C 167.6535,83.351574 165,85.317067 165,82.657159 Z m 22.5,0.625 c 0,-0.257314 0.84375,-2.859285 1.875,-5.782159 2.41115,-6.833921 2.3652,-8.210754 -0.20328,-6.090556 -1.78207,1.471045 -1.99048,1.44832 -1.46227,-0.159444 0.75219,-2.289551 6.82601,-5.881206 7.98526,-4.721954 0.46005,0.460053 -0.0705,3.498399 -1.17912,6.75188 -2.50197,7.342865 -2.53043,8.703468 -0.14059,6.720074 1.03125,-0.855861 1.875,-1.127373 1.875,-0.603359 0,1.525106 -4.17631,4.27024 -6.5625,4.313605 -1.20313,0.02186 -2.1875,-0.170775 -2.1875,-0.428087 z m 13.33334,-0.365493 c -1.51677,-1.516761 -0.86545,-6.851569 1.27987,-10.483322 2.60713,-4.413503 8.58137,-7.238775 10.74074,-5.079395 2.05091,2.050911 -0.17176,5.322473 -5.13562,7.559135 -2.34865,1.058276 -3.96833,2.716388 -3.96833,4.0625 0,2.603188 3.6944,3.080022 6,0.774416 1.11633,-1.116324 1.5,-1.127574 1.5,-0.04398 0,2.862729 -8.22841,5.398905 -10.41666,3.210646 z m 8.73531,-11.095576 c 0.40711,-1.060901 0.40305,-2.266058 -0.009,-2.678126 C 208.66935,68.252678 205,71.07741 205,72.653056 c 0,1.88636 3.79041,1.196115 4.56865,-0.831966 z m 25.15636,9.74141 c 1.47101,-1.286126 3.58836,-6.343143 5.13848,-12.272624 3.17265,-12.135937 3.1482,-11.472847 0.44901,-12.178219 -1.20313,-0.31441 1.77813,-0.636905 6.625,-0.716656 9.38233,-0.154377 11.8125,0.984594 11.8125,5.536264 0,2.931969 -3.57491,6.818735 -6.27163,6.818735 -1.09432,0 -0.72533,0.907834 1.03593,2.548694 2.77321,2.583645 3.44926,5.700312 1.77906,8.201676 -1.92302,2.879989 -6.66874,4.24963 -14.72466,4.24963 -8.06805,0 -8.26244,-0.07276 -5.84369,-2.1875 z m 14.23907,-1.131235 C 253.08921,76.698068 250.76241,70 245.34041,70 c -1.27145,0 -4.16222,10.122526 -3.29261,11.529602 1.01131,1.636323 4.50813,1.081013 6.91628,-1.098337 z m 2.8895,-13.713415 c 2.89987,-2.899875 1.99036,-8.490514 -1.4612,-8.981822 -2.22489,-0.316697 -2.97844,0.496223 -4.05554,4.375 -0.72759,2.620184 -1.32604,5.185847 -1.32986,5.701472 -0.0129,1.728291 4.79185,0.960106 6.8466,-1.09465 z m 10.18063,13.59465 c 0.45753,-1.890625 1.31199,-4.739744 1.89883,-6.331375 1.61793,-4.388245 1.33892,-5.76294 -0.80804,-3.981125 -1.22951,1.0204 -1.875,1.088233 -1.875,0.197035 0,-1.416163 3.90935,-3.947035 6.09685,-3.947035 1.67647,0 1.07746,6.971116 -1.10096,12.8125 -2.07587,5.566362 -5.50229,6.583306 -4.21168,1.25 z m 16.3711,2.676151 c -0.41873,-0.418742 0.33127,-3.533316 1.66668,-6.921276 3.02735,-7.680455 3.02639,-7.695649 -0.38449,-6.040776 -2.76617,1.34208 -2.76389,1.322214 0.13848,-1.20602 5.94176,-5.17583 8.01732,-2.553579 4.54902,5.747225 -1.03125,2.468128 -1.875,5.08655 -1.875,5.818715 0,2.580162 7.45983,-5.852233 8.81805,-9.9677 0.7567,-2.29285 2.17596,-4.168819 3.15389,-4.168819 2.18216,0 2.18557,-0.219315 -0.097,6.25 -2.31157,6.551674 -2.41645,9.222834 -0.3125,7.958824 1.0617,-0.637847 1.01264,-0.260848 -0.15305,1.176228 -0.9435,1.163222 -2.80953,2.114948 -4.14668,2.114948 -1.92492,0 -2.25212,-0.56416 -1.57131,-2.709216 l 0.85988,-2.709216 -3.44422,2.709216 c -3.4659,2.726277 -5.79372,3.355887 -7.20175,1.947867 z M 298.35519,82.8125 c -0.2983,-0.515625 -0.0897,-2.0625 0.46337,-3.4375 0.96359,-2.39526 1.0094,-2.399224 1.09358,-0.09461 0.0817,2.239892 0.30367,2.202648 3.22447,-0.541304 2.21002,-2.076199 2.90268,-3.70996 2.34471,-5.530393 -1.10425,-3.602792 -1.41656,-3.77604 -3.57611,-1.983766 -2.79954,2.323401 -2.32584,-0.456801 0.51603,-3.028648 1.33167,-1.205152 2.94593,-1.866901 3.58723,-1.470553 1.31537,0.812937 3.41619,5.944625 4.53874,11.086771 C 311.25052,81.03425 313.75,82.741384 313.75,80 c 0,-0.6875 0.64967,-1.25 1.44374,-1.25 0.81873,0 0.4643,1.082262 -0.81874,2.5 -1.24436,1.375 -3.0717,2.5 -4.06076,2.5 -0.98905,0 -2.09248,-1.125 -2.45205,-2.5 -0.35958,-1.375 -1.06348,-2.5 -1.56424,-2.5 -0.50076,0 -1.92859,1.125 -3.17295,2.5 -2.38243,2.632547 -3.86905,3.119538 -4.76981,1.5625 z m 20.84577,-0.940295 c -1.20776,-3.14736 0.73051,-8.245984 4.60928,-12.124755 4.19622,-4.196219 7.87359,-4.189285 8.47247,0.01597 0.33293,2.33772 -0.52695,3.230031 -4.6875,4.864343 -5.17337,2.032158 -6.63949,4.858102 -3.2043,6.176307 1.04001,0.399088 2.72751,0.03131 3.75,-0.817286 C 329.36706,78.96918 330,78.906595 330,79.802965 c 0,3.499652 -9.54808,5.329193 -10.79904,2.06924 z M 328.75,70.58102 c 0,-2.60948 -2.18016,-2.264277 -3.70602,0.586804 -1.87841,3.509821 -1.60822,4.088309 1.20602,2.582176 1.375,-0.735878 2.5,-2.161919 2.5,-3.16898 z m 5.31317,11.60648 c 8.14618,-21.920866 8.66917,-23.772052 7.01253,-24.821676 -1.15774,-0.733527 -0.41375,-1.083653 2.33036,-1.096683 l 4.03105,-0.01914 -3.86157,10.3125 c -5.52213,14.747029 -5.54422,14.857756 -2.78869,13.979034 2.20357,-0.702708 2.1985,-0.631833 -0.0883,1.231422 -2.9057,2.367564 -7.46709,2.652535 -6.63541,0.414544 z M 346.25,82.002111 c 0,-0.961338 1.78074,-6.636146 3.95719,-12.610681 3.30091,-9.061286 3.6637,-11.048565 2.1875,-11.98297 -1.25557,-0.794745 -0.58945,-1.125739 2.29281,-1.139319 2.23437,-0.0105 4.05976,0.121488 4.05641,0.293359 -0.004,0.171875 -1.97208,5.59217 -4.375,12.045099 C 351.96601,75.060529 350,80.52725 350,80.755867 c 0,0.228619 0.98437,0.10615 2.1875,-0.272142 1.86779,-0.587286 1.83287,-0.398861 -0.23891,1.289231 -3.00138,2.445526 -5.69859,2.553988 -5.69859,0.229155 z M 358.0471,80.75963 C 356.66992,75.272537 363.4335,66.25 368.92396,66.25 c 1.16474,0 2.36983,0.703125 2.67796,1.5625 0.99134,2.764758 -1.4659,5.698728 -6.03594,7.206981 -5.52137,1.822214 -5.59765,5.748633 -0.10413,5.35644 2.91705,-0.208252 3.24249,0.04786 1.98545,1.5625 -0.82685,0.996368 -3.11133,1.811579 -5.07654,1.811579 -2.72596,0 -3.75109,-0.709006 -4.32366,-2.99037 z m 9.5316,-9.656691 C 368.55159,69.285103 368.41155,68.75 366.96296,68.75 c -1.61902,0 -4.46296,3.507065 -4.46296,5.503592 0,1.471229 3.89997,-0.948182 5.0787,-3.150653 z m 5.4949,11.313897 c -1.31476,-2.127337 0.43169,-2.926045 2.5514,-1.166836 2.85967,2.373317 3.80752,0.498611 2.11475,-4.182664 -2.20328,-6.093062 -1.8431,-8.209934 1.66916,-9.810227 2.38573,-1.087013 3.51265,-1.085553 4.60417,0.006 2.16544,2.165451 0.12262,3.361913 -2.30937,1.352552 -2.26314,-1.869877 -2.27847,-2.268221 0.31839,8.266556 0.43911,1.781383 0.10362,3.937708 -0.77806,5 -1.79023,2.157091 -6.95869,2.495302 -8.17044,0.534654 z m 64.00974,0.49983 c -0.45834,-0.458332 -0.83334,-2.483332 -0.83334,-4.5 0,-4.07756 7.00709,-12.166666 10.53922,-12.166666 5.55638,0 2.42797,7.734262 -3.75622,9.286394 -3.36829,0.845388 -4.08245,4.139355 -1.14209,5.267681 1.04001,0.399088 2.72751,0.03131 3.75,-0.817286 1.22615,-1.017609 1.85909,-1.080194 1.85909,-0.183824 0,2.782752 -8.2743,5.256069 -10.41666,3.113701 z m 8.73531,-11.095576 c 0.40711,-1.060901 0.40305,-2.266058 -0.009,-2.678126 -0.89055,-0.890286 -4.5599,1.934446 -4.5599,3.510092 0,1.88636 3.79041,1.196115 4.56865,-0.831966 z m 6.04125,10.654472 c -1.38081,-2.234186 1.9308,-9.787575 5.67089,-12.934655 C 459.87045,67.57221 462.70587,66.5 465.57235,66.5 468.00756,66.5 470,66.656305 470,66.847345 c 0,0.19104 -0.77636,2.244165 -1.72526,4.5625 -0.9489,2.318335 -2.15504,5.616994 -2.68032,7.330353 -0.85496,2.788762 -0.73966,2.936455 1.10027,1.409443 1.26761,-1.052019 2.05531,-1.184884 2.05531,-0.346676 0,1.48073 -3.94506,3.947035 -6.31361,3.947035 -0.88923,0 -1.20264,-1.052864 -0.78678,-2.643113 l 0.69119,-2.643112 -2.81346,2.643112 c -3.01726,2.834568 -6.38944,3.436519 -7.66744,1.368675 z m 11.34322,-8.876631 C 464.96084,70.199885 464.51101,68.75 461.69876,68.75 c -2.01279,0 -5.44876,6.388981 -5.44876,10.13166 0,2.721365 0.0329,2.726084 2.62797,0.377525 1.44539,-1.308056 3.3917,-3.85517 4.32515,-5.660254 z M 472.5,82.722674 c 0,-0.56503 0.91766,-3.720526 2.03925,-7.012214 1.71937,-5.046059 1.76839,-6.156443 0.3125,-7.078533 -1.34963,-0.85479 -1.22344,-1.097826 0.57777,-1.112786 1.26749,-0.0105 2.58512,-1.092136 2.92807,-2.403574 0.34295,-1.311437 1.69386,-2.664327 3.00203,-3.00642 1.98222,-0.518361 2.25277,-0.1211 1.62392,2.384433 -0.58858,2.345114 -0.24358,3.033827 1.56845,3.13102 1.66587,0.08935 1.44465,0.369165 -0.78203,0.989145 -2.23874,0.623336 -3.71477,2.506706 -5.29042,6.7504 -2.14728,5.783268 -1.69349,7.34981 1.27046,4.385855 1.11633,-1.116324 1.5,-1.127574 1.5,-0.04398 0,1.691813 -3.95103,4.04398 -6.79283,4.04398 -1.07644,0 -1.95717,-0.462298 -1.95717,-1.027326 z M 489.42126,77.8125 c 2.41704,-7.965447 2.4059,-9.84761 -0.0463,-7.8125 -1.03125,0.855861 -1.875,1.019787 -1.875,0.36428 0,-1.314132 5.94471,-4.847024 6.75089,-4.011996 2.41879,2.505347 -1.84915,17.397716 -4.98594,17.397716 -1.33857,0 -1.30944,-1.107131 0.1563,-5.9375 z m 15.16208,5.104166 c -0.45834,-0.458332 -0.83334,-2.483332 -0.83334,-4.5 0,-4.07756 7.00709,-12.166666 10.53922,-12.166666 5.55638,0 2.42797,7.734262 -3.75622,9.286394 -3.36829,0.845388 -4.08245,4.139355 -1.14209,5.267681 1.04001,0.399088 2.72751,0.03131 3.75,-0.817286 C 514.36706,78.96918 515,78.906595 515,79.802965 c 0,2.782752 -8.2743,5.256069 -10.41666,3.113701 z m 8.73531,-11.095576 c 0.40711,-1.060901 0.40305,-2.266058 -0.009,-2.678126 -0.89055,-0.890286 -4.5599,1.934446 -4.5599,3.510092 0,1.88636 3.79041,1.196115 4.56865,-0.831966 z M 516.25,83.115015 c 0,-1.055846 18.80421,-26.750977 20.21497,-27.622876 2.82674,-1.747024 0.15859,2.889407 -8.43707,14.660999 C 519.40078,81.967843 516.25,85.435345 516.25,83.115015 Z m 18.31862,-0.837589 c 2.04214,-0.988136 3.32703,-3.828842 5.3125,-11.745163 3.16723,-12.62811 3.16969,-12.705009 0.43138,-13.420605 -1.20313,-0.31441 1.91856,-0.636905 6.93708,-0.716657 C 560.62824,56.182396 565,58.95792 565,67.664309 c 0,10.43405 -8.37574,16.067356 -23.75,15.973638 -7.42225,-0.04525 -8.81394,-0.328632 -6.68138,-1.360521 z m 15.8089,-1.111106 c 9.11324,-2.530671 13.08607,-15.760411 6.3289,-21.075595 C 554.89496,58.665826 552.14541,57.5 550.59631,57.5 c -2.50608,0 -3.12086,1.231618 -5.57742,11.173576 -2.52388,10.214314 -2.59143,13.838289 -0.25762,13.819453 0.47505,-0.0039 3.00237,-0.600853 5.61625,-1.326709 z m 17.72863,1.303181 c -1.42851,-2.311388 0.76114,-8.580666 4.33209,-12.403387 2.7439,-2.93735 4.4873,-3.714589 8.03311,-3.581289 5.17886,0.194694 5.1633,0.152085 2.65365,7.265175 -2.4309,6.889899 -2.36466,8.185313 0.3125,6.112098 1.7808,-1.379067 1.74479,-1.175126 -0.19374,1.096943 C 580.21595,84.50783 577.5,84.54238 577.5,81.032108 v -2.717893 l -2.89306,2.717893 c -3.15343,2.962491 -5.26912,3.430291 -6.50079,1.437393 z m 8.89674,-6.188538 c 3.64867,-5.513535 3.4219,-10.475988 -0.33632,-7.359243 -2.04121,1.692807 -5.41657,8.571275 -5.41657,11.038131 0,2.74291 2.60596,1.076436 5.75289,-3.678888 z M 588.75,82.459851 c 0,-0.709581 0.84375,-3.309526 1.875,-5.777655 1.03125,-2.468128 1.875,-5.331436 1.875,-6.362907 0,-1.525295 -0.35002,-1.5849 -1.875,-0.319289 -1.03125,0.855861 -1.875,1.019788 -1.875,0.36428 0,-1.722334 5.77312,-4.556551 7.32621,-3.596684 0.72304,0.446857 0.94928,1.764485 0.50278,2.928064 -0.64343,1.67674 -0.0785,1.538786 2.72316,-0.665031 1.94425,-1.529346 4.30289,-2.780629 5.24143,-2.780629 2.28369,0 2.16762,4.840869 -0.2551,10.639285 -1.82982,4.379349 -1.81794,4.639493 0.1768,3.874039 1.79671,-0.689462 1.88593,-0.51643 0.55847,1.083061 -1.78231,2.147555 -6.27375,2.586741 -6.27375,0.613466 0,-0.709581 0.84375,-3.309526 1.875,-5.777655 1.03125,-2.468128 1.875,-5.3678 1.875,-6.443715 0,-3.056896 -7.23405,4.473565 -9.0067,9.375743 -1.37844,3.81199 -4.7433,5.830659 -4.7433,2.845627 z m 20.67839,0.126522 c -0.39555,-0.639995 -0.0846,-1.55581 0.69097,-2.035144 0.77558,-0.479334 1.88634,-0.101025 2.46834,0.840677 0.78482,1.269859 1.42206,1.348338 2.46662,0.303773 1.04457,-1.044565 0.8799,-2.430461 -0.63736,-5.364525 -1.12517,-2.175855 -1.69805,-5.05168 -1.27305,-6.390723 C 614.37899,66.049053 622.5,65.079799 622.5,68.823771 622.5,69.470697 621.65625,70 620.625,70 c -1.03125,0 -1.875,-0.675 -1.875,-1.5 0,-1.147018 -0.34485,-1.155149 -1.46545,-0.03455 -1.12059,1.120595 -0.93499,2.45045 0.78875,5.651221 2.951,5.479679 1.09975,9.633333 -4.29351,9.633333 -1.99774,0 -3.95587,-0.523633 -4.3514,-1.163631 z m 15.82985,-0.83054 c -2.80727,-5.016282 4.44054,-16.076326 10.0166,-15.285207 4.66615,0.662022 3.62408,5.026213 -1.83734,7.694821 -2.99079,1.461386 -4.6875,3.158097 -4.6875,4.6875 0,2.761413 3.54808,3.232969 6.27934,0.834553 0.97862,-0.859375 0.7227,-0.296875 -0.56874,1.25 -2.72773,3.26725 -7.58991,3.699626 -9.20236,0.818333 z M 633.5,72.25 c 2.04151,-2.041508 1.88524,-3.5 -0.375,-3.5 -1.03125,0 -1.875,0.235245 -1.875,0.522766 0,0.28752 -0.34143,1.41252 -0.75874,2.5 -0.8952,2.33286 0.8727,2.613277 3.00874,0.477234 z M 96.25,75.680008 c 0,-0.313496 1.581005,-3.266621 3.513344,-6.5625 4.902446,-8.361823 5.609756,-10.609624 3.716496,-11.81093 -0.98479,-0.624862 0.29856,-1.025692 3.32157,-1.037437 4.15989,-0.01616 4.619,0.223975 2.95069,1.543359 -1.08665,0.859375 -4.33833,5.359375 -7.22596,10 C 97.782493,75.435864 96.25,77.356935 96.25,75.680008 Z M 217.5,73.75 c 0,-0.6875 3.09375,-1.25 6.875,-1.25 3.78125,0 6.875,0.5625 6.875,1.25 0,0.6875 -3.09375,1.25 -6.875,1.25 -3.78125,0 -6.875,-0.5625 -6.875,-1.25 z m 51.25,-2.15321 c 0,-0.665126 1.13829,-2.23946 2.52954,-3.49852 1.82451,-1.651165 2.90901,-1.909715 3.89108,-0.92765 1.58487,1.584864 0.24134,4.481526 -1.56175,3.367157 -0.67011,-0.414151 -2.0375,-0.0732 -3.03862,0.757667 -1.00114,0.830867 -1.82025,0.966473 -1.82025,0.301346 z m 41.25,0 c 0,-1.904781 4.71061,-5.673185 6.05389,-4.842996 0.66627,0.411782 0.90492,1.920686 0.53033,3.35312 -0.49005,1.873945 -0.9563,2.159086 -1.66237,1.016632 -0.79026,-1.278661 -1.36491,-1.269435 -2.95157,0.04739 C 310.88663,72.070281 310,72.261917 310,71.59679 Z m 186.25,-1.555689 c 0,-1.414875 2.95635,-3.791101 4.71665,-3.791101 2.90062,0 1.0923,4.1553 -1.90415,4.37551 -1.54688,0.113675 -2.8125,-0.149303 -2.8125,-0.584409 z M 447.84109,61.25 c 1.74802,-1.375 3.93326,-2.481286 4.85607,-2.458414 2.33069,0.05777 -3.72711,4.958414 -6.12921,4.958414 -1.28241,0 -0.86629,-0.817129 1.27314,-2.5 z m 14.62272,-0.586475 c 3.19418,-3.400055 4.39285,-3.258651 5.41196,0.638434 0.56499,2.160505 0.37359,2.338665 -1.15209,1.072456 -1.38583,-1.15014 -2.18063,-1.167469 -3.27666,-0.07144 -2.88902,2.889017 -3.80407,1.363215 -0.98321,-1.63945 z M 193.75,59.375 c 0,-1.287448 0.81925,-1.900537 2.1875,-1.637036 2.6348,0.507416 2.46866,2.725852 -0.24648,3.291191 C 194.55855,61.264958 193.75,60.575909 193.75,59.375 Z M 173.895,37.741025 C 173.6607,35.100699 176.46607,25 177.43371,25 c 1.07823,0 4.11123,12.621725 3.2419,13.491058 -0.33922,0.339218 -0.97144,-0.307497 -1.40492,-1.437148 -1.04056,-2.711652 -3.9372,-2.628596 -4.65903,0.13359 -0.31441,1.203125 -0.63691,1.452211 -0.71666,0.553525 z M 178.73086,32.8125 C 178.72034,32.296875 178.16645,31.03125 177.5,30 c -0.97984,-1.516199 -1.21538,-1.336798 -1.23086,0.9375 -0.0105,1.546875 0.54336,2.8125 1.23086,2.8125 0.6875,0 1.24139,-0.421875 1.23086,-0.9375 z m 5.0869,4.144155 c -2.09075,-2.519199 -1.1293,-9.559325 1.53033,-11.205594 1.7157,-1.061999 2.49587,-0.948125 3.41835,0.498939 1.91521,3.004348 1.41441,4.46487 -0.61769,1.801413 -1.60235,-2.100189 -2.01993,-2.174325 -3.10585,-0.551413 -1.57788,2.358099 -1.61215,6.30949 -0.0759,8.739551 0.95935,1.517431 1.47744,1.565918 2.78292,0.260449 1.30547,-1.305469 1.25699,-1.823559 -0.26045,-2.78291 -1.58214,-1.000264 -1.53323,-1.181707 0.32295,-1.197949 1.5051,-0.01317 2.1875,0.95571 2.1875,3.105859 0,3.560864 -3.67517,4.352494 -6.18224,1.331655 z M 192.5,31.875 c 0,-6.685875 0.0945,-6.87282 3.4375,-6.795767 3.30422,0.07616 3.32846,0.123062 0.625,1.209719 -3.3727,1.35566 -3.60056,3.12782 -0.625,4.860924 2.08334,1.21343 2.08334,1.275913 0,1.312113 -3.32321,0.05775 -2.78073,4.749874 0.625,5.405845 2.41144,0.464462 2.3223,0.565986 -0.625,0.711939 -3.35396,0.166091 -3.4375,0.0032 -3.4375,-6.704773 z m 8.93774,0.3125 c -0.20067,-7.682361 1.30807,-9.366525 3.35941,-3.75 1.10541,3.026596 1.26728,3.110125 1.35416,0.698771 0.0543,-1.506301 0.66119,-3.086372 1.34869,-3.511271 0.77607,-0.47964 1.25,1.86202 1.25,6.176229 0,3.821823 -0.47246,6.948771 -1.04993,6.948771 -0.57746,0 -1.84308,-2.390625 -2.8125,-5.3125 l -1.76257,-5.3125 -0.74976,5.625 -0.74975,5.625 z m 10.31473,4.818951 c -0.36798,-0.958951 -0.49095,-3.912076 -0.27326,-6.5625 0.3103,-3.778111 0.91327,-4.818951 2.79163,-4.818951 1.3177,0 2.6748,0.84375 3.01577,1.875 0.50747,1.534799 0.27869,1.593466 -1.26085,0.323345 -2.48164,-2.047361 -3.52576,-0.807651 -3.52576,4.186217 0,4.052346 2.52254,7.297815 3.4679,4.461752 C 216.23764,35.662091 217.04284,35 217.75722,35 c 0.7842,0 0.68228,0.742979 -0.25722,1.875 -1.95413,2.354579 -4.86885,2.421241 -5.74753,0.131451 z M 221.25,31.875 c 0,-6.33926 0.21916,-6.8637 2.8125,-6.729999 2.11646,0.109113 2.27114,0.286475 0.625,0.716656 -1.20313,0.314409 -2.1875,1.614164 -2.1875,2.888343 0,1.274179 0.98437,2.573934 2.1875,2.888342 2.08334,0.544433 2.08334,0.578559 0,0.716657 -3.29836,0.218636 -2.77234,4.85848 0.625,5.512835 2.41144,0.464462 2.3223,0.565986 -0.625,0.711938 -3.35396,0.166092 -3.4375,0.0032 -3.4375,-6.704772 z m 12.78649,5.411484 C 230.95347,34.203477 233.09484,25 236.89516,25 c 3.64824,0 4.19762,12.77862 0.57883,13.463295 -1.04557,0.19782 -2.59244,-0.331745 -3.4375,-1.176811 z M 238.125,31.875 c 0,-2.635416 -0.636,-5.003665 -1.41333,-5.262775 -1.78881,-0.59627 -3.10522,4.443831 -2.13236,8.164075 1.14915,4.394359 3.54569,2.433365 3.54569,-2.9013 z m 4.56229,0.3125 c -0.18424,-7.070679 -0.13141,-7.186213 3.25021,-7.108267 3.30422,0.07616 3.32846,0.123062 0.625,1.209719 -3.3727,1.35566 -3.60056,3.12782 -0.625,4.860924 1.9967,1.162969 2.00394,1.277418 0.083,1.312113 -1.32294,0.0239 -2.29785,1.314582 -2.62521,3.475511 -0.2864,1.890625 -0.60502,0.203125 -0.70803,-3.75 z m 7.55989,0 c 0.34501,-5.99264 0.64918,-6.582543 3.50282,-6.793306 1.80491,-0.133308 2.20094,0.03741 0.9375,0.404155 -2.51063,0.728755 -2.95791,4.932447 -0.625,5.8738 1.25,0.504386 1.25,0.65022 0,0.729167 -0.85938,0.05428 -1.5625,1.504934 -1.5625,3.223684 0,1.71875 -0.5919,3.125 -1.31532,3.125 -0.80139,0 -1.1677,-2.564179 -0.9375,-6.5625 z M 257.5,31.875 c 0,-3.78125 0.5625,-6.875 1.25,-6.875 0.6875,0 1.25,3.09375 1.25,6.875 0,3.78125 -0.5625,6.875 -1.25,6.875 -0.6875,0 -1.25,-3.09375 -1.25,-6.875 z m 5.7841,4.963856 c -2.47854,-6.458954 0.90346,-13.85664 4.8409,-10.588856 1.03125,0.855861 1.85711,2.190361 1.83525,2.965556 -0.0219,0.775194 -0.88783,0.287184 -1.92436,-1.084467 -1.61667,-2.139342 -2.05258,-2.2282 -3.0661,-0.625 -1.53878,2.434045 -1.50575,6.384338 0.0731,8.743911 1.0835,1.619276 1.52242,1.534035 3.21816,-0.625 1.96356,-2.5 1.96356,-2.5 1.52598,0 -0.54775,3.12947 -5.41894,4.038736 -6.50294,1.213856 z M 272.5,31.875 c 0,-3.78125 0.5625,-6.875 1.25,-6.875 0.6875,0 1.25,3.09375 1.25,6.875 0,3.78125 -0.5625,6.875 -1.25,6.875 -0.6875,0 -1.25,-3.09375 -1.25,-6.875 z m 4.25247,5.131451 c -0.36798,-0.958951 -0.49095,-3.912076 -0.27326,-6.5625 0.33886,-4.12584 0.84526,-4.852149 3.52079,-5.049757 1.80491,-0.133308 2.20094,0.03741 0.9375,0.404155 -2.51063,0.728755 -2.95791,4.932447 -0.625,5.8738 1.25,0.504386 1.25,0.65022 0,0.729167 -2.82078,0.178154 -1.74335,4.889974 1.25,5.466518 2.38455,0.459283 2.28347,0.567612 -0.66423,0.711939 -1.95258,0.0956 -3.77003,-0.594117 -4.1458,-1.573322 z M 285,32.5 c 0,-3.4375 0.5625,-6.25 1.25,-6.25 0.6875,0 1.25,2.490005 1.25,5.533345 0,4.218746 0.5197,5.669156 2.1875,6.104997 1.34582,0.351703 0.86487,0.627447 -1.25,0.716657 C 285.1265,38.744664 285,38.52 285,32.5 Z m 8.98122,-0.9375 0.23123,-7.1875 0.45634,6.482894 c 0.33777,4.798432 1.00846,6.628296 2.58127,7.042497 1.52337,0.401179 1.3287,0.600656 -0.68756,0.704608 -2.63235,0.135713 -2.79769,-0.31539 -2.58128,-7.042499 z M 301.25,31.875 c 0,-6.707934 0.0835,-6.870864 3.4375,-6.704773 2.9473,0.145953 3.03644,0.247477 0.625,0.711939 -3.37276,0.649623 -3.83611,4.917025 -0.625,5.756176 2.08334,0.544433 2.08334,0.578559 0,0.716657 -3.29836,0.218636 -2.77234,4.85848 0.625,5.512835 2.41144,0.464462 2.3223,0.565986 -0.625,0.711938 -3.35396,0.166092 -3.4375,0.0032 -3.4375,-6.704772 z m 12.5,0.08694 C 313.75,26.881911 314.21546,25 315.47195,25 c 2.96235,0 4.7049,3.38688 4.29621,8.350265 -0.31735,3.854021 -0.9355,4.851759 -3.20566,5.174174 -2.62783,0.373211 -2.8125,-0.05769 -2.8125,-6.562499 z m 4.75348,0.28799 c 0.26537,-3.107538 -0.20152,-4.654385 -1.5625,-5.176645 C 315.36153,26.467192 315,27.388274 315,32.018397 c 0,6.895467 2.91791,7.0883 3.50348,0.231533 z m 4.2437,-0.06243 c 0.34501,-5.99264 0.64918,-6.582543 3.50282,-6.793306 1.80491,-0.133308 2.20094,0.03741 0.9375,0.404155 -2.51063,0.728755 -2.95791,4.932447 -0.625,5.8738 1.25,0.504386 1.25,0.65022 0,0.729167 -2.82078,0.178154 -1.74335,4.889974 1.25,5.466518 1.99985,0.385187 1.6198,0.590897 -1.31532,0.711939 L 322.36935,38.75 Z m 12.42305,0 C 335.022,25.929135 335.30339,25 337.34695,25 c 5.1736,0 6.36221,6.565335 1.42249,7.857104 -1.2692,0.331902 -2.55994,1.934207 -2.86831,3.560677 -0.30837,1.62647 -0.63728,-0.277156 -0.7309,-4.230281 z m 4.59181,-3.125 c -0.50741,-2.634804 -2.72585,-2.468668 -3.29119,0.246474 -0.23581,1.13248 0.45324,1.941026 1.65415,1.941026 1.28745,0 1.90054,-0.819246 1.63704,-2.1875 z M 343.75,31.875 c 0,-5.892216 0.3355,-6.875 2.34695,-6.875 3.4162,0 5.63149,3.117048 4.12652,5.806269 -0.73635,1.315802 -0.78802,3.333867 -0.12967,5.065449 0.60187,1.583054 0.65433,2.878282 0.11662,2.878282 -0.53776,0 -1.589,-1.546875 -2.33608,-3.4375 l -1.35833,-3.4375 -0.13297,3.4375 C 346.13051,41.838915 343.75,38.731025 343.75,31.875 Z m 5.53746,-1.733366 c 0.37676,-0.609602 -0.15255,-1.803478 -1.17622,-2.653057 -1.54889,-1.285462 -1.86124,-1.099457 -1.86124,1.108367 0,2.681707 1.77642,3.585099 3.03746,1.54469 z m 4.96502,6.864817 c -0.36799,-0.958951 -0.49096,-3.912076 -0.27327,-6.5625 0.31476,-3.832502 0.90138,-4.818951 2.86569,-4.818951 3.38449,0 5.33815,5.70791 3.40549,9.949638 -1.56704,3.439271 -4.9204,4.239781 -5.99791,1.431813 z m 4.25689,-4.818951 c -0.41752,-5.77059 -2.63453,-6.778511 -3.29008,-1.495771 -0.49206,3.965192 0.47398,6.808271 2.31335,6.808271 0.82826,0 1.21063,-2.079739 0.97673,-5.3125 z m 5.40518,-0.07377 c -0.17433,-7.692588 1.38565,-8.659976 2.94654,-1.82724 l 0.93398,4.088511 1.22664,-4.6875 c 1.82257,-6.96477 3.50719,-5.676099 3.26817,2.5 -0.18181,6.218335 -0.29036,6.513299 -0.80506,2.1875 l -0.59492,-5 -1.58101,5 -1.58103,5 -1.01494,-4.375 -1.01495,-4.375 -0.80943,4.375 c -0.68458,3.70011 -0.83482,3.254873 -0.97399,-2.886271 z m 11.84419,4.659037 C 373.30279,30.372665 376.71137,23.001975 380.625,26.25 c 3.49476,2.900394 2.05483,12.5 -1.875,12.5 -1.22789,0 -2.57396,-0.889755 -2.99126,-1.977233 z m 4.73252,-1.25 c 1.0947,-2.852747 0.90274,-5.870078 -0.5104,-8.022762 -1.0941,-1.666666 -1.36762,-1.666666 -2.46172,0 -1.40554,2.141089 -1.68038,7.922095 -0.4358,9.166666 1.36883,1.368845 2.60261,0.954719 3.40792,-1.143904 z m 5.97713,-2.6061 c -0.12901,-3.815162 -0.85786,-6.716363 -1.78089,-7.088811 -0.85938,-0.346766 0.0532,-0.674891 2.02805,-0.729167 2.76603,-0.07602 3.2881,0.265761 2.27345,1.48834 -0.72441,0.872862 -1.53876,4.107237 -1.80968,7.1875 L 386.68676,39.375 Z M 392.5,31.875 c 0,-3.78125 0.5625,-6.875 1.25,-6.875 0.6875,0 1.25,3.09375 1.25,6.875 0,3.78125 -0.5625,6.875 -1.25,6.875 -0.6875,0 -1.25,-3.09375 -1.25,-6.875 z m 4.96259,3.651606 c -0.78773,-2.071883 -0.87073,-4.677182 -0.21198,-6.653453 1.41449,-4.243464 5.41917,-4.319364 6.4978,-0.123151 1.96517,7.645033 -3.6529,13.701732 -6.28582,6.776604 z m 4.81596,-4.430158 c -0.22195,-2.321797 -0.96605,-4.09831 -1.65355,-3.947809 -1.51128,0.330835 -2.35725,6.041673 -1.30224,8.790973 1.27463,3.321615 3.40294,-0.1657 2.95579,-4.843164 z m 3.97145,1.477323 c 0,-5.657367 1.46846,-9.004106 2.92014,-6.655236 0.96314,1.558376 -0.64699,12.831465 -1.8327,12.831465 -0.59809,0 -1.08744,-2.779303 -1.08744,-6.176229 z m 4.96906,2.969854 c -1.55281,-4.0842 -1.58156,-6.80199 -0.0462,-4.375795 0.8358,1.320827 1.27174,0.662645 1.65582,-2.5 0.35402,-2.91518 0.58552,-1.986226 0.72137,2.89467 0.21784,7.826422 -0.44105,8.951781 -2.33089,3.981125 z M 420,31.875 c 0,-3.78125 0.5625,-6.875 1.25,-6.875 0.6875,0 1.25,3.09375 1.25,6.875 0,3.78125 -0.5625,6.875 -1.25,6.875 -0.6875,0 -1.25,-3.09375 -1.25,-6.875 z m 5,0.208334 C 425,28.1875 425.536,25 426.19111,25 c 0.69768,0 0.88404,2.718555 0.44985,6.5625 C 425.6384,40.438567 425,40.641193 425,32.083334 Z m 3.87229,2.730137 C 427.18398,29.970379 427.12067,27.478799 428.75,30 c 0.94086,1.455873 1.216,1.09011 1.23086,-1.636271 0.011,-2.018754 0.55046,-3.182891 1.26914,-2.738729 1.55577,0.961521 1.6691,13.125 0.12225,13.125 -0.62025,0 -1.74525,-1.771437 -2.5,-3.936529 z m 7.5961,-1.896805 c -0.12901,-3.815166 -0.85786,-6.716367 -1.78089,-7.088815 -0.85938,-0.346766 0.0532,-0.674891 2.02805,-0.729167 2.76603,-0.07602 3.2881,0.265761 2.27345,1.48834 -0.72441,0.872862 -1.53876,4.107237 -1.80968,7.1875 L 436.68676,39.375 Z M 442.5,31.875 c 0,-6.685875 0.0945,-6.87282 3.4375,-6.795767 3.30422,0.07616 3.32846,0.123062 0.625,1.209719 -3.3727,1.35566 -3.60056,3.12782 -0.625,4.860924 2.08334,1.21343 2.08334,1.275913 0,1.312113 -3.14754,0.05469 -2.69628,3.664066 0.625,4.999058 2.70346,1.086658 2.67922,1.133559 -0.625,1.209721 C 442.59456,38.74782 442.5,38.560875 442.5,31.875 Z m 8.93729,0.3125 C 451.27405,25.923076 451.55141,25 453.59695,25 c 3.42577,0 5.84463,3.285546 4.02924,5.472954 -1.00248,1.207915 -1.05749,2.702555 -0.184,5 0.68526,1.802376 0.75834,3.277046 0.16238,3.277046 -0.59596,0 -1.4365,-1.40625 -1.86787,-3.125 -1.03961,-4.14213 -2.94164,-3.976628 -3.59139,0.3125 -0.2864,1.890625 -0.60501,0.203125 -0.70802,-3.75 z m 4.57475,-3.125 c -0.50741,-2.634804 -2.72585,-2.468668 -3.29119,0.246474 -0.23581,1.13248 0.45324,1.941026 1.65415,1.941026 1.28745,0 1.90054,-0.819246 1.63704,-2.1875 z m 5.4551,2.8125 c -0.12569,-6.848938 0.0216,-7.289367 1.69761,-5.073587 1.00939,1.334526 1.9093,3.303276 1.9998,4.375 0.0905,1.071722 0.57896,-0.02016 1.08545,-2.426413 0.81635,-3.878341 0.93957,-3.550685 1.08545,2.886271 0.17491,7.718598 -1.45774,8.651158 -3.12834,1.786894 l -0.98524,-4.048165 -0.80856,5 c -0.73417,4.540117 -0.82121,4.310175 -0.94617,-2.5 z M 470,38.425439 C 470,35.394411 472.90337,25 473.75,25 c 0.57356,0 1.65195,2.840186 2.39643,6.311526 1.74143,8.120074 1.71622,8.385593 -0.52143,5.489886 -1.85605,-2.401883 -1.89395,-2.401883 -3.75,0 C 470.84375,38.135939 470,38.86675 470,38.425439 Z M 475,31.875 C 475,30.84375 474.4375,30 473.75,30 c -0.6875,0 -1.25,0.84375 -1.25,1.875 0,1.03125 0.5625,1.875 1.25,1.875 0.6875,0 1.25,-0.84375 1.25,-1.875 z m 5,0.729166 c 0,-3.747075 -0.60985,-6.391913 -1.5625,-6.776315 -0.85938,-0.346766 0.40625,-0.630482 2.8125,-0.630482 2.40625,0 3.67187,0.283716 2.8125,0.630482 -0.95265,0.384402 -1.5625,3.02924 -1.5625,6.776315 0,3.380209 -0.5625,6.145834 -1.25,6.145834 -0.6875,0 -1.25,-2.765625 -1.25,-6.145834 z M 486.25,31.875 c 0,-3.78125 0.5625,-6.875 1.25,-6.875 0.6875,0 1.25,3.09375 1.25,6.875 0,3.78125 -0.5625,6.875 -1.25,6.875 -0.6875,0 -1.25,-3.09375 -1.25,-6.875 z m 5.83334,6.041666 c -1.20869,-1.208678 -0.98642,-9.489454 0.30965,-11.536312 1.587,-2.506347 4.89303,-0.793125 5.85341,3.033299 1.41291,5.629531 -2.97821,11.687863 -6.16306,8.503013 z m 4.43458,-3.34282 c 0.7079,-3.703154 -1.09248,-8.734322 -2.75734,-7.705381 -1.40179,0.866349 -1.73426,8.491189 -0.42724,9.798201 1.55034,1.550344 2.6229,0.84549 3.18458,-2.09282 z M 501.42739,32.1875 C 501.32976,28.234375 501.75153,25 502.36449,25 c 1.30095,0 3.08261,6.219569 2.07135,7.230831 -0.37721,0.37721 -0.76566,-0.111037 -0.86323,-1.084997 -0.0976,-0.973959 -0.58024,0.479166 -1.07261,3.229166 -0.86145,4.811314 -0.90193,4.728763 -1.07261,-2.1875 z m 4.42689,4.83425 c -0.97834,-2.54953 0.54542,-12.076773 1.80684,-11.29717 1.43528,0.887049 1.40948,11.429734 -0.0301,12.319469 -0.61545,0.380376 -1.41498,-0.07966 -1.7767,-1.022299 z m 4.74597,-1.230079 c 0.42383,-1.970831 1.09496,-5.205206 1.49141,-7.1875 C 512.48812,26.621876 513.24859,25 513.78157,25 c 1.25257,0 4.24332,12.391774 3.23429,13.400805 -0.42122,0.421224 -0.76586,-0.171639 -0.76586,-1.317471 0,-2.71651 -2.37618,-2.663106 -4.63486,0.104162 -1.61944,1.984094 -1.71382,1.854302 -1.01489,-1.395825 z M 515,31.176229 c 0,-1.415574 -0.5625,-2.226128 -1.25,-1.801229 -0.6875,0.424899 -1.25,1.583095 -1.25,2.573771 0,0.990676 0.5625,1.801229 1.25,1.801229 0.6875,0 1.25,-1.158198 1.25,-2.573771 z m 5.23122,0.386271 0.23123,-7.1875 0.45637,6.483764 c 0.3874,5.503976 0.87192,6.564385 3.20628,7.017272 2.28152,0.44264 2.16441,0.562503 -0.6876,0.703737 -3.3961,0.168177 -3.43471,0.08367 -3.20628,-7.017273 z M 527.5,31.875 c 0,-6.685875 0.0945,-6.87282 3.4375,-6.795767 3.30422,0.07616 3.32846,0.123062 0.625,1.209719 -3.34179,1.343233 -3.71549,4.541763 -0.625,5.349391 2.08334,0.544432 2.08334,0.578558 0,0.716656 -3.29836,0.218636 -2.77234,4.85848 0.625,5.512835 2.41144,0.464462 2.3223,0.565986 -0.625,0.711939 -3.35396,0.166091 -3.4375,0.0032 -3.4375,-6.704773 z"
         style="fill:#000000;fill-opacity:1;stroke-width:155.19694519;stroke-miterlimit:4;stroke-dasharray:none" />
    </g>
  </g>
</svg>
