<?xml version="1.0" encoding="UTF-8" standalone="no"?>
<!-- Created with Inkscape (http://www.inkscape.org/) -->

<svg
   xmlns:dc="http://purl.org/dc/elements/1.1/"
   xmlns:cc="http://creativecommons.org/ns#"
   xmlns:rdf="http://www.w3.org/1999/02/22-rdf-syntax-ns#"
   xmlns:svg="http://www.w3.org/2000/svg"
   xmlns="http://www.w3.org/2000/svg"
   xmlns:sodipodi="http://sodipodi.sourceforge.net/DTD/sodipodi-0.dtd"
   xmlns:inkscape="http://www.inkscape.org/namespaces/inkscape"
   width="39.5508mm"
   height="31.038118mm"
   viewBox="0 0 140.14063 109.97758"
   id="svg4714"
   version="1.1"
   inkscape:version="0.91 r13725"
   sodipodi:docname="iclit-side-00-2.svg">
  <defs
     id="defs4716">
    <inkscape:path-effect
       effect="spiro"
       id="path-effect4148-0-0"
       is_visible="true" />
  </defs>
  <sodipodi:namedview
     id="base"
     pagecolor="#ffffff"
     bordercolor="#666666"
     borderopacity="1.0"
     inkscape:pageopacity="0.0"
     inkscape:pageshadow="2"
     inkscape:zoom="1.979899"
     inkscape:cx="0.49356269"
     inkscape:cy="77.515574"
     inkscape:document-units="px"
     inkscape:current-layer="flowRoot4829"
     showgrid="false"
     fit-margin-top="0"
     fit-margin-left="0"
     fit-margin-right="0"
     fit-margin-bottom="0"
     inkscape:window-width="1366"
     inkscape:window-height="669"
     inkscape:window-x="0"
     inkscape:window-y="28"
     inkscape:window-maximized="1" />
  <metadata
     id="metadata4719">
    <rdf:RDF>
      <cc:Work
         rdf:about="">
        <dc:format>image/svg+xml</dc:format>
        <dc:type
           rdf:resource="http://purl.org/dc/dcmitype/StillImage" />
        <dc:title />
      </cc:Work>
    </rdf:RDF>
  </metadata>
  <g
     inkscape:label="Layer 1"
     inkscape:groupmode="layer"
     id="layer1"
     transform="translate(-71.039318,-354.05198)">
    <path
       style="display:inline;fill:#ffffff;fill-rule:evenodd;stroke:#000000;stroke-width:1.875;stroke-linecap:round;stroke-linejoin:round;stroke-miterlimit:4;stroke-dasharray:none;stroke-opacity:1"
       d="m 153.77064,418.92898 7.93111,-11.60096 c 0.48671,-0.71192 0.97025,-1.43963 1.25036,-2.25526 0.2801,-0.81563 0.34471,-1.71817 0.0911,-2.54241 -0.25365,-0.82425 -0.82667,-1.54619 -1.57469,-1.97535 -0.74803,-0.42915 -1.64881,-0.56112 -2.50141,-0.43156 -0.8526,0.12956 -1.65135,0.5066 -2.37377,0.97757 -0.72243,0.47097 -1.37842,1.03572 -2.07449,1.54484 -0.69607,0.50912 -1.45128,0.9694 -2.29281,1.15796 -0.42076,0.0943 -0.85998,0.11784 -1.28435,0.0415 -0.42438,-0.0764 -0.83352,-0.25513 -1.16038,-0.53636 -0.28034,-0.24121 -0.49586,-0.55364 -0.64063,-0.89396 -0.14477,-0.34032 -0.22006,-0.70809 -0.24121,-1.07731 -0.0423,-0.73845 0.12877,-1.47251 0.34273,-2.18054 0.21397,-0.70804 0.4726,-1.40504 0.61359,-2.13114 0.14099,-0.7261 0.15846,-1.49629 -0.10368,-2.18794 -0.21852,-0.57655 -0.62595,-1.07429 -1.12806,-1.43212 -0.50211,-0.35784 -1.09584,-0.57863 -1.7053,-0.67197 -1.21893,-0.18669 -2.4669,0.12967 -3.59487,0.628 -1.12797,0.49833 -2.16658,1.17503 -3.25145,1.76129 -1.08487,0.58626 -2.24431,1.08985 -3.47286,1.19616 -1.27437,0.11027 -2.57364,-0.22306 -3.6708,-0.88065 -1.09717,-0.65758 -1.9935,-1.63039 -2.61529,-2.74822 -1.2436,-2.23566 -1.36346,-4.96942 -0.7809,-7.46047 0.58255,-2.49105 1.81439,-4.78058 3.16238,-6.95489 1.348,-2.1743 2.82856,-4.2735 3.98281,-6.55657 1.28609,-2.54383 2.15382,-5.29065 3.55482,-7.77305 0.7005,-1.24119 1.53727,-2.41599 2.57518,-3.39272 1.03791,-0.97674 2.28503,-1.75159 3.65974,-2.12768 1.60183,-0.43823 3.35192,-0.31295 4.87499,0.34897 1.52307,0.66192 2.80869,1.85595 3.58117,3.32604 1.2619,-2.37484 3.25684,-4.35361 5.64187,-5.59615 2.38502,-1.24254 5.14987,-1.74349 7.81923,-1.41673 2.80765,0.34368 5.4956,1.60402 7.55543,3.5426 2.05982,1.93859 3.4807,4.54524 3.99386,7.32691 1.83931,-1.79859 4.14058,-3.12081 6.62075,-3.80402 2.48016,-0.6832 5.13389,-0.72593 7.63477,-0.12293 3.4296,0.82693 6.56427,2.90065 8.57318,5.80069 2.00891,2.90003 2.84825,6.61072 2.17117,10.07302 -0.46144,2.35961 -1.61035,4.58059 -3.26962,6.32057 -1.65927,1.73998 -3.82322,2.99299 -6.15828,3.56589 1.32194,3.84773 1.1847,8.17744 -0.37827,11.93372 -1.56297,3.75629 -4.53761,6.90537 -8.19883,8.67964 -2.99466,1.45124 -6.42585,1.98619 -9.72016,1.51545 -3.29431,-0.47075 -6.43836,-1.94528 -8.90671,-4.17717 l -14.53138,13.18734 z"
       id="path4146-1"
       inkscape:connector-curvature="0"
       inkscape:path-effect="#path-effect4148-0-0"
       inkscape:original-d="m 153.77064,418.92898 7.93111,-11.60096 c 3.80914,-5.57169 -9.46888,-0.61977 -11.92048,-4.0191 -1.65221,-2.29087 2.08146,-6.59307 -0.0292,-8.47089 -3.29488,-2.93148 -9.86739,4.42368 -13.15254,1.48136 -6.11156,-5.47378 -2.49398,-16.81357 0.0782,-24.6008 1.72558,-5.22417 4.47286,-11.86279 9.78974,-13.29345 2.96809,-0.79868 8.45616,3.67501 8.45616,3.67501 0,0 8.4484,-7.70555 13.4611,-7.01288 5.23898,0.72397 11.54929,10.86951 11.54929,10.86951 0,0 9.63129,-5.63215 14.25552,-3.92695 5.99787,2.21168 11.27628,9.50826 10.74435,15.87371 -0.37906,4.53597 -9.4279,9.88646 -9.4279,9.88646 0,0 -2.10389,16.93298 -8.5771,20.61336 -5.45124,3.09941 -14.38852,-4.43799 -18.62687,-2.66172 z"
       sodipodi:nodetypes="csaaaaacacaacacc" />
    <path
       style="fill:#ffffff;fill-opacity:1;stroke:#000000;stroke-width:1.875;stroke-linecap:round;stroke-linejoin:round;stroke-miterlimit:4;stroke-dasharray:none;stroke-opacity:1"
       d="m 190.15131,376.73768 c -6.73305,-3.66564 -15.97295,-7.07696 -19.68013,-3.66345 l -13.80991,17.58008 c 6.77615,-0.2072 16.17346,4.47427 27.96455,9.93716 l 0.42492,-0.66497 z"
       id="path6791"
       sodipodi:nodetypes="cccccc"
       inkscape:connector-curvature="0" />
    <path
       sodipodi:nodetypes="cccccc"
       id="path6794"
       d="m 173.21434,370.70597 c -2.04834,-5.00225 -7.92807,-3.90401 -17.48802,-2.39407 l -17.91257,17.86874 0.192,0.48362 c 12.04343,-3.28653 14.76392,0.65267 18.68181,4.0259 z"
       style="fill:#ffffff;fill-opacity:1;stroke:#000000;stroke-width:1.875;stroke-linecap:round;stroke-linejoin:round;stroke-miterlimit:4;stroke-dasharray:none;stroke-opacity:1"
       inkscape:connector-curvature="0" />
    <path
       sodipodi:nodetypes="cccc"
       id="path6796"
       d="m 173.28447,370.63025 c -2.04833,-5.00225 -7.92807,-3.90401 -17.48801,-2.39408 l -17.91974,17.97124 z"
       style="fill:#ffffff;fill-opacity:1;stroke:#000000;stroke-width:1.875;stroke-linecap:round;stroke-linejoin:round;stroke-miterlimit:4;stroke-dasharray:none;stroke-opacity:1"
       inkscape:connector-curvature="0" />
    <path
       style="fill:#ffffff;fill-opacity:1;stroke:#000000;stroke-width:1.875;stroke-linecap:round;stroke-linejoin:round;stroke-miterlimit:4;stroke-dasharray:none;stroke-opacity:1"
       d="m 173.28447,370.63025 c -2.04833,-5.00225 -7.92807,-3.90401 -17.48801,-2.39408 l -17.98909,17.97835 c 12.04344,-3.28653 15.03243,1.02668 18.95033,4.39991 z"
       id="path6798"
       sodipodi:nodetypes="ccccc"
       inkscape:connector-curvature="0" />
    <path
       sodipodi:nodetypes="ccccc"
       id="path6800"
       d="m 174.13268,369.64813 c -2.04833,-5.00225 -7.92807,-3.90401 -17.48801,-2.39408 l -16.60047,17.28229 c 12.341,-4.41094 13.27668,2.39246 16.9962,5.60506 z"
       style="fill:#ffffff;fill-opacity:1;stroke:#000000;stroke-width:1.875;stroke-linecap:round;stroke-linejoin:round;stroke-miterlimit:4;stroke-dasharray:none;stroke-opacity:1"
       inkscape:connector-curvature="0" />
    <path
       sodipodi:nodetypes="ccccc"
       id="path6808"
       d="m 190.15131,376.73768 c -6.73305,-3.66564 -15.97295,-7.07696 -19.68013,-3.66345 l -13.73552,17.49976 c 6.97452,-0.26074 16.54541,4.01916 28.33651,9.48204 z"
       style="fill:#ffffff;fill-opacity:1;stroke:#000000;stroke-width:1.875;stroke-linecap:round;stroke-linejoin:round;stroke-miterlimit:4;stroke-dasharray:none;stroke-opacity:1"
       inkscape:connector-curvature="0" />
    <path
       style="fill:#ffffff;fill-opacity:1;stroke:#000000;stroke-width:1.875;stroke-linecap:round;stroke-linejoin:round;stroke-miterlimit:4;stroke-dasharray:none;stroke-opacity:1"
       d="m 190.36605,374.77724 c -6.73305,-4.08898 -13.29489,-8.01371 -17.00207,-4.20599 l -16.07068,19.29867 c 7.07371,-3.39666 10.64804,-2.34234 27.20011,8.41014 z"
       id="path6818"
       sodipodi:nodetypes="ccccc"
       inkscape:connector-curvature="0" />
    <path
       sodipodi:nodetypes="ccccc"
       id="path6820"
       d="m 174.3771,369.29602 c -2.04834,-5.00224 -13.38337,-4.27881 -17.48802,-2.39407 l -17.8899,16.26496 c 17.24147,-8.65046 18.19635,6.71167 18.19635,6.71167 z"
       style="fill:#ffffff;fill-opacity:1;stroke:#000000;stroke-width:1.875;stroke-linecap:round;stroke-linejoin:round;stroke-miterlimit:4;stroke-dasharray:none;stroke-opacity:1"
       inkscape:connector-curvature="0" />
    <g
       transform="translate(-11.316151,240.72488)"
       style="font-style:normal;font-weight:normal;line-height:0.01%;font-family:sans-serif;letter-spacing:0px;word-spacing:0px;fill:#ff6600;fill-opacity:1;stroke:#ff6600;stroke-width:0.375;stroke-linecap:round;stroke-linejoin:round;stroke-miterlimit:4;stroke-dasharray:none;stroke-opacity:1"
       id="flowRoot4829">
      <path
         d="m 82.542969,150.92969 3.515625,0 q 1.347656,0 2.285156,0.67383 0.9375,0.67382 0.9375,1.96289 0,1.34765 -0.908203,1.99218 -0.908203,0.64453 -2.314453,0.64453 l -1.816407,0 0,4.39454 0.878907,0 0,0.35156 -2.578125,0 0,-0.35156 0.878906,0 0,-9.31641 -0.878906,0 0,-0.35156 z m 1.699218,0.35156 0,4.57031 1.816407,0 q 0.996093,0 1.582031,-0.64453 0.585937,-0.64453 0.585937,-1.64062 0,-0.9961 -0.55664,-1.64063 -0.556641,-0.64453 -1.611328,-0.64453 l -1.816407,0 z"
         style="font-style:normal;font-variant:normal;font-weight:normal;font-stretch:normal;font-size:15px;line-height:100%;font-family:'Ume Mincho Balsa';-inkscape-font-specification:'Ume Mincho Balsa, Normal';text-align:start;letter-spacing:-0.5px;writing-mode:lr-tb;text-anchor:start;fill:#000000;stroke:none;stroke-width:0.375;stroke-linecap:round;stroke-linejoin:round;stroke-miterlimit:4;stroke-dasharray:none"
         id="path5659" />
      <path
         d="m 93,154.38672 q 0.761719,0 1.435547,0.41015 0.673828,0.41016 0.996094,0.9961 0.322265,0.58594 0.322265,1.23047 l 0,0.41015 -4.56665,0 q -0.0037,0.0879 -0.0037,0.17578 0,1.28907 0.585937,1.99219 0.585938,0.70313 1.40625,0.70313 0.878906,0 1.464844,-0.32227 0.585937,-0.32226 1.054687,-1.08398 l 0.351563,0.17578 q -0.351563,0.8789 -1.083984,1.40625 -0.732422,0.52734 -1.78711,0.52734 -1.230469,0 -2.080078,-0.9375 -0.849609,-0.9375 -0.849609,-2.46094 0,-1.52343 0.791015,-2.37304 Q 91.828125,154.38672 93,154.38672 Z m 1.816406,2.63672 q -0.05859,-0.9375 -0.615234,-1.55274 Q 93.644531,154.85547 93,154.85547 q -0.585938,0 -1.201172,0.67383 -0.479736,0.52368 -0.585937,1.49414 l 3.603515,0 z"
         style="font-style:normal;font-variant:normal;font-weight:normal;font-stretch:normal;font-size:15px;line-height:100%;font-family:'Ume Mincho Balsa';-inkscape-font-specification:'Ume Mincho Balsa, Normal';text-align:start;letter-spacing:-0.5px;writing-mode:lr-tb;text-anchor:start;fill:#000000;stroke:none;stroke-width:0.375;stroke-linecap:round;stroke-linejoin:round;stroke-miterlimit:4;stroke-dasharray:none"
         id="path5661" />
      <path
         d="m 98.300781,159.07422 q 0,0.64453 0.292969,0.9375 0.292969,0.29297 0.820312,0.29297 1.230468,0 2.402348,-1.17188 l 0,-3.92578 -0.9375,0 0,-0.35156 1.34765,-0.46875 0.41016,0 0,5.74219 0.76172,0 0,0.35156 -1.17188,0.46875 -0.41015,0 0,-1.28906 q -1.23047,1.34765 -2.402348,1.34765 -0.996093,0 -1.464843,-0.55664 -0.46875,-0.55664 -0.46875,-1.37695 l 0,-3.86719 -0.878907,0 0,-0.35156 1.289063,-0.46875 0.410156,0 0,4.6875 z"
         style="font-style:normal;font-variant:normal;font-weight:normal;font-stretch:normal;font-size:15px;line-height:100%;font-family:'Ume Mincho Balsa';-inkscape-font-specification:'Ume Mincho Balsa, Normal';text-align:start;letter-spacing:-0.5px;writing-mode:lr-tb;text-anchor:start;fill:#000000;stroke:none;stroke-width:0.375;stroke-linecap:round;stroke-linejoin:round;stroke-miterlimit:4;stroke-dasharray:none"
         id="path5663" />
      <path
         d="m 106.88281,158.72266 q 0,0.8789 0.32227,1.23046 0.32226,0.35157 0.84961,0.35157 1.23047,0 1.99219,-1.9336 l 0.35156,0.17578 q -0.64453,2.46094 -2.34375,2.46094 -0.9961,0 -1.49414,-0.55664 -0.49805,-0.55664 -0.49805,-1.72851 l 0,-3.98438 -1.69922,0 0,-0.35156 0.87891,0 q 0.9375,0 1.28906,-2.51953 l 0.35156,0 0,2.51953 2.8711,0 0,0.35156 -2.8711,0 0,3.98438 z"
         style="font-style:normal;font-variant:normal;font-weight:normal;font-stretch:normal;font-size:15px;line-height:100%;font-family:'Ume Mincho Balsa';-inkscape-font-specification:'Ume Mincho Balsa, Normal';text-align:start;letter-spacing:-0.5px;writing-mode:lr-tb;text-anchor:start;fill:#000000;stroke:none;stroke-width:0.375;stroke-linecap:round;stroke-linejoin:round;stroke-miterlimit:4;stroke-dasharray:none"
         id="path5665" />
      <path
         d="m 110.77734,155.5 6.5625,0 0,0.70312 -6.5625,0 0,-0.70312 z"
         style="font-style:normal;font-variant:normal;font-weight:normal;font-stretch:normal;font-size:15px;line-height:100%;font-family:'Ume Mincho Balsa';-inkscape-font-specification:'Ume Mincho Balsa, Normal';text-align:start;letter-spacing:-0.5px;writing-mode:lr-tb;text-anchor:start;fill:#000000;stroke:none;stroke-width:0.375;stroke-linecap:round;stroke-linejoin:round;stroke-miterlimit:4;stroke-dasharray:none"
         id="path5667" />
      <path
         d="m 117.89453,157.66797 q 0,-1.46485 0.87891,-2.37305 0.8789,-0.9082 2.22656,-0.9082 1.34766,0 2.25586,0.9082 0.9082,0.9082 0.9082,2.37305 0,1.40625 -0.8789,2.37305 -0.87891,0.96679 -2.28516,0.96679 -1.40625,0 -2.25586,-0.96679 -0.84961,-0.9668 -0.84961,-2.37305 z m 0.9961,0 q 0,1.23047 0.49804,2.08008 0.49805,0.84961 1.61133,0.84961 1.05469,0 1.61133,-0.84961 0.55664,-0.84961 0.55664,-2.08008 0,-1.17188 -0.55664,-2.02149 -0.55664,-0.84961 -1.61133,-0.84961 -1.11328,0 -1.61133,0.84961 -0.49804,0.84961 -0.49804,2.02149 z"
         style="font-style:normal;font-variant:normal;font-weight:normal;font-stretch:normal;font-size:15px;line-height:100%;font-family:'Ume Mincho Balsa';-inkscape-font-specification:'Ume Mincho Balsa, Normal';text-align:start;letter-spacing:-0.5px;writing-mode:lr-tb;text-anchor:start;fill:#000000;stroke:none;stroke-width:0.375;stroke-linecap:round;stroke-linejoin:round;stroke-miterlimit:4;stroke-dasharray:none"
         id="path5669" />
      <path
         d="m 130.63672,160.59766 0.8789,0 0,0.35156 -2.57812,0 0,-0.35156 0.87891,0 0,-4.04297 q 0,-0.87891 -0.41016,-1.20117 -0.41016,-0.32227 -0.87891,-0.32227 -0.99609,0 -2.10937,1.40625 l 0,4.16016 0.87891,0 0,0.35156 -2.57813,0 0,-0.35156 0.87891,0 0,-5.33204 -0.76172,0 0,-0.35156 1.17187,-0.52734 0.41016,0 0,1.58203 q 0.9375,-1.58203 2.10937,-1.58203 l 0.23438,0 q 0.70312,0 1.28906,0.55664 0.58594,0.55664 0.58594,1.61133 l 0,4.04297 z"
         style="font-style:normal;font-variant:normal;font-weight:normal;font-stretch:normal;font-size:15px;line-height:100%;font-family:'Ume Mincho Balsa';-inkscape-font-specification:'Ume Mincho Balsa, Normal';text-align:start;letter-spacing:-0.5px;writing-mode:lr-tb;text-anchor:start;fill:#000000;stroke:none;stroke-width:0.375;stroke-linecap:round;stroke-linejoin:round;stroke-miterlimit:4;stroke-dasharray:none"
         id="path5671" />
      <path
         d="m 86.527344,175.59766 1.464843,0 0,0.35156 -3.691406,0 0,-0.35156 1.40625,0 0,-9.25782 -1.640625,0 0,-0.35156 2.050781,-0.52734 0.410157,0 0,10.13672 z"
         style="font-style:normal;font-variant:normal;font-weight:normal;font-stretch:normal;font-size:15px;line-height:100%;font-family:'Ume Mincho Balsa';-inkscape-font-specification:'Ume Mincho Balsa, Normal';text-align:start;letter-spacing:-0.5px;writing-mode:lr-tb;text-anchor:start;fill:#000000;stroke:none;stroke-width:0.375;stroke-linecap:round;stroke-linejoin:round;stroke-miterlimit:4;stroke-dasharray:none"
         id="path5673" />
      <path
         d="m 92.238281,166.45703 q 0,-0.35156 0.234375,-0.58594 0.234375,-0.23437 0.585938,-0.23437 0.351562,0 0.585937,0.23437 0.234375,0.23438 0.234375,0.58594 0,0.29297 -0.234375,0.52734 -0.234375,0.23438 -0.585937,0.23438 -0.351563,0 -0.585938,-0.23438 -0.234375,-0.23437 -0.234375,-0.52734 z m 1.289063,9.14063 1.464843,0 0,0.35156 -3.75,0 0,-0.35156 1.464844,0 0,-5.33204 -1.464844,0 0,-0.41015 1.933594,-0.46875 0.351563,0 0,6.21094 z"
         style="font-style:normal;font-variant:normal;font-weight:normal;font-stretch:normal;font-size:15px;line-height:100%;font-family:'Ume Mincho Balsa';-inkscape-font-specification:'Ume Mincho Balsa, Normal';text-align:start;letter-spacing:-0.5px;writing-mode:lr-tb;text-anchor:start;fill:#000000;stroke:none;stroke-width:0.375;stroke-linecap:round;stroke-linejoin:round;stroke-miterlimit:4;stroke-dasharray:none"
         id="path5675" />
      <path
         d="m 101.23047,169.79687 q -0.87891,0 -2.050783,2.10938 l 0,3.69141 0.878903,0 0,0.35156 -2.578121,0 0,-0.35156 0.878906,0 0,-5.39063 -0.878906,0 0,-0.35156 1.289062,-0.46875 0.410156,0 0,1.875 q 0.996093,-1.875 2.050783,-1.875 l 0.64453,0 q 0.35156,0 0.76172,0.29297 0.41016,0.29297 0.41016,0.9375 0,0.23437 -0.11719,0.43945 -0.11719,0.20508 -0.52735,0.20508 -0.41015,0 -0.52734,-0.38086 -0.11719,-0.38086 0.29297,-0.73242 -0.35156,-0.35157 -0.9375,-0.35157 z"
         style="font-style:normal;font-variant:normal;font-weight:normal;font-stretch:normal;font-size:15px;line-height:100%;font-family:'Ume Mincho Balsa';-inkscape-font-specification:'Ume Mincho Balsa, Normal';text-align:start;letter-spacing:-0.5px;writing-mode:lr-tb;text-anchor:start;fill:#000000;stroke:none;stroke-width:0.375;stroke-linecap:round;stroke-linejoin:round;stroke-miterlimit:4;stroke-dasharray:none"
         id="path5677" />
      <path
         d="m 107,169.38672 q 0.76172,0 1.43555,0.41015 0.67383,0.41016 0.99609,0.9961 0.32227,0.58594 0.32227,1.23047 l 0,0.41015 -4.56665,0 q -0.004,0.0879 -0.004,0.17578 0,1.28907 0.58594,1.99219 0.58594,0.70313 1.40625,0.70313 0.87891,0 1.46485,-0.32227 0.58593,-0.32226 1.05468,-1.08398 l 0.35157,0.17578 q -0.35157,0.8789 -1.08399,1.40625 -0.73242,0.52734 -1.78711,0.52734 -1.23047,0 -2.08008,-0.9375 -0.84961,-0.9375 -0.84961,-2.46094 0,-1.52343 0.79102,-2.37304 0.79102,-0.84961 1.96289,-0.84961 z m 1.81641,2.63672 q -0.0586,-0.9375 -0.61524,-1.55274 -0.55664,-0.61523 -1.20117,-0.61523 -0.58594,0 -1.20117,0.67383 -0.47974,0.52368 -0.58594,1.49414 l 3.60352,0 z"
         style="font-style:normal;font-variant:normal;font-weight:normal;font-stretch:normal;font-size:15px;line-height:100%;font-family:'Ume Mincho Balsa';-inkscape-font-specification:'Ume Mincho Balsa, Normal';text-align:start;letter-spacing:-0.5px;writing-mode:lr-tb;text-anchor:start;fill:#000000;stroke:none;stroke-width:0.375;stroke-linecap:round;stroke-linejoin:round;stroke-miterlimit:4;stroke-dasharray:none"
         id="path5679" />
      <path
         d="m 120.94141,165.92969 q 0.52734,0 1.02539,0.17578 0.49804,0.17578 1.02539,0.64453 l 0.58594,-0.82031 0.41015,0 0,3.22265 -0.41015,0 q -0.0586,-0.82031 -0.43946,-1.43554 -0.38086,-0.61524 -0.9375,-0.9668 -0.55664,-0.35156 -1.25976,-0.35156 -0.87891,0 -1.37696,0.49804 -0.49804,0.49805 -0.49804,1.49414 0.0586,0.76172 0.52734,1.14258 0.46875,0.38086 1.75781,0.79102 1.64063,0.52734 2.22657,1.25976 0.58593,0.73243 0.58593,1.78711 0,1.28907 -0.76172,1.96289 -0.76171,0.67383 -2.10937,0.67383 -0.82031,0 -1.28906,-0.20508 -0.46875,-0.20507 -0.9961,-0.67382 l -0.41015,0.8789 -0.41016,0 0,-3.33984 0.41016,0 q 0.17578,1.11328 0.43945,1.66992 0.26367,0.55664 0.84961,0.87891 0.58594,0.32226 1.40625,0.32226 0.76172,0 1.28906,-0.52734 0.52735,-0.52735 0.52735,-1.64063 0,-0.58593 -0.35157,-1.11328 -0.35156,-0.52734 -1.69922,-1.05469 -1.8164,-0.58593 -2.40234,-1.23046 -0.58594,-0.64454 -0.58594,-1.58204 0,-1.11328 0.73242,-1.7871 0.73243,-0.67383 2.13868,-0.67383 z"
         style="font-style:normal;font-variant:normal;font-weight:normal;font-stretch:normal;font-size:15px;line-height:100%;font-family:'Ume Mincho Balsa';-inkscape-font-specification:'Ume Mincho Balsa, Normal';text-align:start;letter-spacing:-0.5px;writing-mode:lr-tb;text-anchor:start;fill:#000000;stroke:none;stroke-width:0.375;stroke-linecap:round;stroke-linejoin:round;stroke-miterlimit:4;stroke-dasharray:none"
         id="path5681" />
      <path
         d="m 127.23828,166.45703 q 0,-0.35156 0.23438,-0.58594 0.23437,-0.23437 0.58593,-0.23437 0.35157,0 0.58594,0.23437 0.23438,0.23438 0.23438,0.58594 0,0.29297 -0.23438,0.52734 -0.23437,0.23438 -0.58594,0.23438 -0.35156,0 -0.58593,-0.23438 -0.23438,-0.23437 -0.23438,-0.52734 z m 1.28906,9.14063 1.46485,0 0,0.35156 -3.75,0 0,-0.35156 1.46484,0 0,-5.33204 -1.46484,0 0,-0.41015 1.93359,-0.46875 0.35156,0 0,6.21094 z"
         style="font-style:normal;font-variant:normal;font-weight:normal;font-stretch:normal;font-size:15px;line-height:100%;font-family:'Ume Mincho Balsa';-inkscape-font-specification:'Ume Mincho Balsa, Normal';text-align:start;letter-spacing:-0.5px;writing-mode:lr-tb;text-anchor:start;fill:#000000;stroke:none;stroke-width:0.375;stroke-linecap:round;stroke-linejoin:round;stroke-miterlimit:4;stroke-dasharray:none"
         id="path5683" />
      <path
         d="m 136.99219,170.96875 q 0,-0.46875 -0.20508,-0.70313 -0.20508,-0.23437 -0.43945,-0.23437 -0.52735,0 -0.87891,0.58594 l 0,5.33203 -0.82031,0 0,-4.98047 q 0,-0.52734 -0.11719,-0.73242 -0.11719,-0.20508 -0.35156,-0.20508 -0.52735,0 -1.05469,0.58594 l 0,4.98047 0.87891,0 0,0.35156 -2.57813,0 0,-0.35156 0.87891,0 0,-5.44922 -0.64453,0 0,-0.35157 1.11328,-0.41015 0.35156,0 0,0.8789 q 0.41016,-0.8789 1.05469,-0.8789 l 0.23437,0 q 0.46875,0 0.70313,0.35156 0.23437,0.35156 0.29297,0.58594 0.41015,-0.9375 0.9375,-0.9375 l 0.23437,0 q 0.46875,0 0.84961,0.41015 0.38086,0.41016 0.38086,1.17188 l 0,4.62891 0.87891,0 0,0.35156 -2.57813,0 0,-0.35156 0.87891,0 0,-4.62891 z"
         style="font-style:normal;font-variant:normal;font-weight:normal;font-stretch:normal;font-size:15px;line-height:100%;font-family:'Ume Mincho Balsa';-inkscape-font-specification:'Ume Mincho Balsa, Normal';text-align:start;letter-spacing:-0.5px;writing-mode:lr-tb;text-anchor:start;fill:#000000;stroke:none;stroke-width:0.375;stroke-linecap:round;stroke-linejoin:round;stroke-miterlimit:4;stroke-dasharray:none"
         id="path5685" />
      <path
         d="m 138.89453,172.66797 q 0,-1.46485 0.87891,-2.37305 0.8789,-0.9082 2.22656,-0.9082 1.34766,0 2.25586,0.9082 0.9082,0.9082 0.9082,2.37305 0,1.40625 -0.8789,2.37305 -0.87891,0.96679 -2.28516,0.96679 -1.40625,0 -2.25586,-0.96679 -0.84961,-0.9668 -0.84961,-2.37305 z m 0.99609,0 q 0,1.23047 0.49805,2.08008 0.49805,0.84961 1.61133,0.84961 1.05469,0 1.61133,-0.84961 0.55664,-0.84961 0.55664,-2.08008 0,-1.17188 -0.55664,-2.02149 -0.55664,-0.84961 -1.61133,-0.84961 -1.11328,0 -1.61133,0.84961 -0.49805,0.84961 -0.49805,2.02149 z"
         style="font-style:normal;font-variant:normal;font-weight:normal;font-stretch:normal;font-size:15px;line-height:100%;font-family:'Ume Mincho Balsa';-inkscape-font-specification:'Ume Mincho Balsa, Normal';text-align:start;letter-spacing:-0.5px;writing-mode:lr-tb;text-anchor:start;fill:#000000;stroke:none;stroke-width:0.375;stroke-linecap:round;stroke-linejoin:round;stroke-miterlimit:4;stroke-dasharray:none"
         id="path5687" />
      <path
         d="m 151.63672,175.59766 0.8789,0 0,0.35156 -2.57812,0 0,-0.35156 0.87891,0 0,-4.04297 q 0,-0.87891 -0.41016,-1.20117 -0.41016,-0.32227 -0.87891,-0.32227 -0.99609,0 -2.10937,1.40625 l 0,4.16016 0.8789,0 0,0.35156 -2.57812,0 0,-0.35156 0.87891,0 0,-5.33204 -0.76172,0 0,-0.35156 1.17187,-0.52734 0.41016,0 0,1.58203 q 0.9375,-1.58203 2.10937,-1.58203 l 0.23438,0 q 0.70312,0 1.28906,0.55664 0.58594,0.55664 0.58594,1.61133 l 0,4.04297 z"
         style="font-style:normal;font-variant:normal;font-weight:normal;font-stretch:normal;font-size:15px;line-height:100%;font-family:'Ume Mincho Balsa';-inkscape-font-specification:'Ume Mincho Balsa, Normal';text-align:start;letter-spacing:-0.5px;writing-mode:lr-tb;text-anchor:start;fill:#000000;stroke:none;stroke-width:0.375;stroke-linecap:round;stroke-linejoin:round;stroke-miterlimit:4;stroke-dasharray:none"
         id="path5689" />
      <path
         d="m 156,169.38672 q 0.76172,0 1.43555,0.41015 0.67382,0.41016 0.99609,0.9961 0.32227,0.58594 0.32227,1.23047 l 0,0.41015 -4.56665,0 q -0.004,0.0879 -0.004,0.17578 0,1.28907 0.58594,1.99219 0.58594,0.70313 1.40625,0.70313 0.87891,0 1.46484,-0.32227 0.58594,-0.32226 1.05469,-1.08398 l 0.35156,0.17578 q -0.35156,0.8789 -1.08398,1.40625 -0.73242,0.52734 -1.78711,0.52734 -1.23047,0 -2.08008,-0.9375 -0.84961,-0.9375 -0.84961,-2.46094 0,-1.52343 0.79102,-2.37304 0.79101,-0.84961 1.96289,-0.84961 z m 1.81641,2.63672 q -0.0586,-0.9375 -0.61524,-1.55274 -0.55664,-0.61523 -1.20117,-0.61523 -0.58594,0 -1.20117,0.67383 -0.47974,0.52368 -0.58594,1.49414 l 3.60352,0 z"
         style="font-style:normal;font-variant:normal;font-weight:normal;font-stretch:normal;font-size:15px;line-height:100%;font-family:'Ume Mincho Balsa';-inkscape-font-specification:'Ume Mincho Balsa, Normal';text-align:start;letter-spacing:-0.5px;writing-mode:lr-tb;text-anchor:start;fill:#000000;stroke:none;stroke-width:0.375;stroke-linecap:round;stroke-linejoin:round;stroke-miterlimit:4;stroke-dasharray:none"
         id="path5691" />
      <path
         d="m 87.757812,181.28125 -0.761718,0 0,-0.35156 1.113281,-0.46875 0.46875,0 0,9.66797 0.761719,0 0,0.35156 -1.171875,0.46875 -0.410157,0 0,-0.9375 q -0.878906,0.99609 -1.816406,0.99609 -1.347656,0 -2.080078,-0.82031 -0.732422,-0.82031 -0.732422,-2.46094 0,-1.52344 0.761719,-2.43164 0.761719,-0.9082 1.992187,-0.9082 1.113282,0 1.875,0.9375 l 0,-4.04297 z m -1.875,3.63281 q -0.9375,0.0586 -1.376953,0.76172 -0.439453,0.70313 -0.439453,2.05078 0,1.28906 0.556641,2.02149 0.55664,0.73242 1.318359,0.73242 0.9375,0 1.816406,-1.05469 l 0,-3.57422 q -0.9375,-0.9375 -1.875,-0.9375 z"
         style="font-style:normal;font-variant:normal;font-weight:normal;font-stretch:normal;font-size:15px;line-height:100%;font-family:'Ume Mincho Balsa';-inkscape-font-specification:'Ume Mincho Balsa, Normal';text-align:start;letter-spacing:-0.5px;writing-mode:lr-tb;text-anchor:start;fill:#000000;stroke:none;stroke-width:0.375;stroke-linecap:round;stroke-linejoin:round;stroke-miterlimit:4;stroke-dasharray:none"
         id="path5693" />
      <path
         d="m 93,184.38672 q 0.761719,0 1.435547,0.41015 0.673828,0.41016 0.996094,0.9961 0.322265,0.58594 0.322265,1.23047 l 0,0.41015 -4.56665,0 q -0.0037,0.0879 -0.0037,0.17578 0,1.28907 0.585937,1.99219 0.585938,0.70313 1.40625,0.70313 0.878906,0 1.464844,-0.32227 0.585937,-0.32226 1.054687,-1.08398 l 0.351563,0.17578 q -0.351563,0.8789 -1.083984,1.40625 -0.732422,0.52734 -1.78711,0.52734 -1.230469,0 -2.080078,-0.9375 -0.849609,-0.9375 -0.849609,-2.46094 0,-1.52343 0.791015,-2.37304 Q 91.828125,184.38672 93,184.38672 Z m 1.816406,2.63672 q -0.05859,-0.9375 -0.615234,-1.55274 Q 93.644531,184.85547 93,184.85547 q -0.585938,0 -1.201172,0.67383 -0.479736,0.52368 -0.585937,1.49414 l 3.603515,0 z"
         style="font-style:normal;font-variant:normal;font-weight:normal;font-stretch:normal;font-size:15px;line-height:100%;font-family:'Ume Mincho Balsa';-inkscape-font-specification:'Ume Mincho Balsa, Normal';text-align:start;letter-spacing:-0.5px;writing-mode:lr-tb;text-anchor:start;fill:#000000;stroke:none;stroke-width:0.375;stroke-linecap:round;stroke-linejoin:round;stroke-miterlimit:4;stroke-dasharray:none"
         id="path5695" />
      <path
         d="m 103.54297,180.92969 3.45703,0 q 1.34766,0 2.16797,0.67383 0.82031,0.67382 0.82031,1.72851 0,0.99609 -0.70312,1.64063 -0.70313,0.64453 -1.11328,0.70312 0.9375,0.35156 1.52343,1.05469 0.58594,0.70312 0.58594,1.52344 0,1.23046 -0.67383,1.96289 -0.67383,0.73242 -2.60742,0.73242 l -3.45703,0 0,-0.35156 0.9375,0 0,-9.31641 -0.9375,0 0,-0.35156 z m 5.68359,7.32422 q 0,-0.9961 -0.82031,-1.69922 -0.82031,-0.70313 -1.69922,-0.70313 l -1.40625,0 0,4.7461 1.69922,0 q 0.87891,0.0586 1.55273,-0.55664 0.67383,-0.61524 0.67383,-1.78711 z m -0.29297,-4.92188 q 0,-0.82031 -0.61523,-1.43555 -0.61523,-0.61523 -1.31836,-0.61523 l -1.69922,0 0,4.21875 1.40625,0 q 0.82031,0 1.52344,-0.61523 0.70312,-0.61524 0.70312,-1.55274 z"
         style="font-style:normal;font-variant:normal;font-weight:normal;font-stretch:normal;font-size:15px;line-height:100%;font-family:'Ume Mincho Balsa';-inkscape-font-specification:'Ume Mincho Balsa, Normal';text-align:start;letter-spacing:-0.5px;writing-mode:lr-tb;text-anchor:start;fill:#000000;stroke:none;stroke-width:0.375;stroke-linecap:round;stroke-linejoin:round;stroke-miterlimit:4;stroke-dasharray:none"
         id="path5697" />
      <path
         d="m 114,184.38672 q 0.76172,0 1.43555,0.41015 0.67383,0.41016 0.99609,0.9961 0.32227,0.58594 0.32227,1.23047 l 0,0.41015 -4.56665,0 q -0.004,0.0879 -0.004,0.17578 0,1.28907 0.58594,1.99219 0.58594,0.70313 1.40625,0.70313 0.87891,0 1.46485,-0.32227 0.58593,-0.32226 1.05468,-1.08398 l 0.35157,0.17578 q -0.35157,0.8789 -1.08399,1.40625 -0.73242,0.52734 -1.78711,0.52734 -1.23047,0 -2.08008,-0.9375 -0.84961,-0.9375 -0.84961,-2.46094 0,-1.52343 0.79102,-2.37304 0.79102,-0.84961 1.96289,-0.84961 z m 1.81641,2.63672 q -0.0586,-0.9375 -0.61524,-1.55274 -0.55664,-0.61523 -1.20117,-0.61523 -0.58594,0 -1.20117,0.67383 -0.47974,0.52368 -0.58594,1.49414 l 3.60352,0 z"
         style="font-style:normal;font-variant:normal;font-weight:normal;font-stretch:normal;font-size:15px;line-height:100%;font-family:'Ume Mincho Balsa';-inkscape-font-specification:'Ume Mincho Balsa, Normal';text-align:start;letter-spacing:-0.5px;writing-mode:lr-tb;text-anchor:start;fill:#000000;stroke:none;stroke-width:0.375;stroke-linecap:round;stroke-linejoin:round;stroke-miterlimit:4;stroke-dasharray:none"
         id="path5699" />
      <path
         d="m 121.23438,184.38672 q 0.70312,0 1.34765,0.49805 0.64453,0.49804 0.64453,1.43554 l 0,3.8086 q 0,0.29296 0.29297,0.29296 0.35156,0 0.58594,-0.9375 l 0.35156,0.11719 q -0.23437,1.40625 -1.23047,1.40625 -0.35156,0 -0.58593,-0.23437 -0.23438,-0.23438 -0.23438,-0.52735 -0.82031,0.76172 -1.99219,0.76172 l -0.70312,0 q -0.82031,0 -1.28906,-0.46875 -0.46875,-0.46875 -0.46875,-0.99609 0,-1.17188 0.76171,-1.72852 0.76172,-0.55664 1.58204,-0.79101 0.82031,-0.23438 2.10937,-0.35157 l 0,-0.35156 q 0,-0.76172 -0.43945,-1.08398 -0.43946,-0.32227 -1.14258,-0.32227 -0.52734,0 -1.02539,0.26367 -0.49805,0.26368 -0.49805,0.79102 0,0.35156 -0.20508,0.49805 -0.20507,0.14648 -0.49804,0.14648 -0.35157,0 -0.35157,-0.35156 0,-0.87891 0.84961,-1.37695 0.84961,-0.49805 1.43555,-0.49805 l 0.70313,0 z m 1.17187,2.7539 q -1.28906,0.17579 -1.96289,0.43946 -0.67383,0.26367 -1.11328,0.73242 -0.43945,0.46875 -0.43945,1.05469 0,0.58593 0.35156,0.84961 0.35156,0.26367 1.17187,0.26367 1.05469,0 1.99219,-0.76172 l 0,-2.57813 z"
         style="font-style:normal;font-variant:normal;font-weight:normal;font-stretch:normal;font-size:15px;line-height:100%;font-family:'Ume Mincho Balsa';-inkscape-font-specification:'Ume Mincho Balsa, Normal';text-align:start;letter-spacing:-0.5px;writing-mode:lr-tb;text-anchor:start;fill:#000000;stroke:none;stroke-width:0.375;stroke-linecap:round;stroke-linejoin:round;stroke-miterlimit:4;stroke-dasharray:none"
         id="path5701" />
      <path
         d="m 126.30078,189.07422 q 0,0.64453 0.29297,0.9375 0.29297,0.29297 0.82031,0.29297 1.23047,0 2.40235,-1.17188 l 0,-3.92578 -0.9375,0 0,-0.35156 1.34765,-0.46875 0.41016,0 0,5.74219 0.76172,0 0,0.35156 -1.17188,0.46875 -0.41015,0 0,-1.28906 q -1.23047,1.34765 -2.40235,1.34765 -0.99609,0 -1.46484,-0.55664 -0.46875,-0.55664 -0.46875,-1.37695 l 0,-3.86719 -0.87891,0 0,-0.35156 1.28907,-0.46875 0.41015,0 0,4.6875 z"
         style="font-style:normal;font-variant:normal;font-weight:normal;font-stretch:normal;font-size:15px;line-height:100%;font-family:'Ume Mincho Balsa';-inkscape-font-specification:'Ume Mincho Balsa, Normal';text-align:start;letter-spacing:-0.5px;writing-mode:lr-tb;text-anchor:start;fill:#000000;stroke:none;stroke-width:0.375;stroke-linecap:round;stroke-linejoin:round;stroke-miterlimit:4;stroke-dasharray:none"
         id="path5703" />
      <path
         d="m 131.66016,184.38672 2.57812,0 0,0.41015 -0.82031,0 1.75781,4.62891 1.75781,-4.62891 -0.99609,0 0,-0.41015 2.46094,0 0,0.41015 -0.9375,0 -2.34375,6.15235 -0.35157,0 -2.34375,-6.15235 -0.76171,0 0,-0.41015 z"
         style="font-style:normal;font-variant:normal;font-weight:normal;font-stretch:normal;font-size:15px;line-height:100%;font-family:'Ume Mincho Balsa';-inkscape-font-specification:'Ume Mincho Balsa, Normal';text-align:start;letter-spacing:-0.5px;writing-mode:lr-tb;text-anchor:start;fill:#000000;stroke:none;stroke-width:0.375;stroke-linecap:round;stroke-linejoin:round;stroke-miterlimit:4;stroke-dasharray:none"
         id="path5705" />
      <path
         d="m 138.89453,187.66797 q 0,-1.46485 0.87891,-2.37305 0.8789,-0.9082 2.22656,-0.9082 1.34766,0 2.25586,0.9082 0.9082,0.9082 0.9082,2.37305 0,1.40625 -0.8789,2.37305 -0.87891,0.96679 -2.28516,0.96679 -1.40625,0 -2.25586,-0.96679 -0.84961,-0.9668 -0.84961,-2.37305 z m 0.99609,0 q 0,1.23047 0.49805,2.08008 0.49805,0.84961 1.61133,0.84961 1.05469,0 1.61133,-0.84961 0.55664,-0.84961 0.55664,-2.08008 0,-1.17188 -0.55664,-2.02149 -0.55664,-0.84961 -1.61133,-0.84961 -1.11328,0 -1.61133,0.84961 -0.49805,0.84961 -0.49805,2.02149 z"
         style="font-style:normal;font-variant:normal;font-weight:normal;font-stretch:normal;font-size:15px;line-height:100%;font-family:'Ume Mincho Balsa';-inkscape-font-specification:'Ume Mincho Balsa, Normal';text-align:start;letter-spacing:-0.5px;writing-mode:lr-tb;text-anchor:start;fill:#000000;stroke:none;stroke-width:0.375;stroke-linecap:round;stroke-linejoin:round;stroke-miterlimit:4;stroke-dasharray:none"
         id="path5707" />
      <path
         d="m 148.23828,181.45703 q 0,-0.35156 0.23438,-0.58594 0.23437,-0.23437 0.58593,-0.23437 0.35157,0 0.58594,0.23437 0.23438,0.23438 0.23438,0.58594 0,0.29297 -0.23438,0.52734 -0.23437,0.23438 -0.58594,0.23438 -0.35156,0 -0.58593,-0.23438 -0.23438,-0.23437 -0.23438,-0.52734 z m 1.28906,9.14063 1.46485,0 0,0.35156 -3.75,0 0,-0.35156 1.46484,0 0,-5.33204 -1.46484,0 0,-0.41015 1.93359,-0.46875 0.35156,0 0,6.21094 z"
         style="font-style:normal;font-variant:normal;font-weight:normal;font-stretch:normal;font-size:15px;line-height:100%;font-family:'Ume Mincho Balsa';-inkscape-font-specification:'Ume Mincho Balsa, Normal';text-align:start;letter-spacing:-0.5px;writing-mode:lr-tb;text-anchor:start;fill:#000000;stroke:none;stroke-width:0.375;stroke-linecap:round;stroke-linejoin:round;stroke-miterlimit:4;stroke-dasharray:none"
         id="path5709" />
      <path
         d="m 157.23047,184.79687 q -0.87891,0 -2.05078,2.10938 l 0,3.69141 0.8789,0 0,0.35156 -2.57812,0 0,-0.35156 0.8789,0 0,-5.39063 -0.8789,0 0,-0.35156 1.28906,-0.46875 0.41016,0 0,1.875 q 0.99609,-1.875 2.05078,-1.875 l 0.64453,0 q 0.35156,0 0.76172,0.29297 0.41015,0.29297 0.41015,0.9375 0,0.23437 -0.11718,0.43945 -0.11719,0.20508 -0.52735,0.20508 -0.41015,0 -0.52734,-0.38086 -0.11719,-0.38086 0.29297,-0.73242 -0.35156,-0.35157 -0.9375,-0.35157 z"
         style="font-style:normal;font-variant:normal;font-weight:normal;font-stretch:normal;font-size:15px;line-height:100%;font-family:'Ume Mincho Balsa';-inkscape-font-specification:'Ume Mincho Balsa, Normal';text-align:start;letter-spacing:-0.5px;writing-mode:lr-tb;text-anchor:start;fill:#000000;stroke:none;stroke-width:0.375;stroke-linecap:round;stroke-linejoin:round;stroke-miterlimit:4;stroke-dasharray:none"
         id="path5711" />
      <path
         d="m 170,184.38672 q 0.76172,0 1.43555,0.41015 0.67382,0.41016 0.99609,0.9961 0.32227,0.58594 0.32227,1.23047 l 0,0.41015 -4.56665,0 q -0.004,0.0879 -0.004,0.17578 0,1.28907 0.58594,1.99219 0.58594,0.70313 1.40625,0.70313 0.87891,0 1.46484,-0.32227 0.58594,-0.32226 1.05469,-1.08398 l 0.35156,0.17578 q -0.35156,0.8789 -1.08398,1.40625 -0.73242,0.52734 -1.78711,0.52734 -1.23047,0 -2.08008,-0.9375 -0.84961,-0.9375 -0.84961,-2.46094 0,-1.52343 0.79102,-2.37304 0.79101,-0.84961 1.96289,-0.84961 z m 1.81641,2.63672 q -0.0586,-0.9375 -0.61524,-1.55274 -0.55664,-0.61523 -1.20117,-0.61523 -0.58594,0 -1.20117,0.67383 -0.47974,0.52368 -0.58594,1.49414 l 3.60352,0 z"
         style="font-style:normal;font-variant:normal;font-weight:normal;font-stretch:normal;font-size:15px;line-height:100%;font-family:'Ume Mincho Balsa';-inkscape-font-specification:'Ume Mincho Balsa, Normal';text-align:start;letter-spacing:-0.5px;writing-mode:lr-tb;text-anchor:start;fill:#000000;stroke:none;stroke-width:0.375;stroke-linecap:round;stroke-linejoin:round;stroke-miterlimit:4;stroke-dasharray:none"
         id="path5713" />
      <path
         d="m 176.88281,188.72266 q 0,0.8789 0.32227,1.23046 0.32226,0.35157 0.84961,0.35157 1.23047,0 1.99218,-1.9336 l 0.35157,0.17578 q -0.64453,2.46094 -2.34375,2.46094 -0.9961,0 -1.49414,-0.55664 -0.49805,-0.55664 -0.49805,-1.72851 l 0,-3.98438 -1.69922,0 0,-0.35156 0.87891,0 q 0.9375,0 1.28906,-2.51953 l 0.35156,0 0,2.51953 2.8711,0 0,0.35156 -2.8711,0 0,3.98438 z"
         style="font-style:normal;font-variant:normal;font-weight:normal;font-stretch:normal;font-size:15px;line-height:100%;font-family:'Ume Mincho Balsa';-inkscape-font-specification:'Ume Mincho Balsa, Normal';text-align:start;letter-spacing:-0.5px;writing-mode:lr-tb;text-anchor:start;fill:#000000;stroke:none;stroke-width:0.375;stroke-linecap:round;stroke-linejoin:round;stroke-miterlimit:4;stroke-dasharray:none"
         id="path5715" />
      <path
         d="m 192.23047,184.79687 q -0.87891,0 -2.05078,2.10938 l 0,3.69141 0.8789,0 0,0.35156 -2.57812,0 0,-0.35156 0.8789,0 0,-5.39063 -0.8789,0 0,-0.35156 1.28906,-0.46875 0.41016,0 0,1.875 q 0.99609,-1.875 2.05078,-1.875 l 0.64453,0 q 0.35156,0 0.76172,0.29297 0.41015,0.29297 0.41015,0.9375 0,0.23437 -0.11718,0.43945 -0.11719,0.20508 -0.52735,0.20508 -0.41015,0 -0.52734,-0.38086 -0.11719,-0.38086 0.29297,-0.73242 -0.35156,-0.35157 -0.9375,-0.35157 z"
         style="font-style:normal;font-variant:normal;font-weight:normal;font-stretch:normal;font-size:15px;line-height:100%;font-family:'Ume Mincho Balsa';-inkscape-font-specification:'Ume Mincho Balsa, Normal';text-align:start;letter-spacing:-0.5px;writing-mode:lr-tb;text-anchor:start;fill:#000000;stroke:none;stroke-width:0.375;stroke-linecap:round;stroke-linejoin:round;stroke-miterlimit:4;stroke-dasharray:none"
         id="path5717" />
      <path
         d="m 197.23828,178.64453 1.58203,0 1.9336,2.57813 -0.46875,0.11718 -2.22657,-1.64062 -2.22656,1.64062 -0.46875,-0.11718 1.875,-2.57813 z M 198,184.38672 q 0.76172,0 1.43555,0.41015 0.67382,0.41016 0.99609,0.9961 0.32227,0.58594 0.32227,1.23047 l 0,0.41015 -4.56665,0 q -0.004,0.0879 -0.004,0.17578 0,1.28907 0.58594,1.99219 0.58594,0.70313 1.40625,0.70313 0.87891,0 1.46484,-0.32227 0.58594,-0.32226 1.05469,-1.08398 l 0.35156,0.17578 q -0.35156,0.8789 -1.08398,1.40625 -0.73242,0.52734 -1.78711,0.52734 -1.23047,0 -2.08008,-0.9375 -0.84961,-0.9375 -0.84961,-2.46094 0,-1.52343 0.79102,-2.37304 0.79101,-0.84961 1.96289,-0.84961 z m 1.81641,2.63672 q -0.0586,-0.9375 -0.61524,-1.55274 -0.55664,-0.61523 -1.20117,-0.61523 -0.58594,0 -1.20117,0.67383 -0.47974,0.52368 -0.58594,1.49414 l 3.60352,0 z"
         style="font-style:normal;font-variant:normal;font-weight:normal;font-stretch:normal;font-size:15px;line-height:100%;font-family:'Ume Mincho Balsa';-inkscape-font-specification:'Ume Mincho Balsa, Normal';text-align:start;letter-spacing:-0.5px;writing-mode:lr-tb;text-anchor:start;fill:#000000;stroke:none;stroke-width:0.375;stroke-linecap:round;stroke-linejoin:round;stroke-miterlimit:4;stroke-dasharray:none"
         id="path5719" />
      <path
         d="m 201.66016,184.38672 2.57812,0 0,0.41015 -0.82031,0 1.75781,4.62891 1.75781,-4.62891 -0.99609,0 0,-0.41015 2.46094,0 0,0.41015 -0.9375,0 -2.34375,6.15235 -0.35157,0 -2.34375,-6.15235 -0.76171,0 0,-0.41015 z"
         style="font-style:normal;font-variant:normal;font-weight:normal;font-stretch:normal;font-size:15px;line-height:100%;font-family:'Ume Mincho Balsa';-inkscape-font-specification:'Ume Mincho Balsa, Normal';text-align:start;letter-spacing:-0.5px;writing-mode:lr-tb;text-anchor:start;fill:#000000;stroke:none;stroke-width:0.375;stroke-linecap:round;stroke-linejoin:round;stroke-miterlimit:4;stroke-dasharray:none"
         id="path5721" />
      <path
         d="m 212,184.38672 q 0.76172,0 1.43555,0.41015 0.67382,0.41016 0.99609,0.9961 0.32227,0.58594 0.32227,1.23047 l 0,0.41015 -4.56665,0 q -0.004,0.0879 -0.004,0.17578 0,1.28907 0.58594,1.99219 0.58594,0.70313 1.40625,0.70313 0.87891,0 1.46484,-0.32227 0.58594,-0.32226 1.05469,-1.08398 l 0.35156,0.17578 q -0.35156,0.8789 -1.08398,1.40625 -0.73242,0.52734 -1.78711,0.52734 -1.23047,0 -2.08008,-0.9375 -0.84961,-0.9375 -0.84961,-2.46094 0,-1.52343 0.79102,-2.37304 0.79101,-0.84961 1.96289,-0.84961 z m 1.81641,2.63672 q -0.0586,-0.9375 -0.61524,-1.55274 -0.55664,-0.61523 -1.20117,-0.61523 -0.58594,0 -1.20117,0.67383 -0.47974,0.52368 -0.58594,1.49414 l 3.60352,0 z"
         style="font-style:normal;font-variant:normal;font-weight:normal;font-stretch:normal;font-size:15px;line-height:100%;font-family:'Ume Mincho Balsa';-inkscape-font-specification:'Ume Mincho Balsa, Normal';text-align:start;letter-spacing:-0.5px;writing-mode:lr-tb;text-anchor:start;fill:#000000;stroke:none;stroke-width:0.375;stroke-linecap:round;stroke-linejoin:round;stroke-miterlimit:4;stroke-dasharray:none"
         id="path5723" />
      <path
         d="m 220.23047,184.79687 q -0.87891,0 -2.05078,2.10938 l 0,3.69141 0.8789,0 0,0.35156 -2.57812,0 0,-0.35156 0.8789,0 0,-5.39063 -0.8789,0 0,-0.35156 1.28906,-0.46875 0.41016,0 0,1.875 q 0.99609,-1.875 2.05078,-1.875 l 0.64453,0 q 0.35156,0 0.76172,0.29297 0.41015,0.29297 0.41015,0.9375 0,0.23437 -0.11718,0.43945 -0.11719,0.20508 -0.52735,0.20508 -0.41015,0 -0.52734,-0.38086 -0.11719,-0.38086 0.29297,-0.73242 -0.35156,-0.35157 -0.9375,-0.35157 z"
         style="font-style:normal;font-variant:normal;font-weight:normal;font-stretch:normal;font-size:15px;line-height:100%;font-family:'Ume Mincho Balsa';-inkscape-font-specification:'Ume Mincho Balsa, Normal';text-align:start;letter-spacing:-0.5px;writing-mode:lr-tb;text-anchor:start;fill:#000000;stroke:none;stroke-width:0.375;stroke-linecap:round;stroke-linejoin:round;stroke-miterlimit:4;stroke-dasharray:none"
         id="path5725" />
      <path
         d="m 87.757812,196.28125 -0.761718,0 0,-0.35156 1.113281,-0.46875 0.46875,0 0,9.66797 0.761719,0 0,0.35156 -1.171875,0.46875 -0.410157,0 0,-0.9375 q -0.878906,0.99609 -1.816406,0.99609 -1.347656,0 -2.080078,-0.82031 -0.732422,-0.82031 -0.732422,-2.46094 0,-1.52344 0.761719,-2.43164 0.761719,-0.9082 1.992187,-0.9082 1.113282,0 1.875,0.9375 l 0,-4.04297 z m -1.875,3.63281 q -0.9375,0.0586 -1.376953,0.76172 -0.439453,0.70313 -0.439453,2.05078 0,1.28906 0.556641,2.02149 0.55664,0.73242 1.318359,0.73242 0.9375,0 1.816406,-1.05469 l 0,-3.57422 q -0.9375,-0.9375 -1.875,-0.9375 z"
         style="font-style:normal;font-variant:normal;font-weight:normal;font-stretch:normal;font-size:15px;line-height:100%;font-family:'Ume Mincho Balsa';-inkscape-font-specification:'Ume Mincho Balsa, Normal';text-align:start;letter-spacing:-0.5px;writing-mode:lr-tb;text-anchor:start;fill:#000000;stroke:none;stroke-width:0.375;stroke-linecap:round;stroke-linejoin:round;stroke-miterlimit:4;stroke-dasharray:none"
         id="path5727" />
      <path
         d="m 93,199.38672 q 0.761719,0 1.435547,0.41015 0.673828,0.41016 0.996094,0.9961 0.322265,0.58594 0.322265,1.23047 l 0,0.41015 -4.56665,0 q -0.0037,0.0879 -0.0037,0.17578 0,1.28907 0.585937,1.99219 0.585938,0.70313 1.40625,0.70313 0.878906,0 1.464844,-0.32227 0.585937,-0.32226 1.054687,-1.08398 l 0.351563,0.17578 q -0.351563,0.8789 -1.083984,1.40625 -0.732422,0.52734 -1.78711,0.52734 -1.230469,0 -2.080078,-0.9375 -0.849609,-0.9375 -0.849609,-2.46094 0,-1.52343 0.791015,-2.37304 Q 91.828125,199.38672 93,199.38672 Z m 1.816406,2.63672 q -0.05859,-0.9375 -0.615234,-1.55274 Q 93.644531,199.85547 93,199.85547 q -0.585938,0 -1.201172,0.67383 -0.479736,0.52368 -0.585937,1.49414 l 3.603515,0 z"
         style="font-style:normal;font-variant:normal;font-weight:normal;font-stretch:normal;font-size:15px;line-height:100%;font-family:'Ume Mincho Balsa';-inkscape-font-specification:'Ume Mincho Balsa, Normal';text-align:start;letter-spacing:-0.5px;writing-mode:lr-tb;text-anchor:start;fill:#000000;stroke:none;stroke-width:0.375;stroke-linecap:round;stroke-linejoin:round;stroke-miterlimit:4;stroke-dasharray:none"
         id="path5729" />
      <path
         d="m 106.88281,203.72266 q 0,0.8789 0.32227,1.23046 0.32226,0.35157 0.84961,0.35157 1.23047,0 1.99219,-1.9336 l 0.35156,0.17578 q -0.64453,2.46094 -2.34375,2.46094 -0.9961,0 -1.49414,-0.55664 -0.49805,-0.55664 -0.49805,-1.72851 l 0,-3.98438 -1.69922,0 0,-0.35156 0.87891,0 q 0.9375,0 1.28906,-2.51953 l 0.35156,0 0,2.51953 2.8711,0 0,0.35156 -2.8711,0 0,3.98438 z"
         style="font-style:normal;font-variant:normal;font-weight:normal;font-stretch:normal;font-size:15px;line-height:100%;font-family:'Ume Mincho Balsa';-inkscape-font-specification:'Ume Mincho Balsa, Normal';text-align:start;letter-spacing:-0.5px;writing-mode:lr-tb;text-anchor:start;fill:#000000;stroke:none;stroke-width:0.375;stroke-linecap:round;stroke-linejoin:round;stroke-miterlimit:4;stroke-dasharray:none"
         id="path5731" />
      <path
         d="m 110.89453,202.66797 q 0,-1.46485 0.87891,-2.37305 0.8789,-0.9082 2.22656,-0.9082 1.34766,0 2.25586,0.9082 0.9082,0.9082 0.9082,2.37305 0,1.40625 -0.8789,2.37305 -0.87891,0.96679 -2.28516,0.96679 -1.40625,0 -2.25586,-0.96679 -0.84961,-0.9668 -0.84961,-2.37305 z m 0.9961,0 q 0,1.23047 0.49804,2.08008 0.49805,0.84961 1.61133,0.84961 1.05469,0 1.61133,-0.84961 0.55664,-0.84961 0.55664,-2.08008 0,-1.17188 -0.55664,-2.02149 -0.55664,-0.84961 -1.61133,-0.84961 -1.11328,0 -1.61133,0.84961 -0.49804,0.84961 -0.49804,2.02149 z"
         style="font-style:normal;font-variant:normal;font-weight:normal;font-stretch:normal;font-size:15px;line-height:100%;font-family:'Ume Mincho Balsa';-inkscape-font-specification:'Ume Mincho Balsa, Normal';text-align:start;letter-spacing:-0.5px;writing-mode:lr-tb;text-anchor:start;fill:#000000;stroke:none;stroke-width:0.375;stroke-linecap:round;stroke-linejoin:round;stroke-miterlimit:4;stroke-dasharray:none"
         id="path5733" />
      <path
         d="m 119.30078,204.07422 q 0,0.64453 0.29297,0.9375 0.29297,0.29297 0.82031,0.29297 1.23047,0 2.40235,-1.17188 l 0,-3.92578 -0.9375,0 0,-0.35156 1.34765,-0.46875 0.41016,0 0,5.74219 0.76172,0 0,0.35156 -1.17188,0.46875 -0.41015,0 0,-1.28906 q -1.23047,1.34765 -2.40235,1.34765 -0.99609,0 -1.46484,-0.55664 -0.46875,-0.55664 -0.46875,-1.37695 l 0,-3.86719 -0.87891,0 0,-0.35156 1.28907,-0.46875 0.41015,0 0,4.6875 z"
         style="font-style:normal;font-variant:normal;font-weight:normal;font-stretch:normal;font-size:15px;line-height:100%;font-family:'Ume Mincho Balsa';-inkscape-font-specification:'Ume Mincho Balsa, Normal';text-align:start;letter-spacing:-0.5px;writing-mode:lr-tb;text-anchor:start;fill:#000000;stroke:none;stroke-width:0.375;stroke-linecap:round;stroke-linejoin:round;stroke-miterlimit:4;stroke-dasharray:none"
         id="path5735" />
      <path
         d="m 129.23047,199.79687 q -0.87891,0 -2.05078,2.10938 l 0,3.69141 0.8789,0 0,0.35156 -2.57812,0 0,-0.35156 0.87891,0 0,-5.39063 -0.87891,0 0,-0.35156 1.28906,-0.46875 0.41016,0 0,1.875 q 0.99609,-1.875 2.05078,-1.875 l 0.64453,0 q 0.35156,0 0.76172,0.29297 0.41015,0.29297 0.41015,0.9375 0,0.23437 -0.11718,0.43945 -0.11719,0.20508 -0.52735,0.20508 -0.41015,0 -0.52734,-0.38086 -0.11719,-0.38086 0.29297,-0.73242 -0.35156,-0.35157 -0.9375,-0.35157 z"
         style="font-style:normal;font-variant:normal;font-weight:normal;font-stretch:normal;font-size:15px;line-height:100%;font-family:'Ume Mincho Balsa';-inkscape-font-specification:'Ume Mincho Balsa, Normal';text-align:start;letter-spacing:-0.5px;writing-mode:lr-tb;text-anchor:start;fill:#000000;stroke:none;stroke-width:0.375;stroke-linecap:round;stroke-linejoin:round;stroke-miterlimit:4;stroke-dasharray:none"
         id="path5737" />
      <path
         d="m 137.63672,205.59766 0.8789,0 0,0.35156 -2.57812,0 0,-0.35156 0.87891,0 0,-4.04297 q 0,-0.87891 -0.41016,-1.20117 -0.41016,-0.32227 -0.87891,-0.32227 -0.99609,0 -2.10937,1.40625 l 0,4.16016 0.8789,0 0,0.35156 -2.57812,0 0,-0.35156 0.87891,0 0,-5.33204 -0.76172,0 0,-0.35156 1.17187,-0.52734 0.41016,0 0,1.58203 q 0.9375,-1.58203 2.10937,-1.58203 l 0.23438,0 q 0.70312,0 1.28906,0.55664 0.58594,0.55664 0.58594,1.61133 l 0,4.04297 z"
         style="font-style:normal;font-variant:normal;font-weight:normal;font-stretch:normal;font-size:15px;line-height:100%;font-family:'Ume Mincho Balsa';-inkscape-font-specification:'Ume Mincho Balsa, Normal';text-align:start;letter-spacing:-0.5px;writing-mode:lr-tb;text-anchor:start;fill:#000000;stroke:none;stroke-width:0.375;stroke-linecap:round;stroke-linejoin:round;stroke-miterlimit:4;stroke-dasharray:none"
         id="path5739" />
      <path
         d="m 142,199.38672 q 0.76172,0 1.43555,0.41015 0.67382,0.41016 0.99609,0.9961 0.32227,0.58594 0.32227,1.23047 l 0,0.41015 -4.56665,0 q -0.004,0.0879 -0.004,0.17578 0,1.28907 0.58594,1.99219 0.58594,0.70313 1.40625,0.70313 0.87891,0 1.46484,-0.32227 0.58594,-0.32226 1.05469,-1.08398 l 0.35156,0.17578 q -0.35156,0.8789 -1.08398,1.40625 -0.73242,0.52734 -1.78711,0.52734 -1.23047,0 -2.08008,-0.9375 -0.84961,-0.9375 -0.84961,-2.46094 0,-1.52343 0.79102,-2.37304 0.79101,-0.84961 1.96289,-0.84961 z m 1.81641,2.63672 q -0.0586,-0.9375 -0.61524,-1.55274 -0.55664,-0.61523 -1.20117,-0.61523 -0.58594,0 -1.20117,0.67383 -0.47974,0.52368 -0.58594,1.49414 l 3.60352,0 z"
         style="font-style:normal;font-variant:normal;font-weight:normal;font-stretch:normal;font-size:15px;line-height:100%;font-family:'Ume Mincho Balsa';-inkscape-font-specification:'Ume Mincho Balsa, Normal';text-align:start;letter-spacing:-0.5px;writing-mode:lr-tb;text-anchor:start;fill:#000000;stroke:none;stroke-width:0.375;stroke-linecap:round;stroke-linejoin:round;stroke-miterlimit:4;stroke-dasharray:none"
         id="path5741" />
      <path
         d="m 150.23047,199.79687 q -0.87891,0 -2.05078,2.10938 l 0,3.69141 0.8789,0 0,0.35156 -2.57812,0 0,-0.35156 0.8789,0 0,-5.39063 -0.8789,0 0,-0.35156 1.28906,-0.46875 0.41016,0 0,1.875 q 0.99609,-1.875 2.05078,-1.875 l 0.64453,0 q 0.35156,0 0.76172,0.29297 0.41015,0.29297 0.41015,0.9375 0,0.23437 -0.11718,0.43945 -0.11719,0.20508 -0.52735,0.20508 -0.41015,0 -0.52734,-0.38086 -0.11719,-0.38086 0.29297,-0.73242 -0.35156,-0.35157 -0.9375,-0.35157 z"
         style="font-style:normal;font-variant:normal;font-weight:normal;font-stretch:normal;font-size:15px;line-height:100%;font-family:'Ume Mincho Balsa';-inkscape-font-specification:'Ume Mincho Balsa, Normal';text-align:start;letter-spacing:-0.5px;writing-mode:lr-tb;text-anchor:start;fill:#000000;stroke:none;stroke-width:0.375;stroke-linecap:round;stroke-linejoin:round;stroke-miterlimit:4;stroke-dasharray:none"
         id="path5743" />
      <path
         d="m 164.75781,196.28125 -0.76172,0 0,-0.35156 1.11328,-0.46875 0.46875,0 0,9.66797 0.76172,0 0,0.35156 -1.17187,0.46875 -0.41016,0 0,-0.9375 q -0.8789,0.99609 -1.8164,0.99609 -1.34766,0 -2.08008,-0.82031 -0.73242,-0.82031 -0.73242,-2.46094 0,-1.52344 0.76171,-2.43164 0.76172,-0.9082 1.99219,-0.9082 1.11328,0 1.875,0.9375 l 0,-4.04297 z m -1.875,3.63281 q -0.9375,0.0586 -1.37695,0.76172 -0.43945,0.70313 -0.43945,2.05078 0,1.28906 0.55664,2.02149 0.55664,0.73242 1.31836,0.73242 0.9375,0 1.8164,-1.05469 l 0,-3.57422 q -0.9375,-0.9375 -1.875,-0.9375 z"
         style="font-style:normal;font-variant:normal;font-weight:normal;font-stretch:normal;font-size:15px;line-height:100%;font-family:'Ume Mincho Balsa';-inkscape-font-specification:'Ume Mincho Balsa, Normal';text-align:start;letter-spacing:-0.5px;writing-mode:lr-tb;text-anchor:start;fill:#000000;stroke:none;stroke-width:0.375;stroke-linecap:round;stroke-linejoin:round;stroke-miterlimit:4;stroke-dasharray:none"
         id="path5745" />
      <path
         d="m 170.23437,199.38672 q 0.70313,0 1.34766,0.49805 0.64453,0.49804 0.64453,1.43554 l 0,3.8086 q 0,0.29296 0.29297,0.29296 0.35156,0 0.58594,-0.9375 l 0.35156,0.11719 q -0.23437,1.40625 -1.23047,1.40625 -0.35156,0 -0.58594,-0.23437 -0.23437,-0.23438 -0.23437,-0.52735 -0.82031,0.76172 -1.99219,0.76172 l -0.70312,0 q -0.82032,0 -1.28907,-0.46875 -0.46875,-0.46875 -0.46875,-0.99609 0,-1.17188 0.76172,-1.72852 0.76172,-0.55664 1.58203,-0.79101 0.82032,-0.23438 2.10938,-0.35157 l 0,-0.35156 q 0,-0.76172 -0.43945,-1.08398 -0.43946,-0.32227 -1.14258,-0.32227 -0.52735,0 -1.02539,0.26367 -0.49805,0.26368 -0.49805,0.79102 0,0.35156 -0.20508,0.49805 -0.20508,0.14648 -0.49804,0.14648 -0.35157,0 -0.35157,-0.35156 0,-0.87891 0.84961,-1.37695 0.84961,-0.49805 1.43555,-0.49805 l 0.70312,0 z m 1.17188,2.7539 q -1.28906,0.17579 -1.96289,0.43946 -0.67383,0.26367 -1.11328,0.73242 -0.43946,0.46875 -0.43946,1.05469 0,0.58593 0.35157,0.84961 0.35156,0.26367 1.17187,0.26367 1.05469,0 1.99219,-0.76172 l 0,-2.57813 z"
         style="font-style:normal;font-variant:normal;font-weight:normal;font-stretch:normal;font-size:15px;line-height:100%;font-family:'Ume Mincho Balsa';-inkscape-font-specification:'Ume Mincho Balsa, Normal';text-align:start;letter-spacing:-0.5px;writing-mode:lr-tb;text-anchor:start;fill:#000000;stroke:none;stroke-width:0.375;stroke-linecap:round;stroke-linejoin:round;stroke-miterlimit:4;stroke-dasharray:none"
         id="path5747" />
      <path
         d="m 179.63672,205.59766 0.8789,0 0,0.35156 -2.57812,0 0,-0.35156 0.87891,0 0,-4.04297 q 0,-0.87891 -0.41016,-1.20117 -0.41016,-0.32227 -0.87891,-0.32227 -0.99609,0 -2.10937,1.40625 l 0,4.16016 0.8789,0 0,0.35156 -2.57812,0 0,-0.35156 0.87891,0 0,-5.33204 -0.76172,0 0,-0.35156 1.17187,-0.52734 0.41016,0 0,1.58203 q 0.9375,-1.58203 2.10937,-1.58203 l 0.23438,0 q 0.70312,0 1.28906,0.55664 0.58594,0.55664 0.58594,1.61133 l 0,4.04297 z"
         style="font-style:normal;font-variant:normal;font-weight:normal;font-stretch:normal;font-size:15px;line-height:100%;font-family:'Ume Mincho Balsa';-inkscape-font-specification:'Ume Mincho Balsa, Normal';text-align:start;letter-spacing:-0.5px;writing-mode:lr-tb;text-anchor:start;fill:#000000;stroke:none;stroke-width:0.375;stroke-linecap:round;stroke-linejoin:round;stroke-miterlimit:4;stroke-dasharray:none"
         id="path5749" />
      <path
         d="m 186.16797,199.38672 0.35156,0 0,2.34375 -0.35156,0 q -0.41016,-0.87891 -0.9961,-1.40625 -0.58593,-0.52735 -1.23046,-0.52735 -0.58594,0 -0.90821,0.35157 -0.32226,0.35156 -0.32226,0.8789 0,0.52735 0.38086,0.79102 0.38086,0.26367 1.31836,0.49805 1.17187,0.29296 1.75781,0.73242 0.58594,0.43945 0.58594,1.25976 0,0.82032 -0.64454,1.25977 -0.64453,0.43945 -1.8164,0.43945 -0.58594,0 -1.11328,-0.20508 -0.52735,-0.20507 -0.9375,-0.55664 l -0.41016,0.76172 -0.35156,0 0,-2.57812 0.35156,0 q 0.41016,1.05468 1.02539,1.61133 0.61524,0.55664 1.43555,0.55664 0.76172,0 1.14258,-0.41016 0.38086,-0.41016 0.38086,-0.87891 0,-0.52734 -0.41016,-0.79101 -0.41016,-0.26367 -1.40625,-0.49805 -1.23047,-0.23437 -1.75781,-0.73242 -0.52735,-0.49805 -0.52735,-1.25977 0,-0.70312 0.61524,-1.17187 0.61523,-0.46875 1.61133,-0.46875 0.46875,0 0.9082,0.17578 0.43945,0.17578 0.9082,0.58594 l 0.41016,-0.76172 z"
         style="font-style:normal;font-variant:normal;font-weight:normal;font-stretch:normal;font-size:15px;line-height:100%;font-family:'Ume Mincho Balsa';-inkscape-font-specification:'Ume Mincho Balsa, Normal';text-align:start;letter-spacing:-0.5px;writing-mode:lr-tb;text-anchor:start;fill:#000000;stroke:none;stroke-width:0.375;stroke-linecap:round;stroke-linejoin:round;stroke-miterlimit:4;stroke-dasharray:none"
         id="path5751" />
      <path
         d="m 196.30078,204.07422 q 0,0.64453 0.29297,0.9375 0.29297,0.29297 0.82031,0.29297 1.23047,0 2.40235,-1.17188 l 0,-3.92578 -0.9375,0 0,-0.35156 1.34765,-0.46875 0.41016,0 0,5.74219 0.76172,0 0,0.35156 -1.17188,0.46875 -0.41015,0 0,-1.28906 q -1.23047,1.34765 -2.40235,1.34765 -0.99609,0 -1.46484,-0.55664 -0.46875,-0.55664 -0.46875,-1.37695 l 0,-3.86719 -0.87891,0 0,-0.35156 1.28906,-0.46875 0.41016,0 0,4.6875 z"
         style="font-style:normal;font-variant:normal;font-weight:normal;font-stretch:normal;font-size:15px;line-height:100%;font-family:'Ume Mincho Balsa';-inkscape-font-specification:'Ume Mincho Balsa, Normal';text-align:start;letter-spacing:-0.5px;writing-mode:lr-tb;text-anchor:start;fill:#000000;stroke:none;stroke-width:0.375;stroke-linecap:round;stroke-linejoin:round;stroke-miterlimit:4;stroke-dasharray:none"
         id="path5753" />
      <path
         d="m 207.63672,205.59766 0.8789,0 0,0.35156 -2.57812,0 0,-0.35156 0.87891,0 0,-4.04297 q 0,-0.87891 -0.41016,-1.20117 -0.41016,-0.32227 -0.87891,-0.32227 -0.99609,0 -2.10937,1.40625 l 0,4.16016 0.8789,0 0,0.35156 -2.57812,0 0,-0.35156 0.87891,0 0,-5.33204 -0.76172,0 0,-0.35156 1.17187,-0.52734 0.41016,0 0,1.58203 q 0.9375,-1.58203 2.10937,-1.58203 l 0.23438,0 q 0.70312,0 1.28906,0.55664 0.58594,0.55664 0.58594,1.61133 l 0,4.04297 z"
         style="font-style:normal;font-variant:normal;font-weight:normal;font-stretch:normal;font-size:15px;line-height:100%;font-family:'Ume Mincho Balsa';-inkscape-font-specification:'Ume Mincho Balsa, Normal';text-align:start;letter-spacing:-0.5px;writing-mode:lr-tb;text-anchor:start;fill:#000000;stroke:none;stroke-width:0.375;stroke-linecap:round;stroke-linejoin:round;stroke-miterlimit:4;stroke-dasharray:none"
         id="path5755" />
      <path
         d="m 86.175781,214.38672 q 0.996094,0 1.78711,0.61523 0.791015,0.61524 0.791015,1.31836 0,0.29297 -0.175781,0.52735 -0.175781,0.23437 -0.527344,0.23437 -0.292969,0 -0.46875,-0.14648 -0.175781,-0.14649 -0.175781,-0.38086 0,-0.52735 0.46875,-0.64453 -0.234375,-0.41016 -0.673828,-0.73243 -0.439453,-0.32226 -1.025391,-0.32226 -0.996094,0 -1.582031,0.79101 -0.585938,0.79102 -0.585938,2.13868 0,1.17187 0.644532,1.8457 0.644531,0.67383 1.523437,0.67383 0.820313,0 1.435547,-0.38086 0.615234,-0.38086 1.083984,-1.02539 l 0.292969,0.17578 q -0.351562,0.8789 -1.142578,1.40625 -0.791016,0.52734 -1.669922,0.52734 -1.40625,0 -2.255859,-0.9082 -0.84961,-0.9082 -0.84961,-2.31445 0,-1.64063 0.9375,-2.51954 0.9375,-0.8789 2.167969,-0.8789 z"
         style="font-style:normal;font-variant:normal;font-weight:normal;font-stretch:normal;font-size:15px;line-height:100%;font-family:'Ume Mincho Balsa';-inkscape-font-specification:'Ume Mincho Balsa, Normal';text-align:start;letter-spacing:-0.5px;writing-mode:lr-tb;text-anchor:start;fill:#000000;stroke:none;stroke-width:0.375;stroke-linecap:round;stroke-linejoin:round;stroke-miterlimit:4;stroke-dasharray:none"
         id="path5757" />
      <path
         d="m 93.527344,220.59766 1.464843,0 0,0.35156 -3.691406,0 0,-0.35156 1.40625,0 0,-9.25782 -1.640625,0 0,-0.35156 2.050781,-0.52734 0.410157,0 0,10.13672 z"
         style="font-style:normal;font-variant:normal;font-weight:normal;font-stretch:normal;font-size:15px;line-height:100%;font-family:'Ume Mincho Balsa';-inkscape-font-specification:'Ume Mincho Balsa, Normal';text-align:start;letter-spacing:-0.5px;writing-mode:lr-tb;text-anchor:start;fill:#000000;stroke:none;stroke-width:0.375;stroke-linecap:round;stroke-linejoin:round;stroke-miterlimit:4;stroke-dasharray:none"
         id="path5759" />
      <path
         d="m 99.238281,211.45703 q 0,-0.35156 0.234375,-0.58594 0.234375,-0.23437 0.585934,-0.23437 0.35157,0 0.58594,0.23437 0.23438,0.23438 0.23438,0.58594 0,0.29297 -0.23438,0.52734 -0.23437,0.23438 -0.58594,0.23438 -0.351559,0 -0.585934,-0.23438 -0.234375,-0.23437 -0.234375,-0.52734 z m 1.289059,9.14063 1.46485,0 0,0.35156 -3.750003,0 0,-0.35156 1.464844,0 0,-5.33204 -1.464844,0 0,-0.41015 1.933593,-0.46875 0.35156,0 0,6.21094 z"
         style="font-style:normal;font-variant:normal;font-weight:normal;font-stretch:normal;font-size:15px;line-height:100%;font-family:'Ume Mincho Balsa';-inkscape-font-specification:'Ume Mincho Balsa, Normal';text-align:start;letter-spacing:-0.5px;writing-mode:lr-tb;text-anchor:start;fill:#000000;stroke:none;stroke-width:0.375;stroke-linecap:round;stroke-linejoin:round;stroke-miterlimit:4;stroke-dasharray:none"
         id="path5761" />
      <path
         d="m 105.30078,222.76562 0.87891,0 0,0.35157 -2.57813,0 0,-0.35157 0.87891,0 0,-7.5 -0.76172,0 0,-0.41015 1.28906,-0.46875 0.29297,0 0,0.76172 q 0.82031,-0.76172 1.81641,-0.76172 l 0.41015,0 q 1.05469,0 1.84571,0.82031 0.79101,0.82031 0.79101,2.40234 0,1.52344 -0.79101,2.46094 -0.79102,0.9375 -2.25586,0.9375 -1.05469,0 -1.81641,-0.70312 l 0,2.46093 z m 1.81641,-2.28515 q 0.9375,0 1.52344,-0.79102 0.58593,-0.79101 0.58593,-2.08008 0,-1.40625 -0.64453,-2.08007 -0.64453,-0.67383 -1.46484,-0.67383 -0.9375,0 -1.81641,0.76172 l 0,4.27734 q 0.87891,0.58594 1.81641,0.58594 z"
         style="font-style:normal;font-variant:normal;font-weight:normal;font-stretch:normal;font-size:15px;line-height:100%;font-family:'Ume Mincho Balsa';-inkscape-font-specification:'Ume Mincho Balsa, Normal';text-align:start;letter-spacing:-0.5px;writing-mode:lr-tb;text-anchor:start;fill:#000000;stroke:none;stroke-width:0.375;stroke-linecap:round;stroke-linejoin:round;stroke-miterlimit:4;stroke-dasharray:none"
         id="path5763" />
      <path
         d="m 122.75781,211.28125 -0.76172,0 0,-0.35156 1.11329,-0.46875 0.46875,0 0,9.66797 0.76171,0 0,0.35156 -1.17187,0.46875 -0.41016,0 0,-0.9375 q -0.8789,0.99609 -1.8164,0.99609 -1.34766,0 -2.08008,-0.82031 -0.73242,-0.82031 -0.73242,-2.46094 0,-1.52344 0.76172,-2.43164 0.76171,-0.9082 1.99218,-0.9082 1.11328,0 1.875,0.9375 l 0,-4.04297 z m -1.875,3.63281 q -0.9375,0.0586 -1.37695,0.76172 -0.43945,0.70313 -0.43945,2.05078 0,1.28906 0.55664,2.02149 0.55664,0.73242 1.31836,0.73242 0.9375,0 1.8164,-1.05469 l 0,-3.57422 q -0.9375,-0.9375 -1.875,-0.9375 z"
         style="font-style:normal;font-variant:normal;font-weight:normal;font-stretch:normal;font-size:15px;line-height:100%;font-family:'Ume Mincho Balsa';-inkscape-font-specification:'Ume Mincho Balsa, Normal';text-align:start;letter-spacing:-0.5px;writing-mode:lr-tb;text-anchor:start;fill:#000000;stroke:none;stroke-width:0.375;stroke-linecap:round;stroke-linejoin:round;stroke-miterlimit:4;stroke-dasharray:none"
         id="path5765" />
      <path
         d="m 128,214.38672 q 0.76172,0 1.43555,0.41015 0.67382,0.41016 0.99609,0.9961 0.32227,0.58594 0.32227,1.23047 l 0,0.41015 -4.56665,0 q -0.004,0.0879 -0.004,0.17578 0,1.28907 0.58594,1.99219 0.58594,0.70313 1.40625,0.70313 0.87891,0 1.46484,-0.32227 0.58594,-0.32226 1.05469,-1.08398 l 0.35156,0.17578 q -0.35156,0.8789 -1.08398,1.40625 -0.73242,0.52734 -1.78711,0.52734 -1.23047,0 -2.08008,-0.9375 -0.84961,-0.9375 -0.84961,-2.46094 0,-1.52343 0.79102,-2.37304 0.79102,-0.84961 1.96289,-0.84961 z m 1.81641,2.63672 q -0.0586,-0.9375 -0.61524,-1.55274 -0.55664,-0.61523 -1.20117,-0.61523 -0.58594,0 -1.20117,0.67383 -0.47974,0.52368 -0.58594,1.49414 l 3.60352,0 z"
         style="font-style:normal;font-variant:normal;font-weight:normal;font-stretch:normal;font-size:15px;line-height:100%;font-family:'Ume Mincho Balsa';-inkscape-font-specification:'Ume Mincho Balsa, Normal';text-align:start;letter-spacing:-0.5px;writing-mode:lr-tb;text-anchor:start;fill:#000000;stroke:none;stroke-width:0.375;stroke-linecap:round;stroke-linejoin:round;stroke-miterlimit:4;stroke-dasharray:none"
         id="path5767" />
      <path
         d="m 138.54297,210.92969 3.45703,0 q 1.34766,0 2.16797,0.67383 0.82031,0.67382 0.82031,1.72851 0,0.99609 -0.70312,1.64063 -0.70313,0.64453 -1.11329,0.70312 0.9375,0.35156 1.52344,1.05469 0.58594,0.70312 0.58594,1.52344 0,1.23046 -0.67383,1.96289 -0.67383,0.73242 -2.60742,0.73242 l -3.45703,0 0,-0.35156 0.9375,0 0,-9.31641 -0.9375,0 0,-0.35156 z m 5.68359,7.32422 q 0,-0.9961 -0.82031,-1.69922 -0.82031,-0.70313 -1.69922,-0.70313 l -1.40625,0 0,4.7461 1.69922,0 q 0.87891,0.0586 1.55273,-0.55664 0.67383,-0.61524 0.67383,-1.78711 z m -0.29297,-4.92188 q 0,-0.82031 -0.61523,-1.43555 -0.61524,-0.61523 -1.31836,-0.61523 l -1.69922,0 0,4.21875 1.40625,0 q 0.82031,0 1.52344,-0.61523 0.70312,-0.61524 0.70312,-1.55274 z"
         style="font-style:normal;font-variant:normal;font-weight:normal;font-stretch:normal;font-size:15px;line-height:100%;font-family:'Ume Mincho Balsa';-inkscape-font-specification:'Ume Mincho Balsa, Normal';text-align:start;letter-spacing:-0.5px;writing-mode:lr-tb;text-anchor:start;fill:#000000;stroke:none;stroke-width:0.375;stroke-linecap:round;stroke-linejoin:round;stroke-miterlimit:4;stroke-dasharray:none"
         id="path5769" />
      <path
         d="m 149,214.38672 q 0.76172,0 1.43555,0.41015 0.67382,0.41016 0.99609,0.9961 0.32227,0.58594 0.32227,1.23047 l 0,0.41015 -4.56665,0 q -0.004,0.0879 -0.004,0.17578 0,1.28907 0.58594,1.99219 0.58594,0.70313 1.40625,0.70313 0.87891,0 1.46484,-0.32227 0.58594,-0.32226 1.05469,-1.08398 l 0.35156,0.17578 q -0.35156,0.8789 -1.08398,1.40625 -0.73242,0.52734 -1.78711,0.52734 -1.23047,0 -2.08008,-0.9375 -0.84961,-0.9375 -0.84961,-2.46094 0,-1.52343 0.79102,-2.37304 0.79101,-0.84961 1.96289,-0.84961 z m 1.81641,2.63672 q -0.0586,-0.9375 -0.61524,-1.55274 -0.55664,-0.61523 -1.20117,-0.61523 -0.58594,0 -1.20117,0.67383 -0.47974,0.52368 -0.58594,1.49414 l 3.60352,0 z"
         style="font-style:normal;font-variant:normal;font-weight:normal;font-stretch:normal;font-size:15px;line-height:100%;font-family:'Ume Mincho Balsa';-inkscape-font-specification:'Ume Mincho Balsa, Normal';text-align:start;letter-spacing:-0.5px;writing-mode:lr-tb;text-anchor:start;fill:#000000;stroke:none;stroke-width:0.375;stroke-linecap:round;stroke-linejoin:round;stroke-miterlimit:4;stroke-dasharray:none"
         id="path5771" />
      <path
         d="m 152.60156,214.38672 2.57813,0 0,0.35156 -0.87891,0 2.01416,4.39819 1.79443,-4.39819 -0.8789,0 0,-0.35156 2.22656,0 0,0.35156 -0.76172,0 -3.04687,7.26563 q -0.23438,0.46875 -0.58594,0.79101 -0.35156,0.32227 -0.87891,0.32227 -0.46875,0 -0.73242,-0.26367 -0.26367,-0.26368 -0.26367,-0.61524 0.0586,-0.35156 0.17578,-0.46875 0.11719,-0.11719 0.46875,-0.11719 0.35156,0.0586 0.41016,0.35157 0.0586,0.29296 -0.23438,0.46875 0.17578,0.11718 0.41016,0.11718 0.23437,0 0.43945,-0.20507 0.20508,-0.20508 0.38086,-0.61524 l 0.65552,-1.604 -2.47193,-5.42725 -0.82031,0 0,-0.35156 z"
         style="font-style:normal;font-variant:normal;font-weight:normal;font-stretch:normal;font-size:15px;line-height:100%;font-family:'Ume Mincho Balsa';-inkscape-font-specification:'Ume Mincho Balsa, Normal';text-align:start;letter-spacing:-0.5px;writing-mode:lr-tb;text-anchor:start;fill:#000000;stroke:none;stroke-width:0.375;stroke-linecap:round;stroke-linejoin:round;stroke-miterlimit:4;stroke-dasharray:none"
         id="path5773" />
      <path
         d="m 159.89453,217.66797 q 0,-1.46485 0.87891,-2.37305 0.8789,-0.9082 2.22656,-0.9082 1.34766,0 2.25586,0.9082 0.9082,0.9082 0.9082,2.37305 0,1.40625 -0.8789,2.37305 -0.87891,0.96679 -2.28516,0.96679 -1.40625,0 -2.25586,-0.96679 -0.84961,-0.9668 -0.84961,-2.37305 z m 0.99609,0 q 0,1.23047 0.49805,2.08008 0.49805,0.84961 1.61133,0.84961 1.05469,0 1.61133,-0.84961 0.55664,-0.84961 0.55664,-2.08008 0,-1.17188 -0.55664,-2.02149 -0.55664,-0.84961 -1.61133,-0.84961 -1.11328,0 -1.61133,0.84961 -0.49805,0.84961 -0.49805,2.02149 z"
         style="font-style:normal;font-variant:normal;font-weight:normal;font-stretch:normal;font-size:15px;line-height:100%;font-family:'Ume Mincho Balsa';-inkscape-font-specification:'Ume Mincho Balsa, Normal';text-align:start;letter-spacing:-0.5px;writing-mode:lr-tb;text-anchor:start;fill:#000000;stroke:none;stroke-width:0.375;stroke-linecap:round;stroke-linejoin:round;stroke-miterlimit:4;stroke-dasharray:none"
         id="path5775" />
      <path
         d="m 172.63672,220.59766 0.8789,0 0,0.35156 -2.57812,0 0,-0.35156 0.87891,0 0,-4.04297 q 0,-0.87891 -0.41016,-1.20117 -0.41016,-0.32227 -0.87891,-0.32227 -0.99609,0 -2.10937,1.40625 l 0,4.16016 0.8789,0 0,0.35156 -2.57812,0 0,-0.35156 0.87891,0 0,-5.33204 -0.76172,0 0,-0.35156 1.17187,-0.52734 0.41016,0 0,1.58203 q 0.9375,-1.58203 2.10937,-1.58203 l 0.23438,0 q 0.70312,0 1.28906,0.55664 0.58594,0.55664 0.58594,1.61133 l 0,4.04297 z"
         style="font-style:normal;font-variant:normal;font-weight:normal;font-stretch:normal;font-size:15px;line-height:100%;font-family:'Ume Mincho Balsa';-inkscape-font-specification:'Ume Mincho Balsa, Normal';text-align:start;letter-spacing:-0.5px;writing-mode:lr-tb;text-anchor:start;fill:#000000;stroke:none;stroke-width:0.375;stroke-linecap:round;stroke-linejoin:round;stroke-miterlimit:4;stroke-dasharray:none"
         id="path5777" />
      <path
         d="m 177.17578,214.38672 q 0.99609,0 1.78711,0.61523 0.79102,0.61524 0.79102,1.31836 0,0.29297 -0.17579,0.52735 -0.17578,0.23437 -0.52734,0.23437 -0.29297,0 -0.46875,-0.14648 -0.17578,-0.14649 -0.17578,-0.38086 0,-0.52735 0.46875,-0.64453 -0.23438,-0.41016 -0.67383,-0.73243 -0.43945,-0.32226 -1.02539,-0.32226 -0.99609,0 -1.58203,0.79101 -0.58594,0.79102 -0.58594,2.13868 0,1.17187 0.64453,1.8457 0.64453,0.67383 1.52344,0.67383 0.82031,0 1.43555,-0.38086 0.61523,-0.38086 1.08398,-1.02539 l 0.29297,0.17578 q -0.35156,0.8789 -1.14258,1.40625 -0.79101,0.52734 -1.66992,0.52734 -1.40625,0 -2.25586,-0.9082 -0.84961,-0.9082 -0.84961,-2.31445 0,-1.64063 0.9375,-2.51954 0.9375,-0.8789 2.16797,-0.8789 z"
         style="font-style:normal;font-variant:normal;font-weight:normal;font-stretch:normal;font-size:15px;line-height:100%;font-family:'Ume Mincho Balsa';-inkscape-font-specification:'Ume Mincho Balsa, Normal';text-align:start;letter-spacing:-0.5px;writing-mode:lr-tb;text-anchor:start;fill:#000000;stroke:none;stroke-width:0.375;stroke-linecap:round;stroke-linejoin:round;stroke-miterlimit:4;stroke-dasharray:none"
         id="path5779" />
      <path
         d="m 184.05859,208.64453 1.875,0 0,0.41016 -3.45703,2.10937 -0.29297,-0.29297 1.875,-2.22656 z M 184,214.38672 q 0.76172,0 1.43555,0.41015 0.67382,0.41016 0.99609,0.9961 0.32227,0.58594 0.32227,1.23047 l 0,0.41015 -4.56665,0 q -0.004,0.0879 -0.004,0.17578 0,1.28907 0.58594,1.99219 0.58594,0.70313 1.40625,0.70313 0.87891,0 1.46484,-0.32227 0.58594,-0.32226 1.05469,-1.08398 l 0.35156,0.17578 q -0.35156,0.8789 -1.08398,1.40625 -0.73242,0.52734 -1.78711,0.52734 -1.23047,0 -2.08008,-0.9375 -0.84961,-0.9375 -0.84961,-2.46094 0,-1.52343 0.79102,-2.37304 0.79101,-0.84961 1.96289,-0.84961 z m 1.81641,2.63672 q -0.0586,-0.9375 -0.61524,-1.55274 -0.55664,-0.61523 -1.20117,-0.61523 -0.58594,0 -1.20117,0.67383 -0.47974,0.52368 -0.58594,1.49414 l 3.60352,0 z"
         style="font-style:normal;font-variant:normal;font-weight:normal;font-stretch:normal;font-size:15px;line-height:100%;font-family:'Ume Mincho Balsa';-inkscape-font-specification:'Ume Mincho Balsa, Normal';text-align:start;letter-spacing:-0.5px;writing-mode:lr-tb;text-anchor:start;fill:#000000;stroke:none;stroke-width:0.375;stroke-linecap:round;stroke-linejoin:round;stroke-miterlimit:4;stroke-dasharray:none"
         id="path5781" />
      <path
         d="m 194.03048,209.58203 q 1.28906,0 2.16797,0.73242 0.8789,0.73242 0.8789,1.96289 0,0.76172 -0.43945,1.37696 -0.43945,0.61523 -1.14258,1.31836 -1.17187,1.40625 -1.17187,2.63671 l 0,0.70313 -0.46875,0 0,-0.70313 q 0,-1.23046 1.17187,-2.98828 0.64453,-0.82031 0.82032,-1.28906 0.17578,-0.46875 0.17578,-1.05469 0,-0.8789 -0.49805,-1.55273 -0.49805,-0.67383 -1.49414,-0.67383 -0.99609,0 -1.58203,0.64453 -0.58594,0.64453 -0.70313,1.46485 0.23438,0 0.43946,0.17578 0.20507,0.17578 0.20507,0.46875 0,0.29297 -0.17578,0.46875 -0.17578,0.17578 -0.46875,0.17578 -0.23437,0 -0.43945,-0.20508 -0.20508,-0.20508 -0.20508,-0.61523 0,-1.28907 0.79102,-2.16797 0.79101,-0.87891 2.13867,-0.87891 z m -0.70313,11.30859 q 0,-0.35156 0.20508,-0.58593 0.20508,-0.23438 0.55664,-0.23438 0.35157,0 0.55664,0.23438 0.20508,0.23437 0.20508,0.58593 0,0.35157 -0.20508,0.55665 -0.20507,0.20507 -0.55664,0.20507 -0.35156,0 -0.55664,-0.20507 -0.20508,-0.20508 -0.20508,-0.55665 z"
         style="font-style:normal;font-variant:normal;font-weight:normal;font-stretch:normal;font-size:15px;line-height:100%;font-family:'Ume Mincho Balsa';-inkscape-font-specification:'Ume Mincho Balsa, Normal';text-align:start;letter-spacing:-0.5px;writing-mode:lr-tb;text-anchor:start;fill:#000000;stroke:none;stroke-width:0.375;stroke-linecap:round;stroke-linejoin:round;stroke-miterlimit:4;stroke-dasharray:none"
         id="path5783"
         inkscape:connector-curvature="0" />
    </g>
  </g>
</svg>
