<?xml version="1.0" encoding="UTF-8" standalone="no"?>
<!-- Created with Inkscape (http://www.inkscape.org/) -->

<svg
   xmlns:dc="http://purl.org/dc/elements/1.1/"
   xmlns:cc="http://creativecommons.org/ns#"
   xmlns:rdf="http://www.w3.org/1999/02/22-rdf-syntax-ns#"
   xmlns:svg="http://www.w3.org/2000/svg"
   xmlns="http://www.w3.org/2000/svg"
   xmlns:sodipodi="http://sodipodi.sourceforge.net/DTD/sodipodi-0.dtd"
   xmlns:inkscape="http://www.inkscape.org/namespaces/inkscape"
   width="46.389561mm"
   height="48.968487mm"
   viewBox="0 0 164.37246 173.51039"
   id="svg7337"
   version="1.1"
   inkscape:version="0.91 r13725"
   sodipodi:docname="iclit-side-01.svg">
  <defs
     id="defs7339">
    <inkscape:path-effect
       effect="spiro"
       id="path-effect4144-3-9"
       is_visible="true" />
    <inkscape:path-effect
       effect="spiro"
       id="path-effect4253"
       is_visible="true" />
    <inkscape:path-effect
       is_visible="true"
       id="path-effect4431"
       effect="spiro" />
    <inkscape:path-effect
       effect="spiro"
       id="path-effect4144"
       is_visible="true" />
    <inkscape:path-effect
       effect="spiro"
       id="path-effect4144-35"
       is_visible="true" />
    <inkscape:path-effect
       effect="spiro"
       id="path-effect4283"
       is_visible="true" />
    <inkscape:path-effect
       effect="spiro"
       id="path-effect4279"
       is_visible="true" />
    <inkscape:path-effect
       effect="spiro"
       id="path-effect4291"
       is_visible="true" />
    <inkscape:path-effect
       effect="spiro"
       id="path-effect4295"
       is_visible="true" />
    <inkscape:path-effect
       is_visible="true"
       id="path-effect4299"
       effect="spiro" />
    <inkscape:path-effect
       effect="spiro"
       id="path-effect4303"
       is_visible="true" />
    <inkscape:path-effect
       is_visible="true"
       id="path-effect4307"
       effect="spiro" />
    <inkscape:path-effect
       effect="spiro"
       id="path-effect4311"
       is_visible="true" />
    <inkscape:path-effect
       is_visible="true"
       id="path-effect4325"
       effect="spiro" />
    <inkscape:path-effect
       effect="spiro"
       id="path-effect4329"
       is_visible="true" />
    <inkscape:path-effect
       is_visible="true"
       id="path-effect4333"
       effect="spiro" />
    <inkscape:path-effect
       effect="spiro"
       id="path-effect4337"
       is_visible="true" />
    <inkscape:path-effect
       is_visible="true"
       id="path-effect4357"
       effect="spiro" />
    <inkscape:path-effect
       effect="spiro"
       id="path-effect4148"
       is_visible="true" />
    <inkscape:path-effect
       effect="spiro"
       id="path-effect4175"
       is_visible="true" />
    <inkscape:path-effect
       effect="spiro"
       id="path-effect4179"
       is_visible="true" />
    <inkscape:path-effect
       effect="spiro"
       id="path-effect4187"
       is_visible="true" />
    <inkscape:path-effect
       effect="spiro"
       id="path-effect4456"
       is_visible="true" />
    <inkscape:path-effect
       effect="spiro"
       id="path-effect4231"
       is_visible="true" />
    <inkscape:path-effect
       effect="spiro"
       id="path-effect4448"
       is_visible="true" />
    <inkscape:path-effect
       effect="spiro"
       id="path-effect4452"
       is_visible="true" />
    <inkscape:path-effect
       effect="spiro"
       id="path-effect4460"
       is_visible="true" />
    <inkscape:path-effect
       effect="spiro"
       id="path-effect4464"
       is_visible="true" />
    <inkscape:path-effect
       effect="spiro"
       id="path-effect5732"
       is_visible="true" />
    <inkscape:path-effect
       effect="spiro"
       id="path-effect4223-2-3"
       is_visible="true" />
    <inkscape:path-effect
       effect="spiro"
       id="path-effect4144-3"
       is_visible="true" />
    <inkscape:path-effect
       effect="spiro"
       id="path-effect4152"
       is_visible="true" />
    <inkscape:path-effect
       effect="spiro"
       id="path-effect4144-3-9-3"
       is_visible="true" />
    <inkscape:path-effect
       effect="spiro"
       id="path-effect4253-9"
       is_visible="true" />
    <inkscape:path-effect
       is_visible="true"
       id="path-effect4431-2"
       effect="spiro" />
    <inkscape:path-effect
       effect="spiro"
       id="path-effect4144-1"
       is_visible="true" />
    <inkscape:path-effect
       effect="spiro"
       id="path-effect4144-35-2"
       is_visible="true" />
    <inkscape:path-effect
       effect="spiro"
       id="path-effect4283-0"
       is_visible="true" />
    <inkscape:path-effect
       effect="spiro"
       id="path-effect4279-2"
       is_visible="true" />
    <inkscape:path-effect
       effect="spiro"
       id="path-effect4291-3"
       is_visible="true" />
    <inkscape:path-effect
       effect="spiro"
       id="path-effect4295-7"
       is_visible="true" />
    <inkscape:path-effect
       is_visible="true"
       id="path-effect4299-5"
       effect="spiro" />
    <inkscape:path-effect
       effect="spiro"
       id="path-effect4303-9"
       is_visible="true" />
    <inkscape:path-effect
       is_visible="true"
       id="path-effect4307-2"
       effect="spiro" />
    <inkscape:path-effect
       effect="spiro"
       id="path-effect4311-2"
       is_visible="true" />
    <inkscape:path-effect
       is_visible="true"
       id="path-effect4325-8"
       effect="spiro" />
    <inkscape:path-effect
       effect="spiro"
       id="path-effect4329-9"
       is_visible="true" />
    <inkscape:path-effect
       is_visible="true"
       id="path-effect4333-7"
       effect="spiro" />
    <inkscape:path-effect
       effect="spiro"
       id="path-effect4337-3"
       is_visible="true" />
    <inkscape:path-effect
       is_visible="true"
       id="path-effect4357-6"
       effect="spiro" />
    <inkscape:path-effect
       effect="spiro"
       id="path-effect4148-6"
       is_visible="true" />
    <inkscape:path-effect
       effect="spiro"
       id="path-effect4175-1"
       is_visible="true" />
    <inkscape:path-effect
       effect="spiro"
       id="path-effect4179-8"
       is_visible="true" />
    <inkscape:path-effect
       effect="spiro"
       id="path-effect4187-7"
       is_visible="true" />
    <inkscape:path-effect
       effect="spiro"
       id="path-effect4456-9"
       is_visible="true" />
    <inkscape:path-effect
       effect="spiro"
       id="path-effect4223-2"
       is_visible="true" />
    <inkscape:path-effect
       effect="spiro"
       id="path-effect4231-6"
       is_visible="true" />
    <inkscape:path-effect
       effect="spiro"
       id="path-effect4144-3-0"
       is_visible="true" />
    <inkscape:path-effect
       effect="spiro"
       id="path-effect4152-6"
       is_visible="true" />
    <inkscape:path-effect
       effect="spiro"
       id="path-effect4448-3"
       is_visible="true" />
    <inkscape:path-effect
       effect="spiro"
       id="path-effect4452-9"
       is_visible="true" />
    <inkscape:path-effect
       effect="spiro"
       id="path-effect4460-0"
       is_visible="true" />
    <inkscape:path-effect
       effect="spiro"
       id="path-effect4464-7"
       is_visible="true" />
    <marker
       inkscape:stockid="Arrow1Mstart"
       orient="auto"
       refY="0"
       refX="0"
       id="Arrow1Mstart"
       style="overflow:visible"
       inkscape:isstock="true">
      <path
         inkscape:connector-curvature="0"
         id="path6172"
         d="M 0,0 5,-5 -12.5,0 5,5 0,0 Z"
         style="fill:#000000;fill-opacity:1;fill-rule:evenodd;stroke:#000000;stroke-width:1pt;stroke-opacity:1"
         transform="matrix(0.4,0,0,0.4,4,0)" />
    </marker>
    <marker
       inkscape:stockid="Arrow1Mend"
       orient="auto"
       refY="0"
       refX="0"
       id="Arrow1Mend"
       style="overflow:visible"
       inkscape:isstock="true">
      <path
         inkscape:connector-curvature="0"
         id="path6175"
         d="M 0,0 5,-5 -12.5,0 5,5 0,0 Z"
         style="fill:#000000;fill-opacity:1;fill-rule:evenodd;stroke:#000000;stroke-width:1pt;stroke-opacity:1"
         transform="matrix(-0.4,0,0,-0.4,-4,0)" />
    </marker>
    <inkscape:path-effect
       effect="spiro"
       id="path-effect6160"
       is_visible="true" />
    <inkscape:path-effect
       effect="spiro"
       id="path-effect4144-3-9-36"
       is_visible="true" />
    <inkscape:path-effect
       effect="spiro"
       id="path-effect4253-7"
       is_visible="true" />
    <inkscape:path-effect
       is_visible="true"
       id="path-effect4431-5"
       effect="spiro" />
    <inkscape:path-effect
       effect="spiro"
       id="path-effect4144-356"
       is_visible="true" />
    <inkscape:path-effect
       effect="spiro"
       id="path-effect4144-35-29"
       is_visible="true" />
    <inkscape:path-effect
       effect="spiro"
       id="path-effect4283-1"
       is_visible="true" />
    <inkscape:path-effect
       effect="spiro"
       id="path-effect4279-27"
       is_visible="true" />
    <inkscape:path-effect
       effect="spiro"
       id="path-effect4291-0"
       is_visible="true" />
    <inkscape:path-effect
       effect="spiro"
       id="path-effect4295-9"
       is_visible="true" />
    <inkscape:path-effect
       is_visible="true"
       id="path-effect4299-3"
       effect="spiro" />
    <inkscape:path-effect
       effect="spiro"
       id="path-effect4303-6"
       is_visible="true" />
    <inkscape:path-effect
       is_visible="true"
       id="path-effect4307-0"
       effect="spiro" />
    <inkscape:path-effect
       effect="spiro"
       id="path-effect4311-6"
       is_visible="true" />
    <inkscape:path-effect
       is_visible="true"
       id="path-effect4325-2"
       effect="spiro" />
    <inkscape:path-effect
       effect="spiro"
       id="path-effect4329-6"
       is_visible="true" />
    <inkscape:path-effect
       is_visible="true"
       id="path-effect4333-1"
       effect="spiro" />
    <inkscape:path-effect
       effect="spiro"
       id="path-effect4337-8"
       is_visible="true" />
    <inkscape:path-effect
       is_visible="true"
       id="path-effect4357-7"
       effect="spiro" />
    <inkscape:path-effect
       effect="spiro"
       id="path-effect4148-9"
       is_visible="true" />
    <inkscape:path-effect
       effect="spiro"
       id="path-effect4175-2"
       is_visible="true" />
    <inkscape:path-effect
       effect="spiro"
       id="path-effect4179-0"
       is_visible="true" />
    <inkscape:path-effect
       effect="spiro"
       id="path-effect4187-2"
       is_visible="true" />
    <inkscape:path-effect
       effect="spiro"
       id="path-effect4456-3"
       is_visible="true" />
    <inkscape:path-effect
       effect="spiro"
       id="path-effect4231-7"
       is_visible="true" />
    <inkscape:path-effect
       effect="spiro"
       id="path-effect4448-5"
       is_visible="true" />
    <inkscape:path-effect
       effect="spiro"
       id="path-effect4452-92"
       is_visible="true" />
    <inkscape:path-effect
       effect="spiro"
       id="path-effect4460-2"
       is_visible="true" />
    <inkscape:path-effect
       effect="spiro"
       id="path-effect4464-8"
       is_visible="true" />
    <inkscape:path-effect
       effect="spiro"
       id="path-effect5732-9"
       is_visible="true" />
    <inkscape:path-effect
       effect="spiro"
       id="path-effect4223-2-3-7"
       is_visible="true" />
    <inkscape:path-effect
       effect="spiro"
       id="path-effect4144-3-3"
       is_visible="true" />
    <inkscape:path-effect
       effect="spiro"
       id="path-effect4152-61"
       is_visible="true" />
    <inkscape:path-effect
       effect="spiro"
       id="path-effect4144-3-9-36-2"
       is_visible="true" />
    <inkscape:path-effect
       effect="spiro"
       id="path-effect4253-7-9"
       is_visible="true" />
    <inkscape:path-effect
       is_visible="true"
       id="path-effect4431-5-3"
       effect="spiro" />
    <inkscape:path-effect
       effect="spiro"
       id="path-effect4144-356-1"
       is_visible="true" />
    <inkscape:path-effect
       effect="spiro"
       id="path-effect4144-35-29-9"
       is_visible="true" />
    <inkscape:path-effect
       effect="spiro"
       id="path-effect4283-1-4"
       is_visible="true" />
    <inkscape:path-effect
       effect="spiro"
       id="path-effect4279-27-7"
       is_visible="true" />
    <inkscape:path-effect
       effect="spiro"
       id="path-effect4291-0-8"
       is_visible="true" />
    <inkscape:path-effect
       effect="spiro"
       id="path-effect4295-9-4"
       is_visible="true" />
    <inkscape:path-effect
       is_visible="true"
       id="path-effect4299-3-5"
       effect="spiro" />
    <inkscape:path-effect
       effect="spiro"
       id="path-effect4303-6-0"
       is_visible="true" />
    <inkscape:path-effect
       is_visible="true"
       id="path-effect4307-0-3"
       effect="spiro" />
    <inkscape:path-effect
       effect="spiro"
       id="path-effect4311-6-6"
       is_visible="true" />
    <inkscape:path-effect
       is_visible="true"
       id="path-effect4325-2-1"
       effect="spiro" />
    <inkscape:path-effect
       effect="spiro"
       id="path-effect4329-6-0"
       is_visible="true" />
    <inkscape:path-effect
       is_visible="true"
       id="path-effect4333-1-6"
       effect="spiro" />
    <inkscape:path-effect
       effect="spiro"
       id="path-effect4337-8-3"
       is_visible="true" />
    <inkscape:path-effect
       is_visible="true"
       id="path-effect4357-7-2"
       effect="spiro" />
    <inkscape:path-effect
       effect="spiro"
       id="path-effect4148-9-0"
       is_visible="true" />
    <inkscape:path-effect
       effect="spiro"
       id="path-effect4175-2-6"
       is_visible="true" />
    <inkscape:path-effect
       effect="spiro"
       id="path-effect4179-0-1"
       is_visible="true" />
    <inkscape:path-effect
       effect="spiro"
       id="path-effect4187-2-5"
       is_visible="true" />
    <inkscape:path-effect
       effect="spiro"
       id="path-effect4456-3-5"
       is_visible="true" />
    <inkscape:path-effect
       effect="spiro"
       id="path-effect4231-7-4"
       is_visible="true" />
    <inkscape:path-effect
       effect="spiro"
       id="path-effect4448-5-7"
       is_visible="true" />
    <inkscape:path-effect
       effect="spiro"
       id="path-effect4452-92-6"
       is_visible="true" />
    <inkscape:path-effect
       effect="spiro"
       id="path-effect4460-2-5"
       is_visible="true" />
    <inkscape:path-effect
       effect="spiro"
       id="path-effect4464-8-6"
       is_visible="true" />
    <inkscape:path-effect
       effect="spiro"
       id="path-effect5732-9-9"
       is_visible="true" />
    <inkscape:path-effect
       effect="spiro"
       id="path-effect4223-2-3-7-3"
       is_visible="true" />
    <inkscape:path-effect
       effect="spiro"
       id="path-effect4144-3-3-7"
       is_visible="true" />
    <inkscape:path-effect
       effect="spiro"
       id="path-effect4152-61-4"
       is_visible="true" />
    <inkscape:path-effect
       effect="spiro"
       id="path-effect4144-3-9-36-2-2"
       is_visible="true" />
    <inkscape:path-effect
       effect="spiro"
       id="path-effect4253-7-9-7"
       is_visible="true" />
    <inkscape:path-effect
       is_visible="true"
       id="path-effect4431-5-3-2"
       effect="spiro" />
    <inkscape:path-effect
       effect="spiro"
       id="path-effect4144-356-1-2"
       is_visible="true" />
    <inkscape:path-effect
       effect="spiro"
       id="path-effect4144-35-29-9-6"
       is_visible="true" />
    <inkscape:path-effect
       effect="spiro"
       id="path-effect4283-1-4-1"
       is_visible="true" />
    <inkscape:path-effect
       effect="spiro"
       id="path-effect4279-27-7-0"
       is_visible="true" />
    <inkscape:path-effect
       effect="spiro"
       id="path-effect4291-0-8-6"
       is_visible="true" />
    <inkscape:path-effect
       effect="spiro"
       id="path-effect4295-9-4-1"
       is_visible="true" />
    <inkscape:path-effect
       is_visible="true"
       id="path-effect4299-3-5-5"
       effect="spiro" />
    <inkscape:path-effect
       effect="spiro"
       id="path-effect4303-6-0-9"
       is_visible="true" />
    <inkscape:path-effect
       is_visible="true"
       id="path-effect4307-0-3-4"
       effect="spiro" />
    <inkscape:path-effect
       effect="spiro"
       id="path-effect4311-6-6-9"
       is_visible="true" />
    <inkscape:path-effect
       is_visible="true"
       id="path-effect4325-2-1-0"
       effect="spiro" />
    <inkscape:path-effect
       effect="spiro"
       id="path-effect4329-6-0-9"
       is_visible="true" />
    <inkscape:path-effect
       is_visible="true"
       id="path-effect4333-1-6-1"
       effect="spiro" />
    <inkscape:path-effect
       effect="spiro"
       id="path-effect4337-8-3-7"
       is_visible="true" />
    <inkscape:path-effect
       is_visible="true"
       id="path-effect4357-7-2-7"
       effect="spiro" />
    <inkscape:path-effect
       effect="spiro"
       id="path-effect4148-9-0-1"
       is_visible="true" />
    <inkscape:path-effect
       effect="spiro"
       id="path-effect4175-2-6-1"
       is_visible="true" />
    <inkscape:path-effect
       effect="spiro"
       id="path-effect4179-0-1-5"
       is_visible="true" />
    <inkscape:path-effect
       effect="spiro"
       id="path-effect4187-2-5-9"
       is_visible="true" />
    <inkscape:path-effect
       effect="spiro"
       id="path-effect4456-3-5-7"
       is_visible="true" />
    <inkscape:path-effect
       effect="spiro"
       id="path-effect4231-7-4-7"
       is_visible="true" />
    <inkscape:path-effect
       effect="spiro"
       id="path-effect4448-5-7-6"
       is_visible="true" />
    <inkscape:path-effect
       effect="spiro"
       id="path-effect4452-92-6-7"
       is_visible="true" />
    <inkscape:path-effect
       effect="spiro"
       id="path-effect4460-2-5-3"
       is_visible="true" />
    <inkscape:path-effect
       effect="spiro"
       id="path-effect4464-8-6-6"
       is_visible="true" />
    <inkscape:path-effect
       effect="spiro"
       id="path-effect5732-9-9-5"
       is_visible="true" />
    <inkscape:path-effect
       effect="spiro"
       id="path-effect4223-2-3-7-3-6"
       is_visible="true" />
    <inkscape:path-effect
       effect="spiro"
       id="path-effect4144-3-3-7-3"
       is_visible="true" />
    <inkscape:path-effect
       effect="spiro"
       id="path-effect4152-61-4-9"
       is_visible="true" />
    <clipPath
       clipPathUnits="userSpaceOnUse"
       id="clipPath1755-8-2">
      <rect
         style="fill:#ffffff;fill-opacity:1;fill-rule:evenodd;stroke:#000000;stroke-width:1.875;stroke-linecap:round;stroke-linejoin:round;stroke-miterlimit:4;stroke-dasharray:none;stroke-opacity:1"
         id="rect1757-46-9"
         width="160.91911"
         height="73.499458"
         x="-66.708733"
         y="91.882065" />
    </clipPath>
    <clipPath
       clipPathUnits="userSpaceOnUse"
       id="clipPath1755-8-2-1">
      <rect
         style="fill:#ffffff;fill-opacity:1;fill-rule:evenodd;stroke:#000000;stroke-width:1.875;stroke-linecap:round;stroke-linejoin:round;stroke-miterlimit:4;stroke-dasharray:none;stroke-opacity:1"
         id="rect1757-46-9-9"
         width="160.91911"
         height="73.499458"
         x="-66.708733"
         y="91.882065" />
    </clipPath>
  </defs>
  <sodipodi:namedview
     id="base"
     pagecolor="#ffffff"
     bordercolor="#666666"
     borderopacity="1.0"
     inkscape:pageopacity="0.0"
     inkscape:pageshadow="2"
     inkscape:zoom="2.8005398"
     inkscape:cx="-12.315226"
     inkscape:cy="52.617348"
     inkscape:document-units="px"
     inkscape:current-layer="layer3"
     showgrid="false"
     fit-margin-top="0"
     fit-margin-left="0"
     fit-margin-right="0"
     fit-margin-bottom="0"
     inkscape:window-width="1920"
     inkscape:window-height="1031"
     inkscape:window-x="0"
     inkscape:window-y="27"
     inkscape:window-maximized="1" />
  <metadata
     id="metadata7342">
    <rdf:RDF>
      <cc:Work
         rdf:about="">
        <dc:format>image/svg+xml</dc:format>
        <dc:type
           rdf:resource="http://purl.org/dc/dcmitype/StillImage" />
        <dc:title />
      </cc:Work>
    </rdf:RDF>
  </metadata>
  <g
     inkscape:label="Layer 1"
     inkscape:groupmode="layer"
     id="layer1"
     transform="translate(-20.344784,-287.08596)">
    <rect
       y="288.02423"
       x="21.281513"
       height="171.63383"
       width="162.49899"
       id="rect9562-5-4"
       style="color:#000000;clip-rule:nonzero;display:inline;overflow:visible;visibility:visible;opacity:1;isolation:auto;mix-blend-mode:normal;color-interpolation:sRGB;color-interpolation-filters:linearRGB;solid-color:#000000;solid-opacity:1;fill:#ffffff;fill-opacity:1;fill-rule:nonzero;stroke:#000000;stroke-width:1.875;stroke-linecap:butt;stroke-linejoin:round;stroke-miterlimit:3.875;stroke-dasharray:none;stroke-dashoffset:28.077528;stroke-opacity:1;color-rendering:auto;image-rendering:auto;shape-rendering:auto;text-rendering:auto;enable-background:accumulate" />
    <path
       sodipodi:nodetypes="csssssssssssssssssssssssssssc"
       inkscape:connector-curvature="0"
       inkscape:original-d="m 109.27174,344.76564 c -61.050452,-20.77892 -14.532095,-5.90908 1.24475,-1.8513 15.77683,4.05777 -0.26815,-1.31912 0.23565,-1.52211 1.00758,-0.40599 1.20342,-2.948 1.0019,1.92385 -0.20152,4.87187 -2.62182,3.34421 -0.80817,10.44901 0.90682,3.55238 -0.0682,4.85243 0.0845,8.6787 0.0382,0.95658 0.58965,12.41257 0.69982,17.3647 0.11018,4.95212 -0.0109,3.06829 0.0759,3.7897 0.17332,1.44282 -1.98702,3.94692 -2.23891,3.79467 -1.00759,-0.60897 -3.32965,-0.73187 -0.3069,0.0801 0.75569,0.20298 -0.54098,-0.21109 -0.80067,0.67696 -0.2597,0.88806 -0.40474,0.30688 -0.44843,1.23774 -0.0437,0.93083 1.16347,-1.6287 1.94162,-1.1254 0.77813,0.50333 2.77352,2.33341 3.15111,1.99743 2.60753,-2.32002 2.06358,-0.34066 3.28006,0.88783 4.26882,4.31087 3.24789,2.15204 3.23135,1.93484 -0.0167,-0.21717 0.49523,1.15018 0.92959,1.93243 1.73741,3.12899 0.77771,1.71402 0.57621,0.69906 -0.0504,-0.25374 0.68515,-0.57864 0.81039,-1.23978 0.12525,-0.66113 -0.60916,-1.6585 -0.53581,-1.53471 0.14667,0.24758 -33.468015,15.3761 -1.55729,-2.41896 2.70067,-1.50604 -2.21241,0.77934 -2.63137,-4.36624 -0.2095,-2.57277 -0.39836,-1.69445 -0.12554,-7.58856 0.27284,-5.8941 1.71983,-17.66354 1.74503,-17.89188 0.10075,-0.9135 1.71192,-9.28251 0.44371,-13.46792 -0.63411,-2.09269 0.14935,-1.417 0.19859,-4.73564 0.0492,-3.31861 1.11086,-8.46914 0.95972,-9.02737 -0.0756,-0.27914 -2.95008,-2.2748 -5.22735,-3.43397 -2.27727,-1.15918 -2.66978,0.85767 -3.6978,0.55854"
       inkscape:path-effect="#path-effect4144-3-9-36-2-2"
       id="path4142-6-1-2-8"
       d="m 109.27174,344.76564 c 0.37236,-0.13794 0.6994,-0.39536 0.92097,-0.72489 0.22156,-0.32952 0.33654,-0.72953 0.32378,-1.12641 -0.009,-0.27004 -0.0746,-0.53652 -0.0732,-0.80669 7e-4,-0.13508 0.0187,-0.27136 0.0676,-0.3973 0.0489,-0.12593 0.13014,-0.24134 0.24129,-0.31812 0.0978,-0.0676 0.21646,-0.10329 0.3353,-0.10551 0.11884,-0.002 0.23757,0.0285 0.34264,0.0841 0.21015,0.11115 0.35976,0.31811 0.43352,0.54411 0.0738,0.22599 0.0772,0.47002 0.0461,0.70571 -0.0311,0.23568 -0.0956,0.46545 -0.15566,0.69546 -0.88575,3.39055 -0.83882,6.94481 -0.80817,10.44901 0.0253,2.89294 0.0356,5.78607 0.0845,8.6787 0.098,5.79256 0.35102,11.58182 0.69982,17.3647 0.0761,1.26207 0.15681,2.52793 0.0759,3.7897 -0.0504,0.78556 -0.16805,1.5825 -0.51672,2.28824 -0.17434,0.35287 -0.40612,0.67953 -0.69736,0.94429 -0.29123,0.26475 -0.64308,0.46633 -1.02483,0.56214 -0.10261,0.0258 -0.20746,0.044 -0.3069,0.0801 -0.16602,0.0603 -0.31098,0.16822 -0.43897,0.28993 -0.12799,0.12171 -0.24112,0.25797 -0.3617,0.38703 -0.16407,0.1756 -0.345,0.34192 -0.45617,0.55498 -0.0556,0.10653 -0.0925,0.22426 -0.0953,0.34439 -0.003,0.12013 0.0303,0.24272 0.10302,0.33837 0.0648,0.0852 0.15914,0.1463 0.26177,0.17682 0.10263,0.0305 0.21309,0.0312 0.31771,0.008 0.20923,-0.0456 0.38907,-0.18139 0.53239,-0.34049 0.14333,-0.1591 0.25605,-0.34279 0.3809,-0.51676 0.12485,-0.17398 0.26595,-0.34203 0.44885,-0.4534 0.14462,-0.0881 0.31154,-0.13747 0.48041,-0.14983 0.16887,-0.0124 0.3396,0.0118 0.50092,0.0632 0.32263,0.10292 0.60263,0.31201 0.83941,0.55412 0.47355,0.48424 0.7987,1.11033 1.33037,1.52993 0.45004,0.35517 1.01488,0.53409 1.57863,0.63834 0.56375,0.10426 1.13849,0.14096 1.70143,0.24949 1.26329,0.24356 2.4867,0.88568 3.23135,1.93484 0.41481,0.58444 0.6657,1.26609 0.92959,1.93243 0.0578,0.14592 0.11723,0.29303 0.20789,0.42115 0.0907,0.12811 0.21671,0.23734 0.36832,0.27791 0.14198,0.038 0.29759,0.0119 0.42593,-0.0597 0.12834,-0.0716 0.22996,-0.18645 0.29711,-0.31719 0.13431,-0.26148 0.13118,-0.57222 0.0874,-0.86289 -0.0812,-0.53813 -0.28935,-1.04951 -0.53581,-1.53471 -0.43478,-0.85595 -0.99077,-1.64388 -1.55729,-2.41896 -1.00675,-1.37739 -2.06981,-2.75522 -2.63137,-4.36624 -0.84098,-2.41263 -0.46615,-5.05636 -0.12554,-7.58856 0.79898,-5.93994 1.35502,-11.91115 1.74503,-17.89188 0.29236,-4.48331 0.49157,-8.97534 0.44371,-13.46792 -0.0169,-1.58212 -0.0636,-3.1753 0.19859,-4.73564 0.25535,-1.51984 0.7986,-2.97621 1.12853,-4.48161 0.32993,-1.50541 0.43398,-3.1274 -0.16881,-4.54576 -0.42848,-1.00822 -1.19967,-1.85602 -2.12793,-2.43776 -0.92827,-0.58174 -2.00784,-0.90369 -3.09942,-0.99621 -1.25358,-0.10625 -2.53152,0.0868 -3.6978,0.55854"
       style="fill:#ffffff;fill-rule:evenodd;stroke:#000000;stroke-width:1.5;stroke-linecap:butt;stroke-linejoin:miter;stroke-miterlimit:3.875;stroke-dasharray:none;stroke-opacity:1" />
    <path
       sodipodi:nodetypes="csssscsssssssssssssssc"
       inkscape:connector-curvature="0"
       inkscape:original-d="m 115.07779,404.64739 c 0.85495,-0.86121 4.48856,-2.79899 0.78372,-5.95682 -3.70486,-3.15785 -10.68706,-7.17694 -13.96442,-8.32525 -3.277363,-1.14833 -18.880446,-1.72246 -19.664166,-2.00954 -0.783721,-0.28709 -3.348606,3.15785 -4.631054,4.16262 -1.282449,1.00475 -1.13995,1.79422 -0.680601,2.28328 1.813994,0.35779 5.855201,0.21185 7.41798,0.37115 4.005181,0.40801 11.433986,2.0139 12.630539,2.2422 1.196552,0.22832 2.705104,0.58849 4.060632,0.91126 1.35554,0.32277 2.55806,0.60809 3.14254,0.68672 4.07282,0.54775 3.89898,0.0487 2.12174,1.05814 -1.77725,1.00941 -3.13287,2.08552 -1.25165,1.3798 17.55263,-6.5846 4.42221,-3.02005 -3.31713,4.60371 -7.739344,7.62378 -0.97133,12.09139 -5.051868,13.36067 -65.716845,20.44193 -18.012798,7.43139 -2.515374,5.61142 15.497422,-1.81997 -24.988243,18.88007 -0.965934,5.00457 37.927016,-21.90695 -1.764156,1.94236 3.206264,2.05135 4.970422,0.10922 4.587722,-0.37869 7.759822,-0.76639 6.3442,-0.77533 -5.131987,1.36862 -4.829708,0.0492 0.604551,-2.63892 5.136228,-0.72225 -0.164573,-0.66706 -30.212821,0.31451 14.044201,-15.14884 6.741801,-12.20132 -11.890481,4.79943 9.70928,-8.75876 9.41091,-14.01505"
       inkscape:path-effect="#path-effect4253-7-9-7"
       id="path4251-5-1"
       d="m 115.07779,404.64739 c 1.09529,-1.75089 1.38886,-3.98221 0.78372,-5.95682 -0.41661,-1.35941 -1.23387,-2.57843 -2.25685,-3.5659 -1.02297,-0.98746 -2.24724,-1.75085 -3.53974,-2.34332 -2.58498,-1.18496 -5.41779,-1.69246 -8.16783,-2.41603 -3.254993,-0.85643 -6.43102,-2.02764 -9.73754,-2.65642 -3.306521,-0.62879 -6.83449,-0.68246 -9.926626,0.64688 -1.947627,0.83731 -3.698949,2.25854 -4.631054,4.16262 -0.350784,0.71657 -0.581803,1.4916 -0.680601,2.28328 2.477135,-0.0269 4.955898,0.0972 7.41798,0.37115 4.251363,0.47311 8.438509,1.39085 12.630539,2.2422 1.359727,0.27614 2.722156,0.54575 4.060632,0.91126 1.03655,0.28306 2.06978,0.62553 3.14254,0.68672 0.43648,0.0249 0.88406,0.004 1.29952,0.14026 0.20773,0.0681 0.40513,0.1765 0.557,0.33372 0.15187,0.15723 0.25552,0.36578 0.26522,0.58416 0.007,0.16363 -0.0379,0.32731 -0.11581,0.47138 -0.0779,0.14408 -0.18759,0.26933 -0.31101,0.37701 -0.24683,0.21535 -0.54538,0.3605 -0.82483,0.53141 -0.8203,0.50168 -1.48225,1.23257 -2.00939,2.03674 -0.52714,0.80417 -0.92723,1.68391 -1.30774,2.56697 -1.884391,4.3732 -3.338907,8.91752 -5.051868,13.36067 -0.737934,1.91408 -1.526161,3.81428 -2.515374,5.61142 -0.430669,0.78241 -0.903035,1.55375 -1.158254,2.40962 -0.12761,0.42794 -0.199124,0.87538 -0.177335,1.32141 0.02179,0.44602 0.13928,0.891 0.369655,1.27354 0.33257,0.55224 0.878337,0.94452 1.450464,1.24157 0.572128,0.29705 1.183002,0.51402 1.7558,0.80978 0.992995,0.51272 1.848822,1.24952 2.757561,1.89999 0.908741,0.65047 1.914521,1.23148 3.024861,1.35823 0.55517,0.0634 1.12876,0.008 1.64669,-0.2017 0.51794,-0.20971 0.97712,-0.57889 1.25702,-1.06251 0.2799,-0.48362 0.37004,-1.08242 0.20501,-1.61627 -0.0825,-0.26692 -0.22686,-0.51518 -0.422,-0.71514 -0.19513,-0.19995 -0.44108,-0.35085 -0.70932,-0.42899 -0.4163,-0.12127 -0.86586,-0.0648 -1.2816,0.0584 -0.41574,0.12317 -0.80933,0.31055 -1.21762,0.45652 -0.4083,0.14597 -0.8428,0.25123 -1.27341,0.2004 -0.21531,-0.0254 -0.427239,-0.0905 -0.613023,-0.20228 -0.185785,-0.11174 -0.344657,-0.27117 -0.444055,-0.46384 -0.105641,-0.20477 -0.141206,-0.43783 -0.164573,-0.66706 -0.243531,-2.389 0.689771,-4.76892 2.033691,-6.75903 1.34392,-1.99011 3.08716,-3.67052 4.70811,-5.44229 3.81261,-4.16733 6.99648,-8.90886 9.41091,-14.01505"
       style="fill:#ffffff;fill-rule:evenodd;stroke:#000000;stroke-width:1.5;stroke-linecap:butt;stroke-linejoin:miter;stroke-miterlimit:3.875;stroke-dasharray:none;stroke-opacity:1" />
    <path
       style="fill:#ffffff;fill-rule:evenodd;stroke:#000000;stroke-width:1.5;stroke-linecap:butt;stroke-linejoin:miter;stroke-miterlimit:3.875;stroke-dasharray:none;stroke-opacity:1"
       d="m 106.50299,428.90412 c 0.55146,-0.91079 1.43683,-1.61426 2.44868,-1.94563 1.01185,-0.33136 2.14183,-0.28787 3.12522,0.12028 0.98339,0.40814 1.81207,1.17758 2.29191,2.12806 0.47983,0.95047 0.60686,2.07413 0.35132,3.10774 -0.22382,0.90531 -0.74797,1.74759 -1.51127,2.28336 -0.87169,0.61185 -1.96955,0.78668 -3.02825,0.90226 -3.31886,0.36233 -6.66694,0.30573 -10.0055,0.31449 -1.851067,0.005 -3.708078,0.0304 -5.54129,0.28691 -0.599961,0.084 -1.202814,0.19287 -1.807346,0.1536 -0.302266,-0.0196 -0.603663,-0.077 -0.884805,-0.18969 -0.281142,-0.11274 -0.541847,-0.28223 -0.743828,-0.50796 -0.194234,-0.21707 -0.330956,-0.48259 -0.411835,-0.76242 -0.08088,-0.27983 -0.107001,-0.57386 -0.09447,-0.86488 0.02507,-0.58203 0.201718,-1.14576 0.384631,-1.69887 0.70683,-2.1374 1.529443,-4.2365 2.463029,-6.28504 0.920764,-0.37648 1.991423,-0.36993 2.907509,0.0178 0.893954,0.37836 1.60476,1.08113 2.418994,1.60965 0.407117,0.26426 0.847536,0.48776 1.321431,0.59265 0.47389,0.1049 0.98526,0.0845 1.42499,-0.12099 0.36627,-0.17115 0.67203,-0.46867 0.85311,-0.83014 0.18108,-0.36147 0.23629,-0.78451 0.15405,-1.18034 l 3.88372,2.8704 0,-10e-4 z"
       id="path4429-4-2"
       inkscape:path-effect="#path-effect4431-5-3-2"
       inkscape:original-d="m 106.50299,428.90412 c -0.80606,5.27786 8.82168,0.77151 8.21713,3.41045 -0.30228,1.31943 4.83293,1.50802 -1.51127,2.28336 -1.58605,0.19386 -0.78763,0.63294 -3.02825,0.90226 -2.24062,0.26936 -7.52029,0.369 -10.0055,0.31449 -2.485205,-0.0545 -4.188691,0.18549 -5.54129,0.28691 -1.352593,0.10136 -2.354313,0.0646 -3.435979,-0.54405 -4.258454,-2.39541 -3.721502,2.18833 -0.12167,-3.32617 1.919293,-2.94009 12.064469,24.80096 2.463029,-6.28504 0.37824,-0.0912 1.981296,-1.74181 2.907509,0.0178 0.926213,1.75834 4.595431,3.30138 5.165411,2.08131 0.56997,-1.2201 1.00716,-2.01048 1.00716,-2.01048 7.24087,-2.94841 4.08524,1.55097 3.88372,2.8704 z"
       inkscape:connector-curvature="0"
       sodipodi:nodetypes="sssssssscsscs" />
    <path
       sodipodi:nodetypes="csssc"
       inkscape:connector-curvature="0"
       id="path4433-7-9"
       d="m 91.316911,431.77617 c 1.496191,1.18422 1.92367,1.32775 4.096704,-0.0357 2.173027,-1.36361 4.631055,-0.68181 5.735385,-0.17942 0.55216,0.25113 6.70612,1.10345 9.80981,1.50716 3.1037,0.40371 3.12151,-0.68183 3.86961,-1.2201"
       style="fill:#ffffff;fill-rule:evenodd;stroke:#000000;stroke-width:1.5;stroke-linecap:butt;stroke-linejoin:miter;stroke-miterlimit:3.875;stroke-dasharray:none;stroke-opacity:1" />
    <path
       sodipodi:nodetypes="zsssssssssssssssssssssssscsssscsssssccsz"
       inkscape:connector-curvature="0"
       inkscape:original-d="m 101.87275,336.31941 c -0.92926,1.25851 -7.291722,15.17595 -11.120537,19.43885 -3.828822,4.26285 -32.453707,18.42309 -16.063632,16.32467 8.604257,-1.10158 -9.231899,1.23918 -5.900612,6.68748 2.686314,4.39346 -1.751246,7.02199 0.480431,10.00301 0.535822,0.71571 6.457681,5.94925 7.087464,6.03716 0.99181,0.13836 2.339451,-0.29229 5.013311,-0.16092 1.710874,0.0841 5.324602,0.79943 6.887382,0.9586 4.005174,0.40802 11.006507,1.43978 12.203063,1.66808 1.19655,0.22832 2.70509,0.58847 4.06063,0.91124 1.35554,0.32277 2.55805,0.6081 3.14254,0.68671 4.07282,0.54775 3.89898,0.0487 2.12174,1.05817 -1.77726,1.00939 -3.13287,2.08549 -1.25165,1.3798 17.55262,-6.58463 3.33389,-1.60442 -4.40545,6.01933 -7.739349,7.62379 -10.611445,17.99264 -9.342702,22.10038 9.601452,31.08599 -1.947373,11.84812 -3.86666,14.78824 -3.599832,5.5145 -4.993226,-0.54098 -0.734778,1.85446 2.163345,1.21688 1.315266,2.48824 6.285692,2.59726 4.970428,0.10922 14.802128,0.78109 17.974238,0.39339 6.3442,-0.77533 2.53824,0.32688 2.84051,-0.99256 0.60455,-2.63894 -9.52192,-0.89061 -8.71586,-6.16844 0.10075,-0.65976 -5.52936,-4.86982 -5.69931,-7.53158 -0.16997,-2.66172 9.35213,-13.16359 5.70093,-11.68985 -11.890486,4.79944 10.53596,-13.08329 10.23759,-18.33959 -0.44704,-7.87547 3.48506,-8.03702 2.88051,-9.96548 -0.30227,-0.96422 -2.40776,-2.62401 -6.80048,-4.81051 2.07043,-13.63277 -10.69232,-5.64944 -15.416752,-8.44704 -2.656945,-1.57333 -4.233582,-2.04407 -3.966224,-2.3529 0.267371,-0.30883 0.772952,-0.0418 -1.040695,-1.15821 -3.627313,-2.23293 -1.797592,0.88569 1.119157,-0.81043 2.91675,-1.69611 8.060494,-8.56579 8.496364,-7.37864 0.49426,1.3463 10.76177,0.41235 6.73143,-7.30145 -4.03034,-7.71377 9.12345,-2.29199 8.51889,-6.35189 -0.30227,-2.02994 -0.5409,-8.27887 0.93756,-13.30626 1.47848,-5.02734 3.2476,-8.36258 0.12409,-6.94163 -6.24702,2.8419 1.48852,-0.2768 -1.25087,-2.34902 -0.42448,-0.32109 1.7206,-5.37111 1.7206,-5.37111 l -13.50164,-6.39432 c 0,0 1.05797,5.6331 0.40305,7.4093 -0.65494,1.77618 -4.96005,6.24713 -5.88932,7.5057 z"
       inkscape:path-effect="#path-effect4144-356-1-2"
       id="path4142-4-3"
       d="m 101.87275,336.31941 c -4.913336,5.64404 -7.068345,13.14792 -11.120537,19.43885 -4.151357,6.44488 -10.163695,11.42967 -16.063632,16.32467 -2.310058,1.91659 -4.696394,3.93802 -5.900612,6.68748 -0.69025,1.57597 -0.950576,3.32645 -0.837965,5.04327 0.112611,1.71681 0.591586,3.40029 1.318396,4.95974 0.683504,1.46653 1.59686,2.84175 2.794413,3.92975 1.197554,1.08801 2.691318,1.87862 4.293051,2.10741 1.658406,0.23689 3.338412,-0.12715 5.013311,-0.16092 2.322141,-0.0468 4.602715,0.54047 6.887382,0.9586 4.039155,0.73922 8.159121,0.95552 12.203063,1.66808 1.3667,0.24082 2.72393,0.53828 4.06063,0.91124 1.03503,0.28879 2.06975,0.625 3.14254,0.68671 0.43596,0.0251 0.88298,0.006 1.29778,0.14229 0.2074,0.0683 0.40446,0.17659 0.55643,0.33336 0.15198,0.15677 0.25626,0.36447 0.26753,0.58252 0.008,0.16393 -0.0354,0.32834 -0.11233,0.47333 -0.077,0.14499 -0.18607,0.2713 -0.3094,0.37963 -0.24665,0.21665 -0.54649,0.36119 -0.82992,0.52684 -1.09091,0.63759 -1.95824,1.60563 -2.64844,2.66404 -0.6902,1.05841 -1.21702,2.21292 -1.75701,3.35529 -3.42583,7.24751 -7.521951,14.29349 -9.342702,22.10038 -1.162195,4.98318 -1.409727,10.29978 -3.86666,14.78824 -0.322035,0.58831 -0.688892,1.18535 -0.734778,1.85446 -0.04476,0.65264 0.235939,1.30505 0.687966,1.77793 0.452026,0.47287 1.062302,0.77569 1.698086,0.92969 1.271567,0.30799 2.600682,0.046 3.89964,-0.11036 5.958728,-0.71737 11.988198,0.82747 17.974238,0.39339 0.51225,-0.0371 1.02702,-0.0894 1.51988,-0.23388 0.49287,-0.14444 0.96655,-0.38665 1.32063,-0.75868 0.38123,-0.40056 0.60645,-0.93948 0.65439,-1.49038 0.0479,-0.5509 -0.0768,-1.11138 -0.32628,-1.60491 -0.49886,-0.98706 -1.46679,-1.67394 -2.50541,-2.05397 -1.03862,-0.38002 -2.15455,-0.48688 -3.25738,-0.57003 -1.10283,-0.0831 -2.21717,-0.14744 -3.28118,-0.44915 -1.6212,-0.45971 -3.07444,-1.47648 -4.08396,-2.82573 -1.00952,-1.34925 -1.57363,-3.02125 -1.61535,-4.70585 -0.0547,-2.21021 0.76469,-4.36299 1.88272,-6.27036 1.11803,-1.90736 2.53403,-3.6198 3.81821,-5.41949 4.06985,-5.7036 6.78856,-12.2405 10.23759,-18.33959 0.8741,-1.54572 1.8008,-3.07483 2.41636,-4.74048 0.61555,-1.66565 0.90582,-3.50505 0.46415,-5.225 -0.37555,-1.46246 -1.28442,-2.78175 -2.5171,-3.65372 -1.23268,-0.87197 -2.77933,-1.28967 -4.28338,-1.15679 -5.34603,-2.41345 -10.50537,-5.24032 -15.416752,-8.44704 -1.288469,-0.84126 -2.566979,-1.7126 -3.966224,-2.3529 -0.255204,-0.11678 -0.518815,-0.22869 -0.728623,-0.4151 -0.104905,-0.0932 -0.195014,-0.20483 -0.25306,-0.33259 -0.05805,-0.12776 -0.08289,-0.27224 -0.05901,-0.41052 0.02073,-0.12006 0.07752,-0.23245 0.154882,-0.32657 0.07736,-0.0941 0.174817,-0.17051 0.280233,-0.23159 0.210834,-0.12216 0.450401,-0.1831 0.684042,-0.25227 1.831602,-0.54226 3.45131,-1.66023 4.826322,-2.98619 1.37501,-1.32596 2.52712,-2.86191 3.67004,-4.39245 1.98935,-2.66403 4.01751,-5.38071 6.73143,-7.30145 1.46102,-1.03402 3.08583,-1.81089 4.61202,-2.74605 1.52619,-0.93516 2.98981,-2.06871 3.90687,-3.60584 1.15536,-1.93655 1.32226,-4.30284 1.20793,-6.55495 -0.11434,-2.25211 -0.47919,-4.50599 -0.27037,-6.75131 0.10855,-1.1672 0.37117,-2.31551 0.49083,-3.48163 0.11965,-1.16611 0.0886,-2.37981 -0.36674,-3.46 -0.34491,-0.81824 -0.9186,-1.52556 -1.25087,-2.34902 -0.3816,-0.94572 -0.4213,-2.02525 -0.11018,-2.99644 0.31111,-0.97119 0.97069,-1.82672 1.83078,-2.37467 l -13.50164,-6.39432 c 1.17888,2.26107 1.3297,5.03369 0.40305,7.4093 -0.58155,1.49088 -1.55132,2.79979 -2.61315,3.99705 -1.06184,1.19726 -2.22543,2.30164 -3.27617,3.50865 z"
       style="fill:#ffffff;fill-rule:evenodd;stroke:#000000;stroke-width:1.5;stroke-linecap:butt;stroke-linejoin:miter;stroke-miterlimit:3.875;stroke-dasharray:none;stroke-opacity:1" />
    <g
       style="fill:#ffffff;stroke-width:3.57819223;stroke-miterlimit:3.875;stroke-dasharray:none"
       id="g4285-4-9"
       transform="matrix(0.41767799,0,0,0.42073979,-54.418789,293.60098)">
      <path
         style="fill:#ffffff;fill-rule:evenodd;stroke:#000000;stroke-width:3.57819223;stroke-linecap:butt;stroke-linejoin:miter;stroke-miterlimit:3.875;stroke-dasharray:none;stroke-opacity:1"
         d="m 382.17199,340.3105 c 1.88259,4.30563 5.86575,7.48228 10.29858,9.04196 4.7019,1.65436 9.87612,1.64624 14.53496,3.41826 2.32942,0.886 4.53416,2.24872 6.05281,4.22479 0.75933,0.98804 1.33756,2.12155 1.63899,3.33065 0.30144,1.20911 0.32144,2.49403 0.005,3.69937 -0.4944,1.88487 -1.7917,3.496 -3.3811,4.62337 -1.58939,1.12738 -3.45811,1.80558 -5.35454,2.25359 -6.50529,1.53679 -13.29649,0.47546 -19.9583,-0.073 -7.71047,-0.6348 -15.46065,-0.56999 -23.18745,-0.95838 -3.59073,-0.18049 -7.18866,-0.46057 -10.70822,-1.19446 -1.09247,-0.2278 -2.18546,-0.50247 -3.18804,-0.9926 -1.00258,-0.49013 -1.91768,-1.21266 -2.47966,-2.1768 -0.64273,-1.10269 -0.77841,-2.44287 -0.62181,-3.70955 0.15661,-1.26669 0.58544,-2.48156 1.01282,-3.68421 2.35065,-6.6148 4.74281,-13.21485 7.17629,-19.79962 -0.67709,0.8931 -1.05311,2.0104 -1.05378,3.13115 -6.7e-4,1.12075 0.37403,2.2385 1.05005,3.13241 0.67603,0.89391 1.64949,1.55883 2.72807,1.86339 1.07857,0.30456 2.25604,0.24702 3.29978,-0.16127 1.25522,-0.49102 2.27217,-1.45223 3.11761,-2.50195 0.84543,-1.04973 1.55138,-2.20587 2.39589,-3.25634 2.83139,-3.52188 7.07257,-5.66089 11.41834,-6.89972 0.4757,-0.13561 0.95954,-0.26109 1.45395,-0.27624 0.49442,-0.0152 0.99892,0.0882 1.42227,0.34402 0.42336,0.25582 0.74942,0.65989 0.93625,1.11789 0.18683,0.45801 0.23395,0.95834 0.29186,1.44959 0.16451,1.39544 0.53619,2.76628 1.0991,4.0537 z"
         id="path4142-62-3-0"
         inkscape:path-effect="#path-effect4144-35-29-9-6"
         inkscape:original-d="m 382.17199,340.3105 c 4.92878,18.17834 10.78105,5.90591 10.29858,9.04196 -1.92987,12.54421 23.67945,8.40097 22.23204,14.67307 -0.72371,3.13605 6.45358,5.03413 -8.73564,6.87696 -3.7973,0.4607 -11.6087,0.26761 -19.9583,-0.073 -8.3496,-0.34065 -17.23738,-0.82885 -23.18745,-0.95838 -5.95007,-0.12953 -8.74919,-0.49742 -10.70822,-1.19446 -1.95903,-0.69705 -3.07798,-1.72325 -5.6677,-3.1694 -10.19554,-5.69337 -8.22767,5.71291 0.39101,-7.39376 4.59514,-6.98795 30.16396,54.08456 7.17629,-19.79962 -0.23231,3.57202 0.90675,9.15973 6.02412,7.96568 5.11736,-1.19405 4.23503,-2.73646 5.5135,-5.75829 0.5991,-1.41605 8.46616,-4.27015 11.41834,-6.89972 2.95218,-2.62957 3.66131,1.00131 4.10433,2.63526 z"
         inkscape:connector-curvature="0"
         sodipodi:nodetypes="ssssssssscsssss" />
      <path
         style="fill:#ffffff;fill-rule:evenodd;stroke:#000000;stroke-width:3.57819223;stroke-linecap:butt;stroke-linejoin:miter;stroke-miterlimit:3.875;stroke-dasharray:none;stroke-opacity:1"
         d="m 355.09756,365.19627 c 3.53865,0.19131 7.07678,0.39234 10.61433,0.60308 1.32687,0.079 2.65366,0.15946 3.98037,0.24124 l 0.96494,-0.60309"
         id="path4281-0-8"
         inkscape:path-effect="#path-effect4283-1-4-1"
         inkscape:original-d="m 355.09756,365.19627 c 2.89482,-0.48247 8.56384,0.12061 10.61433,0.60308 2.0505,0.48247 3.98037,0.24124 3.98037,0.24124 0,0 0.60309,0.48247 0.96494,-0.60309"
         inkscape:connector-curvature="0" />
    </g>
    <path
       sodipodi:nodetypes="csssssc"
       inkscape:connector-curvature="0"
       inkscape:original-d="m 90.996297,443.18748 c 2.921133,1.29184 3.776096,0.28707 4.844803,0.71771 1.068699,0.4306 2.992363,2.29659 4.63105,2.22485 1.63868,-0.072 3.13487,0.2154 3.4911,0.43059 0.17811,0.1077 3.84271,0.5178 6.85289,1.00222 1.50509,0.24226 3.30359,0.43216 4.72134,0.30587 1.41777,-0.1262 2.45479,-0.56883 3.14945,-0.87386"
       inkscape:path-effect="#path-effect4279-27-7-0"
       id="path4277-7-8"
       d="m 90.996297,443.18748 c 1.640833,-0.17554 3.325332,0.074 4.844803,0.71771 1.579755,0.66924 2.981407,1.75348 4.63105,2.22485 1.12965,0.32279 2.31963,0.34136 3.4911,0.43059 2.30279,0.1754 4.5735,0.63074 6.85289,1.00222 1.56133,0.25445 3.14798,0.47031 4.72134,0.30587 1.0886,-0.11377 2.15786,-0.41045 3.14945,-0.87386"
       style="fill:#ffffff;fill-rule:evenodd;stroke:#000000;stroke-width:1.5;stroke-linecap:butt;stroke-linejoin:miter;stroke-miterlimit:3.875;stroke-dasharray:none;stroke-opacity:1" />
    <path
       inkscape:connector-curvature="0"
       inkscape:original-d="m 99.338608,435.78439 c 0,0 3.627302,3.95838 5.189062,4.36437 1.56175,0.40599 2.87161,3.80616 4.93716,1.16721"
       inkscape:path-effect="#path-effect4291-0-8-6"
       id="path4289-8-5"
       d="m 99.338608,435.78439 c 1.298512,1.88308 3.111312,3.40777 5.189062,4.36437 1.54632,0.71193 3.23574,1.11133 4.93716,1.16721"
       style="fill:#ffffff;fill-rule:evenodd;stroke:#000000;stroke-width:1.5;stroke-linecap:butt;stroke-linejoin:miter;stroke-miterlimit:3.875;stroke-dasharray:none;stroke-opacity:1" />
    <path
       sodipodi:nodetypes="ccc"
       inkscape:connector-curvature="0"
       inkscape:original-d="m 99.842396,436.41876 c 0,0 0.503784,-0.58363 0.957194,-0.73586 0.45342,-0.1523 3.87921,-1.01498 4.18149,0.1523"
       inkscape:path-effect="#path-effect4295-9-4-1"
       id="path4293-6-0"
       d="m 99.842396,436.41876 c 0.280014,-0.29115 0.603844,-0.5401 0.957194,-0.73586 0.64098,-0.35511 1.37963,-0.53177 2.11192,-0.5051 0.73228,0.0267 1.45612,0.2566 2.06957,0.6574"
       style="fill:#ffffff;fill-rule:evenodd;stroke:#000000;stroke-width:1.5;stroke-linecap:butt;stroke-linejoin:miter;stroke-miterlimit:3.875;stroke-dasharray:none;stroke-opacity:1" />
    <path
       style="fill:#ffffff;fill-rule:evenodd;stroke:#000000;stroke-width:1.5;stroke-linecap:butt;stroke-linejoin:miter;stroke-miterlimit:3.875;stroke-dasharray:none;stroke-opacity:1"
       d="m 100.42176,436.95574 c 0.17889,-0.16169 0.37317,-0.30634 0.57936,-0.43136 0.6313,-0.38277 1.37574,-0.57628 2.11352,-0.54941 0.73779,0.0269 1.46617,0.27403 2.06796,0.70171"
       id="path4297-8-9"
       inkscape:path-effect="#path-effect4299-3-5-5"
       inkscape:original-d="m 100.42176,436.95574 c 0,0 0.12595,-0.27911 0.57936,-0.43136 0.45341,-0.1523 3.8792,-1.01496 4.18148,0.1523"
       inkscape:connector-curvature="0"
       sodipodi:nodetypes="ccc" />
    <path
       sodipodi:nodetypes="ccc"
       inkscape:connector-curvature="0"
       inkscape:original-d="m 101.25712,437.79724 c 0,0 0.12595,-0.27913 0.57936,-0.43141 0.45341,-0.1523 3.55173,-0.93881 3.85401,0.22832"
       inkscape:path-effect="#path-effect4303-6-0-9"
       id="path4301-8-6"
       d="m 101.25712,437.79724 c 0.17732,-0.16354 0.37186,-0.3084 0.57936,-0.43141 0.58749,-0.34826 1.2802,-0.51629 1.96196,-0.4759 0.68176,0.0404 1.34979,0.28903 1.89205,0.70422"
       style="fill:#ffffff;fill-rule:evenodd;stroke:#000000;stroke-width:1.5;stroke-linecap:butt;stroke-linejoin:miter;stroke-miterlimit:3.875;stroke-dasharray:none;stroke-opacity:1" />
    <path
       style="fill:#ffffff;fill-rule:evenodd;stroke:#000000;stroke-width:1.5;stroke-linecap:butt;stroke-linejoin:miter;stroke-miterlimit:3.875;stroke-dasharray:none;stroke-opacity:1"
       d="m 101.88686,438.5077 c 0.26545,-0.18638 0.55378,-0.34015 0.85645,-0.45675 1.14173,-0.43985 2.48619,-0.31409 3.52654,0.32987"
       id="path4305-4-3"
       inkscape:path-effect="#path-effect4307-0-3-4"
       inkscape:original-d="m 101.88686,438.5077 c 0,0 0.40303,-0.3045 0.85645,-0.45675 0.45341,-0.1523 3.22427,-0.83734 3.52654,0.32987"
       inkscape:connector-curvature="0"
       sodipodi:nodetypes="ccc" />
    <path
       sodipodi:nodetypes="ccc"
       inkscape:connector-curvature="0"
       inkscape:original-d="m 102.74331,439.14206 c 0,0 0.88163,-0.43138 1.33504,-0.5836 0.45342,-0.1523 2.51897,-0.53287 2.82124,0.63436"
       inkscape:path-effect="#path-effect4311-6-6-9"
       id="path4309-3-8"
       d="m 102.74331,439.14206 c 0.39787,-0.28468 0.85587,-0.4849 1.33504,-0.5836 0.97301,-0.20043 2.02768,0.0367 2.82124,0.63436"
       style="fill:#ffffff;fill-rule:evenodd;stroke:#000000;stroke-width:1.5;stroke-linecap:butt;stroke-linejoin:miter;stroke-miterlimit:3.875;stroke-dasharray:none;stroke-opacity:1" />
    <path
       style="fill:#ffffff;fill-rule:evenodd;stroke:#000000;stroke-width:1.5;stroke-linecap:butt;stroke-linejoin:miter;stroke-miterlimit:3.875;stroke-dasharray:none;stroke-opacity:1"
       d="m 103.7257,439.72567 c 0.24909,-0.15276 0.51588,-0.27662 0.79332,-0.36831 1.01601,-0.33577 2.17351,-0.21534 3.09863,0.32241"
       id="path4323-1-5"
       inkscape:path-effect="#path-effect4325-2-1-0"
       inkscape:original-d="m 103.7257,439.72567 c 0,0 0.33991,-0.21616 0.79332,-0.36831 0.4534,-0.1523 2.79635,-0.8448 3.09863,0.32241"
       inkscape:connector-curvature="0"
       sodipodi:nodetypes="ccc" />
    <path
       sodipodi:nodetypes="ccc"
       inkscape:connector-curvature="0"
       inkscape:original-d="m 104.68753,440.28188 c 0,0 0.87426,-0.26989 1.32767,-0.42214 0.45342,-0.15229 1.53173,-1.16774 1.834,-4e-4"
       inkscape:path-effect="#path-effect4329-6-0-9"
       id="path4327-4-6"
       d="m 104.68753,440.28188 c 0.42129,-0.19859 0.86905,-0.34095 1.32767,-0.42214 0.60506,-0.10711 1.2289,-0.10725 1.834,-4e-4"
       style="fill:#ffffff;fill-rule:evenodd;stroke:#000000;stroke-width:1.5;stroke-linecap:butt;stroke-linejoin:miter;stroke-miterlimit:3.875;stroke-dasharray:none;stroke-opacity:1" />
    <path
       style="fill:#ffffff;fill-rule:evenodd;stroke:#000000;stroke-width:1.5;stroke-linecap:butt;stroke-linejoin:miter;stroke-miterlimit:3.875;stroke-dasharray:none;stroke-opacity:1"
       d="m 106.1481,440.78426 c 0.18869,-0.14771 0.39588,-0.27175 0.6152,-0.3683 0.68564,-0.30184 1.4905,-0.32176 2.19023,-0.0542"
       id="path4331-9-1"
       inkscape:path-effect="#path-effect4333-1-6-1"
       inkscape:original-d="m 106.1481,440.78426 c 0,0 0.1618,-0.21616 0.6152,-0.3683 0.45341,-0.1523 1.88796,-1.22157 2.19023,-0.0542"
       inkscape:connector-curvature="0"
       sodipodi:nodetypes="ccc" />
    <path
       sodipodi:nodetypes="ccc"
       inkscape:connector-curvature="0"
       inkscape:original-d="m 107.50179,441.05341 c 0,0 0.26866,-0.0177 0.72206,-0.1708 0.45342,-0.1523 1.88797,-1.22159 2.19024,-0.0542"
       inkscape:path-effect="#path-effect4337-8-3-7"
       id="path4335-2-1"
       d="m 107.50179,441.05341 c 0.23749,-0.0695 0.47861,-0.12652 0.72206,-0.1708 0.72141,-0.13121 1.46323,-0.14957 2.19024,-0.0542"
       style="fill:#ffffff;fill-rule:evenodd;stroke:#000000;stroke-width:1.5;stroke-linecap:butt;stroke-linejoin:miter;stroke-miterlimit:3.875;stroke-dasharray:none;stroke-opacity:1" />
    <path
       style="fill:#ffffff;fill-rule:evenodd;stroke:#000000;stroke-width:1.5;stroke-linecap:butt;stroke-linejoin:miter;stroke-miterlimit:3.875;stroke-dasharray:none;stroke-opacity:1"
       d="m 108.99797,441.28663 c 0.3236,0.0133 0.64762,0.0167 0.97143,0.0101 0.65541,-0.0133 1.30999,-0.0674 1.95869,-0.16193"
       id="path4355-0-5"
       inkscape:path-effect="#path-effect4357-7-2-7"
       inkscape:original-d="m 108.99797,441.28663 c 0,0 0.51802,0.16066 0.97143,0.0101 0.45342,-0.1523 1.65642,-1.32922 1.95869,-0.16193"
       inkscape:connector-curvature="0"
       sodipodi:nodetypes="ccc" />
    <path
       sodipodi:nodetypes="cssssssssssscsc"
       inkscape:connector-curvature="0"
       inkscape:original-d="m 123.12772,323.18062 c 2.35842,-0.97421 1.25949,-3.34941 0.65494,-3.6539 -0.30228,-0.1523 -0.46602,-0.3933 -1.02019,-2.62625 -0.55417,-2.23293 0.76829,-4.37704 -0.89423,-4.78303 -3.32502,-0.81198 -11.33532,-3.09567 -12.3429,2.58816 -1.00759,5.68385 -0.55418,4.87187 -1.56176,4.56738 -1.00759,-0.30447 -1.37251,-16.17927 -1.05291,2.64913 0.0353,2.08225 2.97195,2.55395 2.87119,1.84348 -0.0504,-0.35525 -1.07724,-1.90385 0.0401,-0.83167 0.55867,0.5361 0.1814,0.44902 0.47784,0.73033 0.29644,0.28132 0.87475,1.82813 1.27841,2.25891 0.52213,0.55717 1.05446,1.17841 2.93607,1.71293 1.88161,0.53449 5.64687,1.4488 6.57889,0.94129 1.86402,-1.11645 2.03446,2.70598 2.03455,-3.68889 z"
       inkscape:path-effect="#path-effect4148-9-0-1"
       id="path4146-6-9"
       d="m 123.12772,323.18062 c 0.72211,-1.05122 0.96698,-2.41732 0.65494,-3.6539 -0.23002,-0.91155 -0.73859,-1.7293 -1.02019,-2.62625 -0.24363,-0.77601 -0.31235,-1.59409 -0.3968,-2.40305 -0.0844,-0.80895 -0.18892,-1.62741 -0.49743,-2.37998 -0.51014,-1.2444 -1.57349,-2.23225 -2.82251,-2.73098 -1.24902,-0.49873 -2.6666,-0.52208 -3.95889,-0.14957 -1.29229,0.37251 -2.45965,1.12771 -3.39676,2.09239 -0.93711,0.96467 -1.64974,2.13392 -2.16474,3.37632 -0.61636,1.4869 -0.9552,3.07645 -1.56176,4.56738 -0.35845,0.88107 -0.81083,1.72925 -1.05291,2.64913 -0.13783,0.52375 -0.20533,1.07464 -0.11264,1.60823 0.0927,0.53359 0.358,1.0499 0.79131,1.3748 0.21665,0.16244 0.47239,0.27451 0.74041,0.3132 0.26801,0.0387 0.54785,0.003 0.79306,-0.11222 0.24521,-0.11489 0.454,-0.30962 0.57654,-0.5511 0.12253,-0.24148 0.15604,-0.52882 0.0825,-0.78943 -0.0419,-0.1484 -0.117,-0.28798 -0.13742,-0.44082 -0.0102,-0.0764 -0.006,-0.15603 0.0226,-0.22762 0.0286,-0.0716 0.0834,-0.13443 0.15491,-0.16323 0.04,-0.0161 0.0841,-0.0213 0.12694,-0.0164 0.0428,0.005 0.0843,0.0198 0.12135,0.0418 0.0741,0.0441 0.12894,0.11609 0.16323,0.19519 0.0686,0.1582 0.0582,0.33744 0.0663,0.50967 0.021,0.44427 0.17488,0.87647 0.40574,1.25664 0.23085,0.38017 0.53689,0.7106 0.87267,1.00227 0.8585,0.74572 1.90233,1.23912 2.93607,1.71293 1.03961,0.4765 2.09386,0.94603 3.21285,1.18201 1.119,0.23598 2.32111,0.224 3.36604,-0.24072 0.68759,-0.3058 1.29027,-0.82315 1.63632,-1.49139 0.17302,-0.33413 0.28224,-0.69943 0.33857,-1.07145 0.0563,-0.37203 0.0597,-0.74979 0.0597,-1.12605 l 0,-1.70787 z"
       style="fill:#ffffff;fill-rule:evenodd;stroke:#000000;stroke-width:1.5;stroke-linecap:butt;stroke-linejoin:miter;stroke-miterlimit:3.875;stroke-dasharray:none;stroke-opacity:1" />
    <path
       sodipodi:nodetypes="csssc"
       inkscape:connector-curvature="0"
       inkscape:original-d="m 118.44246,316.5072 c -0.40304,0.60897 -0.5038,0.076 0.45341,1.9538 0.95721,1.87769 2.11593,2.79116 1.05796,3.24791 -1.05796,0.45675 -1.51137,-0.3045 -1.96479,-0.0507 -0.45341,0.25374 -0.10075,0.76122 0.50379,0.40599"
       inkscape:path-effect="#path-effect4175-2-6-1"
       id="path4173-8-8"
       d="m 118.44246,316.5072 c -0.14425,0.67525 0.0265,1.41109 0.45341,1.9538 0.22362,0.28428 0.50869,0.51279 0.78658,0.7443 0.2779,0.23151 0.55476,0.47262 0.75492,0.77388 0.10008,0.15063 0.18002,0.31568 0.22551,0.49071 0.0455,0.17503 0.0559,0.36033 0.0195,0.53747 -0.0364,0.17715 -0.12076,0.34569 -0.24855,0.47367 -0.12778,0.12797 -0.29968,0.21353 -0.47996,0.22788 -0.18663,0.0149 -0.37155,-0.045 -0.54154,-0.12346 -0.16998,-0.0785 -0.33104,-0.17628 -0.5052,-0.24498 -0.17417,-0.0687 -0.36765,-0.10728 -0.54906,-0.061 -0.0907,0.0231 -0.17667,0.0678 -0.24349,0.13332 -0.0668,0.0656 -0.11367,0.15255 -0.1255,0.24541 -0.008,0.064 3.6e-4,0.13006 0.0245,0.18991 0.0241,0.0598 0.0638,0.11336 0.114,0.15385 0.0502,0.0405 0.11096,0.0679 0.17456,0.0787 0.0636,0.0108 0.12996,0.005 0.19077,-0.0165"
       style="fill:#ffffff;fill-rule:evenodd;stroke:#000000;stroke-width:1;stroke-linecap:butt;stroke-linejoin:miter;stroke-miterlimit:3.875;stroke-dasharray:none;stroke-opacity:1" />
    <path
       inkscape:connector-curvature="0"
       inkscape:original-d="m 115.9235,315.97433 c -0.65494,-0.3045 -1.20911,-0.45673 -1.86404,-0.3045 -0.65493,0.1523 -1.86403,0.76122 -1.91441,1.16721 0.20213,-0.2339 1.3653,-0.37611 2.16682,-0.53759 0.80153,-0.16142 0.97965,0.1257 1.514,0.30501 0.53436,0.17941 0.19593,-0.3768 0.0976,-0.63013 z"
       inkscape:path-effect="#path-effect4179-0-1-5"
       id="path4177-9-4"
       d="m 115.9235,315.97433 c -0.56679,-0.29867 -1.23167,-0.40728 -1.86404,-0.3045 -0.75639,0.12293 -1.45869,0.55112 -1.91441,1.16721 0.24568,-0.31737 0.60047,-0.54861 0.99001,-0.64526 0.38954,-0.0966 0.81128,-0.0581 1.17681,0.10767 0.25117,0.11388 0.4748,0.28478 0.73251,0.38295 0.12886,0.0491 0.26667,0.0794 0.40433,0.0714 0.13766,-0.008 0.27535,-0.0564 0.37716,-0.14938 0.0848,-0.0775 0.14213,-0.18439 0.1597,-0.29789 0.0176,-0.11349 -0.005,-0.23276 -0.0621,-0.33224 l 3e-5,0 z"
       style="fill:#000000;fill-rule:evenodd;stroke:#000000;stroke-width:1;stroke-linecap:butt;stroke-linejoin:miter;stroke-miterlimit:3.875;stroke-dasharray:none;stroke-opacity:1"
       sodipodi:nodetypes="cscssc" />
    <path
       sodipodi:nodetypes="csssccscc"
       inkscape:connector-curvature="0"
       inkscape:original-d="m 121.46521,323.0791 c -0.40303,0.25377 -0.19794,-0.008 -0.2987,0.90734 -0.0504,0.45672 -0.23282,1.40184 -0.67993,1.54773 -0.44711,0.14597 -2.05067,-0.39783 -2.73079,-0.42319 -1.36024,-0.0507 -1.45444,-0.68703 -1.60558,-0.94077 l -0.42823,-0.17764 c 1.61214,-0.20298 3.27465,-1.01498 4.383,-0.71048 1.10833,0.30452 1.81365,-0.45673 1.81365,-0.45673 z"
       inkscape:path-effect="#path-effect4187-2-5-9"
       id="path4185-2-8"
       d="m 121.46521,323.0791 c -0.10679,0.12143 -0.17354,0.27365 -0.21574,0.42975 -0.0422,0.1561 -0.0613,0.31735 -0.083,0.47759 -0.0388,0.28672 -0.0872,0.57445 -0.18923,0.8452 -0.10205,0.27075 -0.26159,0.52582 -0.4907,0.70253 -0.19453,0.15005 -0.43313,0.23826 -0.67688,0.26899 -0.24375,0.0307 -0.4926,0.006 -0.73055,-0.0556 -0.47588,-0.12232 -0.9024,-0.38314 -1.32336,-0.63656 -0.53144,-0.31994 -1.06668,-0.63356 -1.60558,-0.94077 l -0.42823,-0.17764 c 1.47355,-0.14812 2.93812,-0.38552 4.383,-0.71048 0.6083,-0.13681 1.21311,-0.28912 1.81365,-0.45673 -0.17399,0.03 -0.33682,0.12116 -0.45342,0.25374 z"
       style="fill:none;fill-rule:evenodd;stroke:#000000;stroke-width:1;stroke-linecap:butt;stroke-linejoin:miter;stroke-miterlimit:3.875;stroke-dasharray:none;stroke-opacity:1" />
    <path
       style="fill:#000000;fill-rule:evenodd;stroke:#000000;stroke-width:1;stroke-linecap:butt;stroke-linejoin:miter;stroke-miterlimit:3.875;stroke-dasharray:none;stroke-opacity:1"
       d="m 122.43403,315.4113 c -0.14194,-0.22174 -0.36547,-0.38994 -0.61785,-0.46491 -0.25238,-0.075 -0.53149,-0.0561 -0.77146,0.0522 -0.32562,0.14695 -0.56236,0.44156 -0.87525,0.61396 -0.15645,0.0862 -0.33617,0.14088 -0.51346,0.11913 -0.0887,-0.0109 -0.17542,-0.0411 -0.24907,-0.0916 -0.0737,-0.0505 -0.13373,-0.12175 -0.1668,-0.20471 -0.0316,-0.0792 -0.0379,-0.16825 -0.0179,-0.25113 0.55004,-0.49574 1.35622,-0.69012 2.07175,-0.49955 0.44236,0.11782 0.84641,0.37538 1.13995,0.72666 l 9e-5,-8e-5 z"
       id="path4454-6-1"
       inkscape:path-effect="#path-effect4456-3-5-7"
       inkscape:original-d="m 122.43403,315.4113 c 0.0179,0.2154 -0.67684,-0.0357 -1.38931,-0.41268 -0.71247,-0.3768 -1.3771,0.23947 -1.80458,0.43678 -0.42748,0.19715 0.16031,-0.55621 -0.0179,-0.25113 0.19593,-0.18829 1.39491,-0.51749 2.07175,-0.49955 0.67685,0.0177 1.00637,0.59209 1.13995,0.72666 z"
       inkscape:connector-curvature="0"
       sodipodi:nodetypes="csccsc" />
    <path
       sodipodi:nodetypes="csccsscssc"
       inkscape:connector-curvature="0"
       inkscape:original-d="m 78.836608,369.09996 c 1.914417,0.60897 7.531572,-0.7075 9.54674,0.71348 2.015175,1.42094 6.632769,7.0591 6.632769,7.0591 l -0.554169,1.06575 c 0,0 -1.511381,-1.57323 -5.642468,-0.45675 -4.131107,1.11648 -7.304996,1.77621 -8.81637,5.63309 -1.511375,3.85689 -5.11782,10.19983 -3.807954,11.7223 0.963433,1.28522 -12.201469,-2.96445 -7.427915,-15.59586 2.386776,-6.31568 1.846388,-1.64357 4.072779,-5.63491 2.226384,-3.9913 4.725919,-3.79936 5.996588,-4.5062 z"
       inkscape:path-effect="#path-effect4231-7-4-7"
       id="path4229-6-0"
       d="m 78.836608,369.09996 c 3.124421,-0.94629 6.597685,-0.68671 9.54674,0.71348 2.985546,1.41752 5.403741,3.99115 6.632769,7.0591 l -0.554169,1.06575 c -1.80551,-0.61091 -3.762205,-0.7693 -5.642468,-0.45675 -3.522656,0.58556 -6.640223,2.80177 -8.81637,5.63309 -2.552908,3.32151 -3.921516,7.53459 -3.807954,11.7223 -3.100834,-0.93991 -5.765683,-3.23186 -7.158935,-6.15717 -1.393252,-2.92532 -1.493378,-6.43878 -0.26898,-9.43869 0.882166,-2.1614 2.393985,-4.01271 4.072779,-5.63491 1.802653,-1.74188 3.821966,-3.25931 5.996588,-4.5062 z"
       style="fill:#ffffff;fill-rule:evenodd;stroke:#000000;stroke-width:1.5;stroke-linecap:butt;stroke-linejoin:miter;stroke-miterlimit:3.875;stroke-dasharray:none;stroke-opacity:1" />
    <path
       sodipodi:nodetypes="csssc"
       inkscape:connector-curvature="0"
       inkscape:original-d="m 122.02436,316.44298 c -0.35623,-0.78947 -1.46056,-0.25112 -1.74555,-0.21539 -0.28498,0.0357 -1.36546,0.71829 -0.94402,1.05859 0.20639,0.16675 0.6695,0.52553 0.96078,0.36725 0.29127,-0.15839 0.39291,-0.70813 0.12572,-1.38993"
       inkscape:path-effect="#path-effect4448-5-7-6"
       id="path4446-4-3"
       d="m 122.02436,316.44298 c -0.53828,-0.25724 -1.16089,-0.33407 -1.74555,-0.21539 -0.26155,0.0531 -0.52317,0.14895 -0.71643,0.33301 -0.0966,0.092 -0.17425,0.20536 -0.21694,0.33179 -0.0427,0.12642 -0.0494,0.26609 -0.0106,0.39379 0.0282,0.0931 0.0802,0.1788 0.1485,0.2481 0.0683,0.0693 0.15289,0.12226 0.24452,0.15508 0.18326,0.0656 0.39217,0.0481 0.56776,-0.0359 0.12623,-0.0604 0.23636,-0.15411 0.31622,-0.26903 0.0799,-0.11493 0.12927,-0.25081 0.14187,-0.39019 0.0126,-0.13937 -0.0116,-0.28192 -0.0696,-0.4093 -0.0579,-0.12739 -0.14947,-0.23932 -0.26281,-0.32141"
       style="fill:none;fill-rule:evenodd;stroke:#000000;stroke-width:1;stroke-linecap:butt;stroke-linejoin:miter;stroke-miterlimit:3.875;stroke-dasharray:none;stroke-opacity:1" />
    <path
       sodipodi:nodetypes="cssssc"
       inkscape:connector-curvature="0"
       inkscape:original-d="m 116.05743,317.55541 c -1.10433,-0.28707 -0.67684,-0.53827 -1.78118,-0.1077 -1.10432,0.43065 -1.92367,0.0897 -1.10432,0.84332 0.40966,0.37678 0.49873,0.49339 1.03753,0.51134 0.53881,0.0177 0.61896,-0.13456 0.61896,-0.51134 0,-0.75362 0.37405,-0.84332 -0.16031,-0.84332"
       inkscape:path-effect="#path-effect4452-92-6-7"
       id="path4450-9-0"
       d="m 116.05743,317.55541 c -0.5839,-0.1246 -1.18652,-0.16104 -1.78118,-0.1077 -0.25798,0.0231 -0.52244,0.0659 -0.74305,0.20161 -0.1103,0.0679 -0.20769,0.15885 -0.27419,0.26998 -0.0665,0.11113 -0.10089,0.24296 -0.0871,0.37173 0.0117,0.10953 0.0581,0.21444 0.1275,0.29997 0.0694,0.0855 0.16139,0.15186 0.26267,0.19521 0.20255,0.0867 0.43647,0.0799 0.64736,0.0162 0.1322,-0.04 0.25842,-0.10196 0.36645,-0.18802 0.10803,-0.0861 0.1975,-0.19663 0.25251,-0.32332 0.0605,-0.13938 0.0781,-0.29707 0.0497,-0.44635 -0.0284,-0.14928 -0.10258,-0.28952 -0.21002,-0.39697"
       style="fill:none;fill-rule:evenodd;stroke:#000000;stroke-width:1;stroke-linecap:butt;stroke-linejoin:miter;stroke-miterlimit:3.875;stroke-dasharray:none;stroke-opacity:1" />
    <path
       sodipodi:nodetypes="csc"
       inkscape:connector-curvature="0"
       inkscape:original-d="m 116.28899,324.08641 c 0.28498,0.1077 2.84987,0.62372 3.49109,0.44431 0.64123,-0.17942 1.42494,-1.1979 1.67431,-1.34143"
       inkscape:path-effect="#path-effect4460-2-5-3"
       id="path4458-5-4"
       d="m 116.28899,324.08641 c 0.49454,0.36065 1.08123,0.59384 1.68841,0.67112 0.60717,0.0773 1.23357,-0.002 1.80268,-0.22681 0.67492,-0.26716 1.26638,-0.74103 1.67431,-1.34143"
       style="fill:none;fill-rule:evenodd;stroke:#000000;stroke-width:1;stroke-linecap:butt;stroke-linejoin:miter;stroke-miterlimit:3.875;stroke-dasharray:none;stroke-opacity:1" />
    <path
       sodipodi:nodetypes="csc"
       inkscape:connector-curvature="0"
       inkscape:original-d="m 113.9587,360.68378 c 1.20911,0.40599 2.922,0.91347 3.22428,0.20324 0.30227,-0.71049 1.10834,-1.52247 1.10834,-1.52247"
       inkscape:path-effect="#path-effect4464-8-6-6"
       id="path4462-0-4"
       d="m 113.9587,360.68378 c 0.43859,0.37615 1.00147,0.60486 1.57813,0.64121 0.57665,0.0363 1.1638,-0.11987 1.64615,-0.43797 0.53543,-0.3531 0.93681,-0.90446 1.10834,-1.52247"
       style="fill:none;fill-rule:evenodd;stroke:#000000;stroke-width:1.5;stroke-linecap:butt;stroke-linejoin:miter;stroke-miterlimit:3.875;stroke-dasharray:none;stroke-opacity:1" />
    <path
       style="fill:none;fill-rule:evenodd;stroke:#000000;stroke-width:1.50000012;stroke-linecap:round;stroke-linejoin:round;stroke-miterlimit:3.875;stroke-dasharray:none;stroke-opacity:1"
       d="M 85.348422,351.88777 68.430376,370.13562"
       id="path5730-4-4"
       inkscape:path-effect="#path-effect5732-9-9-5"
       inkscape:original-d="M 85.348422,351.88777 68.430376,370.13562"
       inkscape:connector-curvature="0" />
    <path
       style="fill:#ffffff;fill-rule:evenodd;stroke:#000000;stroke-width:1.5;stroke-linecap:butt;stroke-linejoin:miter;stroke-miterlimit:3.875;stroke-dasharray:none;stroke-opacity:1"
       d="m 110.73415,362.01102 c -2.47991,-2.83802 -5.49189,-5.20954 -8.83252,-6.9544 -2.76043,-1.44181 -5.743354,-2.45665 -8.810332,-2.99742 l 8.117552,-17.02775 c -0.90224,1.43634 -1.363221,3.14575 -1.305474,4.84097 0.05775,1.69523 0.633984,3.3693 1.631874,4.74092 1.19881,1.64778 3.00517,2.84286 4.99056,3.30173 1.98539,0.45887 4.13295,0.17764 5.93324,-0.77698 l 7.08553,-1.1796 c 1.66043,2.44226 2.19309,5.61956 1.41991,8.4698 -0.77317,2.85024 -2.83844,5.3228 -5.50544,6.59118 -1.467,0.69768 -3.10119,1.04062 -4.7249,0.99155 z"
       id="path4221-7-0-8-4"
       inkscape:path-effect="#path-effect4223-2-3-7-3-6"
       inkscape:original-d="m 110.73415,362.01102 c 0,0 -7.22039,-5.43193 -8.83252,-6.9544 -1.61214,-1.52247 -6.29137,-1.77945 -8.810332,-2.99742 -0.395482,-2.75554 7.677782,-19.43064 8.117552,-17.02775 -0.30223,2.44787 -0.51745,7.64079 0.3264,9.58189 0.84386,1.94115 4.22336,3.28597 10.9238,2.52475 0.56451,0.0596 7.08553,-1.1796 7.08553,-1.1796 0,0 -4.73903,15.38089 -4.08553,15.06098 33.28778,-16.2962 -4.7344,0.51798 -4.7249,0.99155 z"
       inkscape:connector-curvature="0"
       sodipodi:nodetypes="csccsccsc" />
    <path
       sodipodi:nodetypes="csssssssssssssssssssssssssssc"
       inkscape:connector-curvature="0"
       inkscape:original-d="m 110.33224,346.03973 c -61.050463,-20.77891 -14.532099,-5.90908 1.24474,-1.85131 15.77684,4.05779 -0.26816,-1.31908 0.23565,-1.52209 1.00758,-0.40599 1.20342,-2.948 1.0019,1.92385 -0.20152,4.87187 -2.62182,3.34421 -0.80816,10.44898 0.90682,3.55241 -0.0682,4.85243 0.0845,8.67873 0.0381,0.95658 0.58964,12.41257 0.69982,17.36469 0.11017,4.95213 -0.0109,3.06827 0.0759,3.78971 0.1733,1.44282 -0.3163,1.42247 -0.5682,1.27022 -1.00759,-0.60897 -3.32965,-0.73187 -0.3069,0.0801 0.75569,0.20298 -0.54098,-0.21109 -0.80067,0.67699 -0.25969,0.88802 -0.40473,0.30688 -0.44842,1.2377 -0.0437,0.93083 -0.50725,0.89576 0.2709,1.39908 0.77814,0.5033 2.77352,2.33336 3.15111,1.99741 2.60754,-2.32002 2.06358,-0.34066 3.28006,0.8878 4.26881,4.31087 3.2479,2.15209 3.23136,1.93487 -0.0167,-0.21717 0.49524,1.15015 0.92959,1.93241 1.73741,3.12901 0.77771,1.71402 0.57619,0.69906 -0.0504,-0.25374 0.68517,-0.57864 0.81041,-1.23977 0.12525,-0.66114 -0.60916,-1.65849 -0.53582,-1.53467 0.14669,0.24758 -33.468009,15.37609 -1.55728,-2.41901 2.70066,-1.50605 -2.21242,0.77936 -2.63138,-4.36624 -0.20949,-2.57278 -0.39836,-1.69446 -0.12555,-7.58857 0.27283,-5.8941 1.71982,-17.66351 1.74502,-17.89188 0.10074,-0.91347 1.71193,-9.28249 0.44371,-13.46787 -0.6341,-2.09269 0.14935,-1.41704 0.19857,-4.73566 0.0492,-3.31864 1.11086,-8.46916 0.95972,-9.0274 -0.0756,-0.27911 -2.95009,-2.27479 -5.22735,-3.43397 -2.27727,-1.15918 -2.66979,0.85767 -3.6978,0.55857"
       inkscape:path-effect="#path-effect4144-3-3-7-3"
       id="path4142-6-7-7"
       d="m 110.33224,346.03973 c 0.37236,-0.13794 0.69941,-0.39536 0.92097,-0.72489 0.22156,-0.32953 0.33654,-0.72954 0.32377,-1.12642 -0.009,-0.27003 -0.0746,-0.53651 -0.0732,-0.80668 7e-4,-0.13509 0.0187,-0.27136 0.0676,-0.3973 0.0489,-0.12593 0.13014,-0.24134 0.24129,-0.31811 0.0978,-0.0676 0.21646,-0.10327 0.3353,-0.10549 0.11884,-0.002 0.23756,0.0285 0.34262,0.0841 0.21014,0.11115 0.35974,0.31812 0.43349,0.54411 0.0737,0.22599 0.0772,0.47001 0.0461,0.70569 -0.0311,0.23568 -0.0956,0.46544 -0.15561,0.69545 -0.88537,3.39057 -0.83573,6.94482 -0.80816,10.44898 0.0228,2.89298 0.0265,5.78624 0.0845,8.67873 0.11607,5.79194 0.44935,11.57701 0.69982,17.36469 0.0546,1.26255 0.10535,2.52632 0.0759,3.78971 -0.006,0.24674 -0.0153,0.49772 -0.0955,0.73114 -0.0401,0.11671 -0.098,0.22807 -0.17718,0.3227 -0.0792,0.0946 -0.18029,0.17216 -0.2955,0.21638 -0.0988,0.0379 -0.20523,0.0508 -0.3069,0.0801 -0.1716,0.0495 -0.32754,0.14573 -0.46027,0.26523 -0.13273,0.11951 -0.24319,0.26194 -0.3404,0.41176 -0.24112,0.37163 -0.40466,0.79687 -0.44842,1.2377 -0.0476,0.47934 0.0489,0.97158 0.2709,1.39908 0.29511,0.5683 0.79913,1.00774 1.35859,1.3193 0.55945,0.31155 1.17595,0.50519 1.79252,0.67811 1.0907,0.30589 2.19765,0.55375 3.28006,0.8878 0.61028,0.18835 1.21514,0.40526 1.77497,0.71268 0.55984,0.30742 1.07568,0.70937 1.45639,1.22219 0.42747,0.5758 0.66807,1.26467 0.92959,1.93241 0.0573,0.1462 0.11662,0.29343 0.20739,0.42155 0.0908,0.12811 0.21707,0.23716 0.3688,0.27751 0.14199,0.0378 0.29749,0.0116 0.42575,-0.0601 0.12826,-0.0717 0.22983,-0.18644 0.29698,-0.31712 0.13432,-0.26136 0.13139,-0.57197 0.0877,-0.86255 -0.081,-0.53815 -0.2893,-1.0495 -0.53582,-1.53467 -0.4349,-0.8559 -0.9908,-1.64389 -1.55728,-2.41901 -1.00667,-1.37744 -2.06978,-2.75523 -2.63138,-4.36624 -0.84104,-2.41262 -0.46617,-5.05636 -0.12555,-7.58857 0.79902,-5.93994 1.35501,-11.91115 1.74502,-17.89188 0.29236,-4.48329 0.49158,-8.97531 0.44371,-13.46787 -0.0169,-1.58212 -0.0636,-3.17532 0.19857,-4.73566 0.25535,-1.51984 0.7986,-2.97622 1.12853,-4.48163 0.32993,-1.50541 0.43398,-3.1274 -0.16881,-4.54577 -0.42848,-1.00822 -1.19967,-1.85602 -2.12793,-2.43776 -0.92827,-0.58174 -2.00784,-0.90369 -3.09942,-0.99621 -1.25358,-0.10625 -2.53153,0.0868 -3.6978,0.55857"
       style="fill:#ffffff;fill-rule:evenodd;stroke:#000000;stroke-width:1.5;stroke-linecap:butt;stroke-linejoin:miter;stroke-miterlimit:3.875;stroke-dasharray:none;stroke-opacity:1" />
    <path
       sodipodi:nodetypes="sssssssscs"
       inkscape:connector-curvature="0"
       inkscape:original-d="m 119.37137,306.99342 c -3.63359,-1.00475 -7.42968,-3.59592 -9.35335,-1.22752 -1.92367,2.36838 -11.184544,7.80632 -8.8334,14.98324 2.35115,7.1769 8.47839,7.75108 1.28245,10.83714 -7.195948,3.08609 -14.178151,17.51172 -13.465686,19.37771 0.71247,1.86601 5.913496,-0.64592 7.195945,-5.02385 1.282448,-4.37792 9.746521,-15.72466 14.520061,-16.65767 2.38678,-0.4665 7.28601,-14.84508 9.59154,-18.33196 2.30552,-3.48691 -0.67572,5.86286 1.9248,2.54351 5.77101,-8.00226 0.77124,-5.4958 -2.86236,-6.5006 z"
       inkscape:path-effect="#path-effect4152-61-4-9"
       id="path4150-1-6"
       d="m 119.37137,306.99342 c -3.08316,-0.73213 -6.22978,-1.76155 -9.35335,-1.22752 -1.59093,0.272 -3.10551,0.95126 -4.39283,1.92483 -1.28732,0.97357 -2.34807,2.23759 -3.12132,3.65432 -1.5465,2.83346 -1.91063,6.23069 -1.31925,9.40409 0.33848,1.8163 0.97313,3.56469 1.36892,5.36937 0.3958,1.80468 0.54215,3.73043 -0.0865,5.46777 -0.42355,1.17057 -1.18396,2.20183 -2.10003,3.0447 -0.916079,0.84288 -1.985549,1.50514 -3.098871,2.06205 -2.226642,1.11381 -4.644725,1.82246 -6.825581,3.02345 -1.090428,0.6005 -2.121616,1.32731 -2.968218,2.23994 -0.846602,0.91262 -1.504271,2.0193 -1.786262,3.23178 -0.281991,1.21248 -0.169844,2.53266 0.416778,3.63061 0.293311,0.54898 0.701678,1.03794 1.198847,1.41241 0.497169,0.37447 1.083285,0.63296 1.697651,0.73277 0.759795,0.12343 1.548358,0.003 2.264241,-0.28031 0.715882,-0.28291 1.362341,-0.72313 1.936781,-1.23552 1.148879,-1.02478 2.009604,-2.32512 2.994923,-3.50802 2.395876,-2.8763 5.513741,-5.04234 8.316051,-7.52437 1.40115,-1.24101 2.73392,-2.57269 3.83479,-4.08644 1.10087,-1.51374 1.96734,-3.21879 2.36922,-5.04686 0.49191,-2.2376 0.27522,-4.56352 0.0291,-6.84128 -0.24614,-2.27777 -0.51866,-4.58973 -0.13386,-6.84821 0.19239,-1.12924 0.55177,-2.23723 1.13296,-3.22436 0.58119,-0.98712 1.39025,-1.85079 2.38138,-2.42514 0.99112,-0.57434 2.16788,-0.84814 3.30244,-0.69013 1.13457,0.15801 2.21515,0.764 2.87954,1.69716 0.31327,0.43999 0.53063,0.93992 0.80674,1.40413 0.27611,0.46421 0.62997,0.9081 1.11806,1.13938 0.45601,0.21608 1.00143,0.22221 1.47208,0.0402 0.47065,-0.182 0.8641,-0.54471 1.10713,-0.98694 0.24303,-0.44224 0.33842,-0.95977 0.29576,-1.46258 -0.0427,-0.5028 -0.2202,-0.99034 -0.48807,-1.41799 -0.53574,-0.85529 -1.41116,-1.45227 -2.34158,-1.84325 -0.93041,-0.39099 -1.92576,-0.59688 -2.90768,-0.83005 z"
       style="fill:#000000;fill-rule:evenodd;stroke:#000000;stroke-width:1.5;stroke-linecap:butt;stroke-linejoin:miter;stroke-miterlimit:3.875;stroke-dasharray:none;stroke-opacity:1" />
    <ellipse
       style="color:#000000;clip-rule:nonzero;display:inline;overflow:visible;visibility:visible;opacity:1;isolation:auto;mix-blend-mode:normal;color-interpolation:sRGB;color-interpolation-filters:linearRGB;solid-color:#000000;solid-opacity:1;fill:none;fill-opacity:1;fill-rule:nonzero;stroke:#000000;stroke-width:1.5;stroke-linecap:round;stroke-linejoin:round;stroke-miterlimit:3.875;stroke-dasharray:none;stroke-dashoffset:1.75999987;stroke-opacity:1;color-rendering:auto;image-rendering:auto;shape-rendering:auto;text-rendering:auto;enable-background:accumulate"
       id="path6156-7-3"
       cx="113.84171"
       cy="396.44794"
       rx="13.536926"
       ry="13.636158" />
  </g>
  <g
     inkscape:groupmode="layer"
     id="layer3"
     inkscape:label="vecto">
    <g
       id="flowRoot49562"
       style="font-style:normal;font-weight:normal;line-height:0.01%;font-family:sans-serif;letter-spacing:0px;word-spacing:0px;fill:#000000;fill-opacity:1;stroke:#000000;stroke-width:0.37500003;stroke-linecap:round;stroke-linejoin:round;stroke-miterlimit:4;stroke-dasharray:none;stroke-opacity:1"
       clip-path="url(#clipPath1755-8-2-1)"
       transform="translate(64.925121,2.2167498)">
      <path
         id="path5385"
         style="font-style:normal;font-variant:normal;font-weight:normal;font-stretch:normal;font-size:15px;line-height:100%;font-family:'Ume Mincho Balsa';-inkscape-font-specification:'Ume Mincho Balsa, Normal';text-align:start;writing-mode:lr-tb;text-anchor:start;fill:#000000;stroke:#000000;stroke-width:0.37500003;stroke-linecap:round;stroke-linejoin:round;stroke-miterlimit:4;stroke-dasharray:none;stroke-opacity:1"
         d="m 86.527344,160.59766 1.464843,0 0,0.35156 -3.75,0 0,-0.35156 1.464844,0 0,-0.9961 0,-0.23437 0,-7.61719 -1.464844,0.29297 0,-0.35156 1.992188,-0.76172 0.292969,0 0,8.4375 0,0.23437 0,0.9961 z"
         inkscape:connector-curvature="0" />
    </g>
  </g>
</svg>
