<?xml version="1.0" encoding="UTF-8" standalone="no"?>
<!-- Created with Inkscape (http://www.inkscape.org/) -->

<svg
   xmlns:dc="http://purl.org/dc/elements/1.1/"
   xmlns:cc="http://creativecommons.org/ns#"
   xmlns:rdf="http://www.w3.org/1999/02/22-rdf-syntax-ns#"
   xmlns:svg="http://www.w3.org/2000/svg"
   xmlns="http://www.w3.org/2000/svg"
   xmlns:sodipodi="http://sodipodi.sourceforge.net/DTD/sodipodi-0.dtd"
   xmlns:inkscape="http://www.inkscape.org/namespaces/inkscape"
   width="45.944126mm"
   height="6.4124498mm"
   viewBox="0 0 45.944126 6.4124498"
   version="1.1"
   id="svg35452"
   inkscape:version="0.91 r13725"
   sodipodi:docname="looking-03.svg">
  <defs
     id="defs35446">
    <clipPath
       id="clipPath1755-0"
       clipPathUnits="userSpaceOnUse">
      <rect
         y="91.882065"
         x="-66.708733"
         height="73.499458"
         width="160.91911"
         id="rect1757-45"
         style="fill:#ffffff;fill-opacity:1;fill-rule:evenodd;stroke:#000000;stroke-width:1.875;stroke-linecap:round;stroke-linejoin:round;stroke-miterlimit:4;stroke-dasharray:none;stroke-opacity:1" />
    </clipPath>
    <marker
       inkscape:collect="always"
       inkscape:isstock="true"
       style="overflow:visible"
       id="Arrow1Send-2"
       refX="0"
       refY="0"
       orient="auto"
       inkscape:stockid="Arrow1Send">
      <path
         inkscape:connector-curvature="0"
         transform="matrix(-0.2,0,0,-0.2,-1.2,0)"
         style="fill:#000000;fill-opacity:1;fill-rule:evenodd;stroke:#000000;stroke-width:1.00000003pt;stroke-opacity:1"
         d="M 0,0 5,-5 -12.5,0 5,5 Z"
         id="path2444-4" />
    </marker>
    <clipPath
       id="clipPath1755-0-8"
       clipPathUnits="userSpaceOnUse">
      <rect
         y="91.882065"
         x="-66.708733"
         height="73.499458"
         width="160.91911"
         id="rect1757-45-1"
         style="fill:#ffffff;fill-opacity:1;fill-rule:evenodd;stroke:#000000;stroke-width:1.875;stroke-linecap:round;stroke-linejoin:round;stroke-miterlimit:4;stroke-dasharray:none;stroke-opacity:1" />
    </clipPath>
  </defs>
  <sodipodi:namedview
     id="base"
     pagecolor="#ffffff"
     bordercolor="#666666"
     borderopacity="1.0"
     inkscape:pageopacity="0.0"
     inkscape:pageshadow="2"
     inkscape:zoom="2.5772727"
     inkscape:cx="52.275134"
     inkscape:cy="-1.4285714"
     inkscape:document-units="mm"
     inkscape:current-layer="layer2"
     showgrid="false"
     fit-margin-top="0"
     fit-margin-left="0"
     fit-margin-right="0"
     fit-margin-bottom="0"
     inkscape:window-width="1920"
     inkscape:window-height="1031"
     inkscape:window-x="0"
     inkscape:window-y="27"
     inkscape:window-maximized="1" />
  <metadata
     id="metadata35449">
    <rdf:RDF>
      <cc:Work
         rdf:about="">
        <dc:format>image/svg+xml</dc:format>
        <dc:type
           rdf:resource="http://purl.org/dc/dcmitype/StillImage" />
        <dc:title />
      </cc:Work>
    </rdf:RDF>
  </metadata>
  <g
     inkscape:label="Layer 1"
     inkscape:groupmode="layer"
     id="layer1"
     transform="translate(279.99588,59.235988)">
    <rect
       y="-58.971405"
       x="-279.73129"
       height="5.8832831"
       width="45.414959"
       id="rect4156-9"
       style="fill:#ffffff;fill-opacity:1;fill-rule:evenodd;stroke:#000000;stroke-width:0.52916658;stroke-linecap:round;stroke-linejoin:round;stroke-miterlimit:4;stroke-dasharray:none;stroke-opacity:1" />
    <path
       transform="rotate(-90)"
       d="m 57.122866,-236.93818 a 5.6191611,7.9980545 0 0 1 -2.30722,-6.89859 5.6191611,7.9980545 0 0 1 2.813193,-6.50705"
       sodipodi:open="true"
       sodipodi:end="4.1911936"
       sodipodi:start="2.1993325"
       sodipodi:ry="7.9980545"
       sodipodi:rx="5.6191611"
       sodipodi:cy="-243.40771"
       sodipodi:cx="60.426716"
       sodipodi:type="arc"
       id="path2427-8"
       style="fill:none;fill-opacity:1;fill-rule:evenodd;stroke:#000000;stroke-width:0.52916658;stroke-linecap:round;stroke-linejoin:round;stroke-miterlimit:4;stroke-dasharray:none;stroke-opacity:1;marker-end:url(#Arrow1Send-2)" />
  </g>
  <g
     inkscape:groupmode="layer"
     id="layer2"
     inkscape:label="VECTO">
    <g
       transform="matrix(0.28222222,0,0,0.28222222,-21.035593,-40.882255)"
       clip-path="url(#clipPath1755-0-8)"
       style="font-style:normal;font-weight:normal;line-height:0.01%;font-family:sans-serif;letter-spacing:0px;word-spacing:0px;fill:#000000;fill-opacity:1;stroke:#000000;stroke-width:0.37500003;stroke-linecap:round;stroke-linejoin:round;stroke-miterlimit:4;stroke-dasharray:none;stroke-opacity:1"
       id="flowRoot4154-8">
      <path
         inkscape:connector-curvature="0"
         d="m 85.824219,150.92969 q 1.40625,0 2.285156,0.70312 0.878906,0.70313 0.878906,2.16797 0,1.23047 -1.992187,2.98828 -2.929688,2.57813 -2.929688,3.28125 l 4.101563,0 0.761718,-1.75781 0.351563,0 -0.351563,2.63672 -5.859375,0 0,-0.52735 q 0,-1.17187 3.164063,-3.98437 1.757812,-1.52344 1.757812,-2.63672 0,-1.28906 -0.644531,-1.875 -0.644531,-0.58594 -1.523437,-0.58594 -0.644532,0 -1.142578,0.41016 -0.498047,0.41016 -0.673829,0.99609 0.527344,0.46875 0.322266,0.84961 -0.205078,0.38086 -0.615234,0.38086 -0.234375,-0.0586 -0.410157,-0.20508 -0.175781,-0.14648 -0.234375,-0.43945 0,-0.9375 0.732422,-1.66992 0.732422,-0.73242 2.021485,-0.73242 z"
         style="font-style:normal;font-variant:normal;font-weight:normal;font-stretch:normal;font-size:15px;line-height:100%;font-family:'Ume Mincho Balsa';-inkscape-font-specification:'Ume Mincho Balsa, Normal';text-align:start;writing-mode:lr-tb;text-anchor:start;fill:#000000;stroke:#000000;stroke-width:0.37500003;stroke-linecap:round;stroke-linejoin:round;stroke-miterlimit:4;stroke-dasharray:none;stroke-opacity:1"
         id="path5269" />
    </g>
  </g>
</svg>
