<?xml version="1.0" encoding="UTF-8" standalone="no"?>
<!-- Created with Inkscape (http://www.inkscape.org/) -->

<svg
   xmlns:dc="http://purl.org/dc/elements/1.1/"
   xmlns:cc="http://creativecommons.org/ns#"
   xmlns:rdf="http://www.w3.org/1999/02/22-rdf-syntax-ns#"
   xmlns:svg="http://www.w3.org/2000/svg"
   xmlns="http://www.w3.org/2000/svg"
   xmlns:sodipodi="http://sodipodi.sourceforge.net/DTD/sodipodi-0.dtd"
   xmlns:inkscape="http://www.inkscape.org/namespaces/inkscape"
   width="46.032452mm"
   height="6.1497602mm"
   viewBox="0 0 46.032452 6.1497602"
   version="1.1"
   id="svg48754"
   inkscape:version="0.91 r13725"
   sodipodi:docname="valhalla-02.svg">
  <defs
     id="defs48748">
    <clipPath
       clipPathUnits="userSpaceOnUse"
       id="clipPath1755-8">
      <rect
         style="fill:#ffffff;fill-opacity:1;fill-rule:evenodd;stroke:#000000;stroke-width:1.875;stroke-linecap:round;stroke-linejoin:round;stroke-miterlimit:4;stroke-dasharray:none;stroke-opacity:1"
         id="rect1757-46"
         width="160.91911"
         height="73.499458"
         x="-66.708733"
         y="91.882065" />
    </clipPath>
    <inkscape:path-effect
       effect="spiro"
       id="path-effect2425-1"
       is_visible="true" />
  </defs>
  <sodipodi:namedview
     id="base"
     pagecolor="#ffffff"
     bordercolor="#666666"
     borderopacity="1.0"
     inkscape:pageopacity="0.0"
     inkscape:pageshadow="2"
     inkscape:zoom="5.8887376"
     inkscape:cx="92.953695"
     inkscape:cy="-38.522259"
     inkscape:document-units="mm"
     inkscape:current-layer="layer9"
     showgrid="false"
     fit-margin-top="0"
     fit-margin-left="0"
     fit-margin-right="0"
     fit-margin-bottom="0"
     inkscape:window-width="1920"
     inkscape:window-height="1031"
     inkscape:window-x="0"
     inkscape:window-y="27"
     inkscape:window-maximized="1" />
  <metadata
     id="metadata48751">
    <rdf:RDF>
      <cc:Work
         rdf:about="">
        <dc:format>image/svg+xml</dc:format>
        <dc:type
           rdf:resource="http://purl.org/dc/dcmitype/StillImage" />
        <dc:title />
      </cc:Work>
    </rdf:RDF>
  </metadata>
  <g
     inkscape:groupmode="layer"
     id="layer8"
     inkscape:label="color">
    <path
       style="fill:none;fill-opacity:1;fill-rule:evenodd;stroke:#009933;stroke-width:0.52939969;stroke-linecap:round;stroke-linejoin:round;stroke-miterlimit:4;stroke-dasharray:none;stroke-opacity:1"
       id="path2395-2"
       sodipodi:type="arc"
       sodipodi:cx="-13.925199"
       sodipodi:cy="18.270267"
       sodipodi:rx="1.166636"
       sodipodi:ry="1.0251534"
       sodipodi:start="0"
       sodipodi:end="2.1045045"
       sodipodi:open="true"
       d="m -12.758563,18.270267 a 1.166636,1.0251534 0 0 1 -0.588432,0.890389 1.166636,1.0251534 0 0 1 -1.171705,-0.0078"
       transform="matrix(-0.57381994,-0.81898149,0.84233124,-0.53896018,0,0)" />
    <path
       transform="matrix(-0.19367099,-0.98106654,0.98832712,-0.15234666,0,0)"
       d="M -5.5676231,23.486986 A 1.166636,1.0251534 0 0 1 -6.7041235,24.511797 1.166636,1.0251534 0 0 1 -7.8993382,23.53993"
       sodipodi:open="true"
       sodipodi:end="3.0899245"
       sodipodi:start="0"
       sodipodi:ry="1.0251534"
       sodipodi:rx="1.166636"
       sodipodi:cy="23.486986"
       sodipodi:cx="-6.7342591"
       sodipodi:type="arc"
       id="path2397-6"
       style="fill:none;fill-opacity:1;fill-rule:evenodd;stroke:#009933;stroke-width:0.52939975;stroke-linecap:round;stroke-linejoin:round;stroke-miterlimit:4;stroke-dasharray:none;stroke-opacity:1" />
    <path
       style="fill:none;fill-opacity:1;fill-rule:evenodd;stroke:#009933;stroke-width:0.52939969;stroke-linecap:round;stroke-linejoin:round;stroke-miterlimit:4;stroke-dasharray:none;stroke-opacity:1"
       id="path2399-9"
       sodipodi:type="arc"
       sodipodi:cx="9.9132271"
       sodipodi:cy="22.715197"
       sodipodi:rx="1.166636"
       sodipodi:ry="1.0251534"
       sodipodi:start="0.37471919"
       sodipodi:end="2.3723769"
       sodipodi:open="true"
       d="M 10.998911,23.090414 A 1.166636,1.0251534 0 0 1 10.141855,23.720472 1.166636,1.0251534 0 0 1 9.07505,23.428265"
       transform="matrix(0.54074547,-0.84118627,0.81776262,0.57555564,0,0)" />
    <path
       style="fill:none;fill-opacity:1;fill-rule:evenodd;stroke:#009933;stroke-width:0.52916664;stroke-linecap:round;stroke-linejoin:round;stroke-miterlimit:4;stroke-dasharray:none;stroke-opacity:1"
       id="path2401-0"
       sodipodi:type="arc"
       sodipodi:cx="28.116014"
       sodipodi:cy="2.7247694"
       sodipodi:rx="0.72302353"
       sodipodi:ry="0.72302353"
       sodipodi:start="2.1293957"
       sodipodi:end="2.1045006"
       sodipodi:open="true"
       d="m 27.732813,3.3378921 a 0.72302353,0.72302353 0 0 1 -0.232294,-0.9925012 0.72302353,0.72302353 0 0 1 0.991036,-0.2384666 0.72302353,0.72302353 0 0 1 0.24463,0.9895329 0.72302353,0.72302353 0 0 1 -0.987991,0.2507837" />
    <path
       d="m 31.323253,3.4858497 a 0.54226506,0.54226649 0 0 1 -0.17422,-0.7443743 0.54226506,0.54226649 0 0 1 0.743274,-0.1788496 0.54226506,0.54226649 0 0 1 0.183471,0.7421481 0.54226506,0.54226649 0 0 1 -0.740989,0.1880874"
       sodipodi:open="true"
       sodipodi:end="2.1045006"
       sodipodi:start="2.1293957"
       sodipodi:ry="0.54226649"
       sodipodi:rx="0.54226506"
       sodipodi:cy="3.0260086"
       sodipodi:cx="31.610653"
       sodipodi:type="arc"
       id="path2403-3"
       style="fill:none;fill-opacity:1;fill-rule:evenodd;stroke:#009933;stroke-width:0.52916664;stroke-linecap:round;stroke-linejoin:round;stroke-miterlimit:4;stroke-dasharray:none;stroke-opacity:1" />
    <path
       style="fill:none;fill-opacity:1;fill-rule:evenodd;stroke:#009933;stroke-width:0.52916664;stroke-linecap:round;stroke-linejoin:round;stroke-miterlimit:4;stroke-dasharray:none;stroke-opacity:1"
       id="path2405-5"
       sodipodi:type="arc"
       sodipodi:cx="34.773876"
       sodipodi:cy="4.2009239"
       sodipodi:rx="0.45188785"
       sodipodi:ry="0.45189011"
       sodipodi:start="2.1293957"
       sodipodi:end="2.1045006"
       sodipodi:open="true"
       d="M 34.534376,4.584126 A 0.45188785,0.45189011 0 0 1 34.389193,3.9638122 0.45188785,0.45189011 0 0 1 35.008588,3.8147704 0.45188785,0.45189011 0 0 1 35.161481,4.433229 0.45188785,0.45189011 0 0 1 34.543989,4.589969" />
  </g>
  <g
     inkscape:label="Layer 1"
     inkscape:groupmode="layer"
     id="layer1"
     transform="translate(-93.400443,-33.121547)">
    <rect
       y="33.375286"
       x="93.654182"
       height="5.6422815"
       width="45.524971"
       id="rect1994-6"
       style="color:#000000;clip-rule:nonzero;display:inline;overflow:visible;visibility:visible;opacity:1;isolation:auto;mix-blend-mode:normal;color-interpolation:sRGB;color-interpolation-filters:linearRGB;solid-color:#000000;solid-opacity:1;fill:none;fill-opacity:1;fill-rule:nonzero;stroke:#000000;stroke-width:0.50747889;stroke-linecap:round;stroke-linejoin:round;stroke-miterlimit:4;stroke-dasharray:none;stroke-dashoffset:0;stroke-opacity:1;color-rendering:auto;image-rendering:auto;shape-rendering:auto;text-rendering:auto;enable-background:accumulate" />
    <flowRoot
       transform="matrix(0.2822222,0,0,0.2822222,152.17498,2.5309714)"
       style="font-style:normal;font-weight:normal;line-height:0.01%;font-family:sans-serif;letter-spacing:0px;word-spacing:0px;fill:#000000;fill-opacity:1;stroke:none;stroke-width:0.625;stroke-linecap:butt;stroke-linejoin:miter;stroke-miterlimit:4;stroke-dasharray:none;stroke-opacity:1"
       id="flowRoot2345-9"
       xml:space="preserve"><flowRegion
         id="flowRegion2337-0"
         style="stroke-width:0.625;stroke-miterlimit:4;stroke-dasharray:none"><rect
           y="114.81785"
           x="-218.81346"
           height="9.8456984"
           width="104.48142"
           id="rect2335-0"
           style="stroke-width:0.625;stroke-miterlimit:4;stroke-dasharray:none" /></flowRegion><flowPara
         id="flowPara2343-2"
         style="font-style:normal;font-variant:normal;font-weight:normal;font-stretch:normal;font-size:7.5px;line-height:125%;font-family:'Ume P Gothic Vertical';-inkscape-font-specification:'Ume P Gothic Vertical, Normal';text-align:center;letter-spacing:0.75px;writing-mode:lr-tb;text-anchor:middle;stroke:#000000;stroke-width:0.625;stroke-linecap:round;stroke-linejoin:round;stroke-miterlimit:4;stroke-dasharray:none;stroke-opacity:1">UN   OU   DEUX</flowPara></flowRoot>    <flowRoot
       xml:space="preserve"
       id="flowRoot2413-5"
       style="font-style:normal;font-weight:normal;line-height:0.01%;font-family:sans-serif;letter-spacing:0px;word-spacing:0px;fill:#000000;fill-opacity:1;stroke:none;stroke-width:0.625;stroke-linecap:butt;stroke-linejoin:miter;stroke-miterlimit:4;stroke-dasharray:none;stroke-opacity:1"
       transform="matrix(0.27449301,-0.06559702,0.06559702,0.27449301,184.25415,-11.174496)"><flowRegion
         style="stroke-width:0.625;stroke-miterlimit:4;stroke-dasharray:none"
         id="flowRegion2409-8"><rect
           style="stroke-width:0.625;stroke-miterlimit:4;stroke-dasharray:none"
           id="rect2407-7"
           width="13.747648"
           height="10.059187"
           x="-218.81346"
           y="114.81785" /></flowRegion><flowPara
         style="font-style:normal;font-variant:normal;font-weight:normal;font-stretch:normal;font-size:7.5px;line-height:125%;font-family:'Ume P Gothic Vertical';-inkscape-font-specification:'Ume P Gothic Vertical, Normal';text-align:center;letter-spacing:0.75px;writing-mode:lr-tb;text-anchor:middle;stroke:#000000;stroke-width:0.625;stroke-linecap:round;stroke-linejoin:round;stroke-miterlimit:4;stroke-dasharray:none;stroke-opacity:1"
         id="flowPara2411-1">?</flowPara></flowRoot>    <path
       style="fill:none;stroke:#000000;stroke-width:0.3704167;stroke-linecap:round;stroke-linejoin:round;stroke-miterlimit:4;stroke-dasharray:none;stroke-opacity:1"
       d="M 131.75194,36.724253 131.58628,36.5473 c -0.0642,-0.06858 -0.1314,-0.134779 -0.20678,-0.190858 -0.0754,-0.05608 -0.15709,-0.103028 -0.2343,-0.156558 -0.13819,-0.09581 -0.26327,-0.220414 -0.32244,-0.37781 -0.0185,-0.04906 -0.0303,-0.101314 -0.0278,-0.153673 0.002,-0.05236 0.0201,-0.104947 0.0549,-0.144156 0.028,-0.03159 0.0664,-0.05347 0.10743,-0.06345 0.041,-0.01 0.0846,-0.0083 0.12532,0.0029 0.0814,0.02243 0.14918,0.08174 0.19582,0.152176 0.0466,0.07043 0.0742,0.151679 0.0963,0.233218 0.0221,0.08154 0.0392,0.164575 0.0674,0.244205 0.0642,0.181449 0.18322,0.338184 0.26298,0.513362 0.0175,0.03842 0.0331,0.0777 0.0467,0.117659 l 1.9e-4,-8.5e-5 z"
       id="path2423-4"
       inkscape:connector-curvature="0"
       inkscape:path-effect="#path-effect2425-1"
       inkscape:original-d="m 131.75194,36.724253 c 0,0 -0.11046,-0.117997 -0.16566,-0.176953 -0.0552,-0.05896 -0.31953,-0.275788 -0.44108,-0.347416 -0.1215,-0.0716 -0.18949,-0.2078 -0.32244,-0.37781 -0.13324,-0.169898 -0.0481,-0.206446 0.0271,-0.297829 0.0753,-0.09133 0.41791,0.335844 0.59221,0.569072 0.1743,0.233229 0.21836,0.393559 0.26298,0.513362 0.0447,0.119776 0.0467,0.117659 0.0467,0.117659 z"
       sodipodi:nodetypes="ccccccsc" />
  </g>
  <g
     inkscape:groupmode="layer"
     id="layer9"
     inkscape:label="vecto">
    <text
       xml:space="preserve"
       style="font-style:normal;font-variant:normal;font-weight:normal;font-stretch:normal;font-size:4.23333311px;line-height:125%;font-family:'Ume Mincho Balsa';-inkscape-font-specification:'Ume Mincho Balsa, Normal';text-align:start;letter-spacing:0px;word-spacing:0px;writing-mode:lr-tb;text-anchor:start;fill:#000000;fill-opacity:1;stroke:#000000;stroke-width:0.10583333;stroke-linecap:butt;stroke-linejoin:miter;stroke-miterlimit:4;stroke-dasharray:none;stroke-opacity:1"
       x="42.729271"
       y="4.7707639"
       id="text8209"
       sodipodi:linespacing="125%"><tspan
         sodipodi:role="line"
         id="tspan8211"
         x="42.729271"
         y="4.7707639"
         style="stroke-width:0.10583333">1</tspan></text>
  </g>
</svg>
