<?xml version="1.0" encoding="UTF-8" standalone="no"?>
<!-- Created with Inkscape (http://www.inkscape.org/) -->

<svg
   xmlns:dc="http://purl.org/dc/elements/1.1/"
   xmlns:cc="http://creativecommons.org/ns#"
   xmlns:rdf="http://www.w3.org/1999/02/22-rdf-syntax-ns#"
   xmlns:svg="http://www.w3.org/2000/svg"
   xmlns="http://www.w3.org/2000/svg"
   xmlns:sodipodi="http://sodipodi.sourceforge.net/DTD/sodipodi-0.dtd"
   xmlns:inkscape="http://www.inkscape.org/namespaces/inkscape"
   width="5.0799999mm"
   height="5.0781403mm"
   viewBox="0 0 18 17.99341"
   id="svg4436"
   version="1.1"
   inkscape:version="0.91 r13725"
   sodipodi:docname="icon-facebook.svg">
  <defs
     id="defs4438" />
  <sodipodi:namedview
     id="base"
     pagecolor="#ffffff"
     bordercolor="#666666"
     borderopacity="1.0"
     inkscape:pageopacity="0.0"
     inkscape:pageshadow="2"
     inkscape:zoom="2.8"
     inkscape:cx="-114.9562"
     inkscape:cy="22.506402"
     inkscape:document-units="px"
     inkscape:current-layer="layer1"
     showgrid="false"
     borderlayer="false"
     inkscape:showpageshadow="false"
     fit-margin-top="0"
     fit-margin-left="0"
     fit-margin-right="0"
     fit-margin-bottom="0"
     inkscape:window-width="1920"
     inkscape:window-height="1031"
     inkscape:window-x="0"
     inkscape:window-y="27"
     inkscape:window-maximized="1" />
  <metadata
     id="metadata4441">
    <rdf:RDF>
      <cc:Work
         rdf:about="">
        <dc:format>image/svg+xml</dc:format>
        <dc:type
           rdf:resource="http://purl.org/dc/dcmitype/StillImage" />
        <dc:title></dc:title>
      </cc:Work>
    </rdf:RDF>
  </metadata>
  <g
     inkscape:label="Layer 1"
     inkscape:groupmode="layer"
     id="layer1"
     transform="translate(292.72237,-415.65689)">
    <path
       style="fill:#000000"
       d="m -292.72237,433.6503 0,-17.99341 18,0 0,17.99341 -5.5604,0 0,-3.4754 0,-3.48928 1.16755,0 1.16755,0 0.0112,-0.0702 c 0.006,-0.0386 0.0824,-0.62575 0.16943,-1.30482 0.087,-0.67906 0.16306,-1.26202 0.16898,-1.29546 l 0.0108,-0.0608 -1.34873,0 -1.34873,0 0.006,-1.08969 0.006,-1.08968 0.0476,-0.15268 c 0.14392,-0.4612 0.44587,-0.66632 1.05505,-0.71674 0.12347,-0.0102 0.55069,-0.0187 0.94939,-0.0189 l 0.7249,-3.3e-4 0,-1.22532 c 0,-0.67392 -0.006,-1.22531 -0.0143,-1.22531 -0.008,0 -0.1615,-0.0124 -0.3414,-0.0276 -0.85897,-0.0725 -1.9313,-0.0896 -2.33173,-0.0371 -0.7308,0.0958 -1.31004,0.33695 -1.80904,0.75316 -0.49098,0.40951 -0.86405,1.06153 -1.01947,1.78173 -0.0945,0.43771 -0.1003,0.53512 -0.10965,1.82776 l -0.009,1.22063 -1.16739,0 -1.16739,0 0,1.36562 0,1.36561 1.16919,0 1.16919,0 0,3.48888 0,3.47587 z"
       id="path4395"
       inkscape:connector-curvature="0"
       sodipodi:nodetypes="ccccccccccsccccccssccssssssscccccccccc" />
  </g>
</svg>
