<?xml version="1.0" encoding="UTF-8" standalone="no"?>
<!-- Created with Inkscape (http://www.inkscape.org/) -->

<svg
   xmlns:dc="http://purl.org/dc/elements/1.1/"
   xmlns:cc="http://creativecommons.org/ns#"
   xmlns:rdf="http://www.w3.org/1999/02/22-rdf-syntax-ns#"
   xmlns:svg="http://www.w3.org/2000/svg"
   xmlns="http://www.w3.org/2000/svg"
   xmlns:sodipodi="http://sodipodi.sourceforge.net/DTD/sodipodi-0.dtd"
   xmlns:inkscape="http://www.inkscape.org/namespaces/inkscape"
   width="286"
   height="212.47348"
   viewBox="0 0 75.67083 56.216939"
   version="1.1"
   id="svg1691"
   inkscape:version="0.92.3 (2405546, 2018-03-11)"
   sodipodi:docname="tarif-plein.svg">
  <defs
     id="defs1685" />
  <sodipodi:namedview
     id="base"
     pagecolor="#ffffff"
     bordercolor="#666666"
     borderopacity="1.0"
     inkscape:pageopacity="0.0"
     inkscape:pageshadow="2"
     inkscape:zoom="2.1988683"
     inkscape:cx="69.602772"
     inkscape:cy="108.97633"
     inkscape:document-units="mm"
     inkscape:current-layer="layer1"
     showgrid="false"
     inkscape:showpageshadow="false"
     inkscape:snap-bbox="true"
     inkscape:snap-page="true"
     units="px"
     inkscape:window-width="1920"
     inkscape:window-height="1029"
     inkscape:window-x="0"
     inkscape:window-y="27"
     inkscape:window-maximized="1"
     showguides="true"
     inkscape:guide-bbox="true"
     fit-margin-top="0"
     fit-margin-left="0"
     fit-margin-right="0"
     fit-margin-bottom="0">
    <sodipodi:guide
       position="37.736953,28.51552"
       orientation="0,1"
       id="guide2583"
       inkscape:locked="false" />
  </sodipodi:namedview>
  <metadata
     id="metadata1688">
    <rdf:RDF>
      <cc:Work
         rdf:about="">
        <dc:format>image/svg+xml</dc:format>
        <dc:type
           rdf:resource="http://purl.org/dc/dcmitype/StillImage" />
        <dc:title />
      </cc:Work>
    </rdf:RDF>
  </metadata>
  <g
     inkscape:label="Layer 1"
     inkscape:groupmode="layer"
     id="layer1"
     transform="translate(32.207816,-264.7216)">
    <rect
       y="264.78775"
       x="7.4241357"
       height="56.084648"
       width="36.07127"
       id="rect4892"
       style="color:#000000;overflow:visible;fill:#000000;fill-opacity:1;stroke:#000000;stroke-width:0.13229167;stroke-linecap:square;stroke-linejoin:miter;stroke-miterlimit:4;stroke-dasharray:none" />
    <rect
       style="color:#000000;overflow:visible;fill:#000000;fill-opacity:1;stroke:#000000;stroke-width:0.13229166;stroke-linecap:square;stroke-linejoin:miter;stroke-miterlimit:4;stroke-dasharray:none"
       id="rect2236"
       width="35.589962"
       height="56.084648"
       x="-32.14167"
       y="264.78775" />
    <g
       aria-label="TARIF PLEIN"
       transform="matrix(0.30574605,0,0,0.30644881,255.65558,218.55794)"
       style="font-style:normal;font-variant:normal;font-weight:normal;font-stretch:normal;font-size:12px;line-height:125%;font-family:'Ume P Gothic Vertical';-inkscape-font-specification:'Ume P Gothic Vertical, Normal';font-variant-ligatures:normal;font-variant-caps:normal;font-variant-numeric:normal;font-feature-settings:normal;text-align:center;letter-spacing:0px;word-spacing:0px;writing-mode:lr-tb;text-anchor:middle;display:inline;fill:#ffffff;fill-opacity:1;stroke:none;stroke-width:0.8643772px;stroke-linecap:butt;stroke-linejoin:miter;stroke-opacity:1"
       id="flowRoot1665-8-3">
      <path
         d="m -904.69531,188.49609 v -1.84375 h -8.90625 v 1.84375 h 3.5 v 11.0625 h 1.90625 v -11.0625 z"
         style="font-style:normal;font-variant:normal;font-weight:normal;font-stretch:normal;font-size:16px;line-height:100%;font-family:'Ume P Gothic Balsa-bold';-inkscape-font-specification:'Ume P Gothic Balsa-bold, Normal';font-variant-ligatures:normal;font-variant-caps:normal;font-variant-numeric:normal;font-feature-settings:normal;text-align:center;writing-mode:lr-tb;text-anchor:middle;fill:#ffffff;stroke:none;stroke-width:0.8643772px"
         id="path2670"
         inkscape:connector-curvature="0" />
      <path
         d="m -904.30469,199.55859 h 2.07032 l 1.22656,-4.1875 h 3.29687 l 1.20313,4.1875 h 2.13281 l -3.92187,-12.90625 h -2.01563 z m 4.96485,-9.86328 1.10156,3.83203 h -2.22656 z"
         style="font-style:normal;font-variant:normal;font-weight:normal;font-stretch:normal;font-size:16px;line-height:100%;font-family:'Ume P Gothic Balsa-bold';-inkscape-font-specification:'Ume P Gothic Balsa-bold, Normal';font-variant-ligatures:normal;font-variant-caps:normal;font-variant-numeric:normal;font-feature-settings:normal;text-align:center;writing-mode:lr-tb;text-anchor:middle;fill:#ffffff;stroke:none;stroke-width:0.8643772px"
         id="path2672"
         inkscape:connector-curvature="0" />
      <path
         d="m -884.34766,199.55859 -3.55468,-6.125 c 0.71093,-0.14062 1.30468,-0.39843 1.77343,-0.76953 0.39454,-0.30859 0.6875,-0.68359 0.88672,-1.1289 0.19532,-0.44141 0.29688,-0.9375 0.29688,-1.49219 0,-0.55078 -0.10156,-1.04297 -0.30078,-1.48047 -0.19922,-0.43359 -0.4961,-0.79688 -0.89453,-1.08203 -0.38282,-0.28125 -0.84375,-0.48828 -1.37891,-0.625 -0.53125,-0.13281 -1.13672,-0.20313 -1.81641,-0.20313 h -4.07812 v 12.90625 h 1.96875 v -6 h 1.48047 l 3.26953,6 z m -7.09765,-7.84375 v -3.21875 h 2.10937 c 0.46485,0 0.86328,0.0391 1.19532,0.10938 0.32812,0.0703 0.58593,0.16797 0.76953,0.29297 0.0703,0.0469 0.1289,0.0977 0.18359,0.15234 0.0547,0.0547 0.10156,0.11719 0.14453,0.18359 0.043,0.0703 0.0781,0.14454 0.10547,0.22657 0.0273,0.0781 0.0469,0.16797 0.0625,0.26562 0.0156,0.0977 0.0234,0.20313 0.0234,0.31641 0,0.28515 -0.0469,0.52344 -0.13281,0.71875 -0.0898,0.19922 -0.22266,0.36719 -0.40625,0.5039 -0.11719,0.0937 -0.26563,0.17188 -0.44532,0.23829 -0.17578,0.0664 -0.39453,0.11718 -0.64843,0.15625 -0.25782,0.0391 -0.54297,0.0547 -0.85157,0.0547 z"
         style="font-style:normal;font-variant:normal;font-weight:normal;font-stretch:normal;font-size:16px;line-height:100%;font-family:'Ume P Gothic Balsa-bold';-inkscape-font-specification:'Ume P Gothic Balsa-bold, Normal';font-variant-ligatures:normal;font-variant-caps:normal;font-variant-numeric:normal;font-feature-settings:normal;text-align:center;writing-mode:lr-tb;text-anchor:middle;fill:#ffffff;stroke:none;stroke-width:0.8643772px"
         id="path2674"
         inkscape:connector-curvature="0" />
      <path
         d="m -880.32031,199.55859 v -1.84375 h -1.0625 v -9.28125 h 1.0625 v -1.78125 h -4.03125 v 1.78125 h 1.0625 v 9.28125 h -1.0625 v 1.84375 z"
         style="font-style:normal;font-variant:normal;font-weight:normal;font-stretch:normal;font-size:16px;line-height:100%;font-family:'Ume P Gothic Balsa-bold';-inkscape-font-specification:'Ume P Gothic Balsa-bold, Normal';font-variant-ligatures:normal;font-variant-caps:normal;font-variant-numeric:normal;font-feature-settings:normal;text-align:center;writing-mode:lr-tb;text-anchor:middle;fill:#ffffff;stroke:none;stroke-width:0.8643772px"
         id="path2676"
         inkscape:connector-curvature="0" />
      <path
         d="m -872.13281,188.55859 v -1.90625 h -7.34375 v 12.90625 h 1.90625 v -6 h 4.25 v -1.84375 h -4.25 v -3.15625 z"
         style="font-style:normal;font-variant:normal;font-weight:normal;font-stretch:normal;font-size:16px;line-height:100%;font-family:'Ume P Gothic Balsa-bold';-inkscape-font-specification:'Ume P Gothic Balsa-bold, Normal';font-variant-ligatures:normal;font-variant-caps:normal;font-variant-numeric:normal;font-feature-settings:normal;text-align:center;writing-mode:lr-tb;text-anchor:middle;fill:#ffffff;stroke:none;stroke-width:0.8643772px"
         id="path2678"
         inkscape:connector-curvature="0" />
      <path
         d="m -912.69531,203.58984 v 12.90625 h 1.96875 v -6 h 2.10937 c 1.37891,0 2.44922,-0.29687 3.20703,-0.89453 0.39454,-0.30859 0.6875,-0.68359 0.88672,-1.1289 0.19532,-0.44141 0.29297,-0.9375 0.29297,-1.49219 0,-0.55078 -0.0977,-1.04297 -0.29687,-1.48047 -0.19922,-0.43359 -0.4961,-0.79688 -0.89453,-1.08203 -0.38282,-0.28125 -0.84375,-0.48828 -1.37891,-0.625 -0.53125,-0.13281 -1.13672,-0.20313 -1.81641,-0.20313 z m 1.96875,5.0625 v -3.21875 h 2.10937 c 0.46485,0 0.86328,0.0391 1.19532,0.10938 0.32812,0.0703 0.58593,0.16797 0.76953,0.29297 0.0703,0.0469 0.1289,0.0977 0.18359,0.15234 0.0547,0.0547 0.10156,0.11719 0.14453,0.18359 0.043,0.0703 0.0781,0.14454 0.10547,0.22657 0.0273,0.0781 0.0469,0.16797 0.0625,0.26562 0.0156,0.0977 0.0234,0.20313 0.0234,0.31641 0,0.28515 -0.0469,0.52344 -0.13281,0.71875 -0.0898,0.19922 -0.22266,0.36719 -0.40625,0.5039 -0.11719,0.0937 -0.26563,0.17188 -0.44532,0.23829 -0.17578,0.0664 -0.39453,0.11718 -0.64843,0.15625 -0.25782,0.0391 -0.54297,0.0547 -0.85157,0.0547 z"
         style="font-style:normal;font-variant:normal;font-weight:normal;font-stretch:normal;font-size:16px;line-height:100%;font-family:'Ume P Gothic Balsa-bold';-inkscape-font-specification:'Ume P Gothic Balsa-bold, Normal';font-variant-ligatures:normal;font-variant-caps:normal;font-variant-numeric:normal;font-feature-settings:normal;text-align:center;writing-mode:lr-tb;text-anchor:middle;fill:#ffffff;stroke:none;stroke-width:0.8643772px"
         id="path2680"
         inkscape:connector-curvature="0" />
      <path
         d="m -895.91406,216.49609 v -1.84375 h -5 v -11.0625 h -1.90625 v 12.90625 z"
         style="font-style:normal;font-variant:normal;font-weight:normal;font-stretch:normal;font-size:16px;line-height:100%;font-family:'Ume P Gothic Balsa-bold';-inkscape-font-specification:'Ume P Gothic Balsa-bold, Normal';font-variant-ligatures:normal;font-variant-caps:normal;font-variant-numeric:normal;font-feature-settings:normal;text-align:center;writing-mode:lr-tb;text-anchor:middle;fill:#ffffff;stroke:none;stroke-width:0.8643772px"
         id="path2682"
         inkscape:connector-curvature="0" />
      <path
         d="m -886.85156,216.49609 v -1.96875 h -5.4375 v -4.03125 h 4.8125 v -1.84375 h -4.8125 v -3.15625 h 5.4375 v -1.90625 h -7.34375 v 12.90625 z"
         style="font-style:normal;font-variant:normal;font-weight:normal;font-stretch:normal;font-size:16px;line-height:100%;font-family:'Ume P Gothic Balsa-bold';-inkscape-font-specification:'Ume P Gothic Balsa-bold, Normal';font-variant-ligatures:normal;font-variant-caps:normal;font-variant-numeric:normal;font-feature-settings:normal;text-align:center;writing-mode:lr-tb;text-anchor:middle;fill:#ffffff;stroke:none;stroke-width:0.8643772px"
         id="path2684"
         inkscape:connector-curvature="0" />
      <path
         d="m -882.03906,216.49609 v -1.84375 h -1.0625 v -9.28125 h 1.0625 v -1.78125 h -4.03125 v 1.78125 h 1.0625 v 9.28125 h -1.0625 v 1.84375 z"
         style="font-style:normal;font-variant:normal;font-weight:normal;font-stretch:normal;font-size:16px;line-height:100%;font-family:'Ume P Gothic Balsa-bold';-inkscape-font-specification:'Ume P Gothic Balsa-bold, Normal';font-variant-ligatures:normal;font-variant-caps:normal;font-variant-numeric:normal;font-feature-settings:normal;text-align:center;writing-mode:lr-tb;text-anchor:middle;fill:#ffffff;stroke:none;stroke-width:0.8643772px"
         id="path2686"
         inkscape:connector-curvature="0" />
      <path
         d="m -872.72656,216.49609 v -12.90625 h -1.90625 v 9.32422 l -4.36328,-9.32422 h -2.19922 v 12.90625 h 1.90625 v -9.09765 l 4.16797,9.09765 z"
         style="font-style:normal;font-variant:normal;font-weight:normal;font-stretch:normal;font-size:16px;line-height:100%;font-family:'Ume P Gothic Balsa-bold';-inkscape-font-specification:'Ume P Gothic Balsa-bold, Normal';font-variant-ligatures:normal;font-variant-caps:normal;font-variant-numeric:normal;font-feature-settings:normal;text-align:center;writing-mode:lr-tb;text-anchor:middle;fill:#ffffff;stroke:none;stroke-width:0.8643772px"
         id="path2688"
         inkscape:connector-curvature="0" />
    </g>
    <g
       aria-label="15 "
       transform="matrix(0.53677664,0,0,1.1270017,469.15267,315.48952)"
       style="font-style:normal;font-variant:normal;font-weight:normal;font-stretch:normal;font-size:12px;line-height:125%;font-family:'Ume Mincho Balsa';-inkscape-font-specification:'Ume Mincho Balsa, Normal';font-variant-ligatures:normal;font-variant-caps:normal;font-variant-numeric:normal;font-feature-settings:normal;text-align:center;letter-spacing:0px;word-spacing:0px;writing-mode:lr-tb;text-anchor:middle;display:inline;fill:#ffffff;fill-opacity:1;stroke:#ffffff;stroke-width:0.05102639;stroke-linecap:butt;stroke-linejoin:miter;stroke-miterlimit:4;stroke-dasharray:none;stroke-opacity:1"
       id="flowRoot27457-6-6">
      <path
         d="m -914.76953,-14.152344 h 1.5625 v 0.375 h -4 v -0.375 h 1.5625 v -1.0625 -0.25 -8.125 l -1.5625,0.3125 v -0.375 l 2.125,-0.8125 h 0.3125 v 9 0.25 z"
         style="font-size:16px;fill:#ffffff;stroke:#ffffff;stroke-width:0.05102639;stroke-miterlimit:4;stroke-dasharray:none"
         id="path2665"
         inkscape:connector-curvature="0" />
      <path
         d="m -909.70703,-24.464844 h 5.5625 l -0.1875,0.875 h -4.8125 l -0.3125,4 q 0.625,-0.5625 1.125,-0.78125 0.5,-0.21875 1.0625,-0.21875 1.25,0 2.21875,0.84375 0.96875,0.84375 0.96875,2.59375 0,1.5625 -0.90625,2.5 -0.90625,0.9375 -2.40625,0.9375 -1.375,0 -2.34375,-0.78125 -0.96875,-0.78125 -0.96875,-1.59375 0,-0.375 0.1875,-0.59375 0.1875,-0.21875 0.5625,-0.28125 0.375,0 0.59375,0.1875 0.21875,0.1875 0.21875,0.5625 0,0.375 -0.4375,0.6875 0.125,0.5 0.65625,0.875 0.53125,0.375 1.53125,0.375 0.9375,0 1.59375,-0.75 0.65625,-0.75 0.65625,-2.1875 0,-1.375 -0.59375,-2.09375 -0.59375,-0.71875 -1.53125,-0.71875 -0.5,0 -1,0.28125 -0.5,0.28125 -1.0625,0.96875 l -0.8125,-0.0625 z"
         style="font-size:16px;fill:#ffffff;stroke:#ffffff;stroke-width:0.05102639;stroke-miterlimit:4;stroke-dasharray:none"
         id="path2667"
         inkscape:connector-curvature="0" />
    </g>
    <g
       aria-label="€"
       transform="matrix(0.50218412,0,0,1.0543722,446.75728,316.07354)"
       style="font-style:normal;font-variant:normal;font-weight:normal;font-stretch:normal;font-size:12px;line-height:125%;font-family:'Ume Mincho Balsa';-inkscape-font-specification:'Ume Mincho Balsa, Normal';font-variant-ligatures:normal;font-variant-caps:normal;font-variant-numeric:normal;font-feature-settings:normal;text-align:center;letter-spacing:0px;word-spacing:0px;writing-mode:lr-tb;text-anchor:middle;display:inline;fill:#ffffff;fill-opacity:1;stroke:#ffffff;stroke-width:0;stroke-linecap:butt;stroke-linejoin:miter;stroke-miterlimit:4;stroke-dasharray:none;stroke-opacity:1"
       id="flowRoot2293-5-7">
      <path
         d="m -907.24607,-25.66802 v 1.66407 q -0.71095,-0.820316 -1.37501,-1.17188 -0.65625,-0.351564 -1.45313,-0.351564 -1.22657,0 -2.01564,0.781253 -0.78906,0.781254 -1.03907,2.242199 h 4.50784 l -0.42969,0.960942 h -4.20315 q -0.0156,0.1875 -0.0234,0.367189 0,0.179688 0,0.453127 0,0.250001 0,0.42969 0.008,0.179688 0.0234,0.367189 h 3.4844 l -0.43751,0.960942 h -2.92189 q 0.25001,1.460944 1.03907,2.250011 0.78907,0.789066 2.01564,0.789066 0.79688,0 1.45313,-0.351564 0.66406,-0.351564 1.37501,-1.171881 v 1.648445 q -0.69532,0.562503 -1.42189,0.843754 -0.71875,0.281252 -1.46875,0.281252 -1.85157,0 -3.06252,-1.132818 -1.20313,-1.132818 -1.51563,-3.156265 h -1.64845 l 0.42969,-0.960942 h 1.08595 q 0,-0.179689 -0.008,-0.359377 0,-0.187501 0,-0.437502 0,-0.273439 0,-0.453127 0.008,-0.187501 0.008,-0.367189 h -1.51564 l 0.42969,-0.960942 h 1.21876 q 0.3125,-2.007823 1.52344,-3.14064 1.21095,-1.132818 3.05471,-1.132818 0.76563,0 1.48438,0.281251 0.72656,0.273439 1.40626,0.828129 z"
         style="font-style:normal;font-variant:normal;font-weight:normal;font-stretch:normal;font-size:16.00007629px;font-family:'Ume P Gothic Balsa-bold';-inkscape-font-specification:'Ume P Gothic Balsa-bold, Normal';font-variant-ligatures:normal;font-variant-caps:normal;font-variant-numeric:normal;font-feature-settings:normal;text-align:center;writing-mode:lr-tb;text-anchor:middle;fill:#ffffff;stroke:#ffffff;stroke-width:0;stroke-miterlimit:4;stroke-dasharray:none"
         id="path2662"
         inkscape:connector-curvature="0" />
    </g>
    <g
       aria-label="PRÉVENTE"
       transform="matrix(0.30574605,0,0,0.30644881,296.79715,219.17635)"
       style="font-style:normal;font-variant:normal;font-weight:normal;font-stretch:normal;font-size:12px;line-height:125%;font-family:'Ume P Gothic Vertical';-inkscape-font-specification:'Ume P Gothic Vertical, Normal';font-variant-ligatures:normal;font-variant-caps:normal;font-variant-numeric:normal;font-feature-settings:normal;text-align:center;letter-spacing:0px;word-spacing:0px;writing-mode:lr-tb;text-anchor:middle;display:inline;fill:none;fill-opacity:1;stroke:#ffffff;stroke-width:0.8643772px;stroke-linecap:butt;stroke-linejoin:miter;stroke-opacity:1"
       id="flowRoot2563">
      <path
         d="m -930.25781,186.65234 v 12.90625 h 1.96875 v -6 h 2.10937 c 1.37891,0 2.44922,-0.29687 3.20703,-0.89453 0.39454,-0.30859 0.6875,-0.68359 0.88672,-1.1289 0.19532,-0.44141 0.29297,-0.9375 0.29297,-1.49219 0,-0.55078 -0.0977,-1.04297 -0.29687,-1.48047 -0.19922,-0.43359 -0.4961,-0.79688 -0.89453,-1.08203 -0.38282,-0.28125 -0.84375,-0.48828 -1.37891,-0.625 -0.53125,-0.13281 -1.13672,-0.20313 -1.81641,-0.20313 z m 1.96875,5.0625 v -3.21875 h 2.10937 c 0.46485,0 0.86328,0.0391 1.19532,0.10938 0.32812,0.0703 0.58593,0.16797 0.76953,0.29297 0.0703,0.0469 0.1289,0.0977 0.18359,0.15234 0.0547,0.0547 0.10156,0.11719 0.14453,0.18359 0.043,0.0703 0.0781,0.14454 0.10547,0.22657 0.0273,0.0781 0.0469,0.16797 0.0625,0.26562 0.0156,0.0977 0.0234,0.20313 0.0234,0.31641 0,0.28515 -0.0469,0.52344 -0.13281,0.71875 -0.0898,0.19922 -0.22266,0.36719 -0.40625,0.5039 -0.11719,0.0937 -0.26563,0.17188 -0.44532,0.23829 -0.17578,0.0664 -0.39453,0.11718 -0.64843,0.15625 -0.25782,0.0391 -0.54297,0.0547 -0.85157,0.0547 z"
         style="font-style:normal;font-variant:normal;font-weight:normal;font-stretch:normal;font-size:16px;line-height:100%;font-family:'Ume P Gothic Balsa-bold';-inkscape-font-specification:'Ume P Gothic Balsa-bold, Normal';font-variant-ligatures:normal;font-variant-caps:normal;font-variant-numeric:normal;font-feature-settings:normal;text-align:center;writing-mode:lr-tb;text-anchor:middle;fill:none;stroke:#ffffff;stroke-width:0.8643772px"
         id="path2645"
         inkscape:connector-curvature="0" />
      <path
         d="m -911.31641,199.55859 -3.55468,-6.125 c 0.71093,-0.14062 1.30468,-0.39843 1.77343,-0.76953 0.39454,-0.30859 0.6875,-0.68359 0.88672,-1.1289 0.19532,-0.44141 0.29688,-0.9375 0.29688,-1.49219 0,-0.55078 -0.10156,-1.04297 -0.30078,-1.48047 -0.19922,-0.43359 -0.4961,-0.79688 -0.89453,-1.08203 -0.38282,-0.28125 -0.84375,-0.48828 -1.37891,-0.625 -0.53125,-0.13281 -1.13672,-0.20313 -1.81641,-0.20313 h -4.07812 v 12.90625 h 1.96875 v -6 h 1.48047 l 3.26953,6 z m -7.09765,-7.84375 v -3.21875 h 2.10937 c 0.46485,0 0.86328,0.0391 1.19532,0.10938 0.32812,0.0703 0.58593,0.16797 0.76953,0.29297 0.0703,0.0469 0.1289,0.0977 0.18359,0.15234 0.0547,0.0547 0.10156,0.11719 0.14453,0.18359 0.043,0.0703 0.0781,0.14454 0.10547,0.22657 0.0273,0.0781 0.0469,0.16797 0.0625,0.26562 0.0156,0.0977 0.0234,0.20313 0.0234,0.31641 0,0.28515 -0.0469,0.52344 -0.13281,0.71875 -0.0898,0.19922 -0.22266,0.36719 -0.40625,0.5039 -0.11719,0.0937 -0.26563,0.17188 -0.44532,0.23829 -0.17578,0.0664 -0.39453,0.11718 -0.64843,0.15625 -0.25782,0.0391 -0.54297,0.0547 -0.85157,0.0547 z"
         style="font-style:normal;font-variant:normal;font-weight:normal;font-stretch:normal;font-size:16px;line-height:100%;font-family:'Ume P Gothic Balsa-bold';-inkscape-font-specification:'Ume P Gothic Balsa-bold, Normal';font-variant-ligatures:normal;font-variant-caps:normal;font-variant-numeric:normal;font-feature-settings:normal;text-align:center;writing-mode:lr-tb;text-anchor:middle;fill:none;stroke:#ffffff;stroke-width:0.8643772px"
         id="path2647"
         inkscape:connector-curvature="0" />
      <path
         d="m -903.57812,184.96484 h -3.5 l -2.64454,3.96875 h 2.33204 z m 0.97656,4.625 h -8.28125 v 9.96875 h 8.28125 v -1.84375 h -6 v -2.40625 h 5 v -1.84375 h -5 v -1.96875 h 6 z"
         style="font-style:normal;font-variant:normal;font-weight:normal;font-stretch:normal;font-size:16px;line-height:100%;font-family:'Ume P Gothic Balsa-bold';-inkscape-font-specification:'Ume P Gothic Balsa-bold, Normal';font-variant-ligatures:normal;font-variant-caps:normal;font-variant-numeric:normal;font-feature-settings:normal;text-align:center;writing-mode:lr-tb;text-anchor:middle;fill:none;stroke:#ffffff;stroke-width:0.8643772px"
         id="path2649"
         inkscape:connector-curvature="0" />
      <path
         d="m -892.09375,186.65234 h -2.06641 l -2.95703,10 -2.89453,-10 h -2.07031 l 3.85937,12.90625 h 2.26954 z"
         style="font-style:normal;font-variant:normal;font-weight:normal;font-stretch:normal;font-size:16px;line-height:100%;font-family:'Ume P Gothic Balsa-bold';-inkscape-font-specification:'Ume P Gothic Balsa-bold, Normal';font-variant-ligatures:normal;font-variant-caps:normal;font-variant-numeric:normal;font-feature-settings:normal;text-align:center;writing-mode:lr-tb;text-anchor:middle;fill:none;stroke:#ffffff;stroke-width:0.8643772px"
         id="path2651"
         inkscape:connector-curvature="0" />
      <path
         d="m -883.85156,199.55859 v -1.96875 h -5.4375 v -4.03125 h 4.8125 v -1.84375 h -4.8125 v -3.15625 h 5.4375 v -1.90625 h -7.34375 v 12.90625 z"
         style="font-style:normal;font-variant:normal;font-weight:normal;font-stretch:normal;font-size:16px;line-height:100%;font-family:'Ume P Gothic Balsa-bold';-inkscape-font-specification:'Ume P Gothic Balsa-bold, Normal';font-variant-ligatures:normal;font-variant-caps:normal;font-variant-numeric:normal;font-feature-settings:normal;text-align:center;writing-mode:lr-tb;text-anchor:middle;fill:none;stroke:#ffffff;stroke-width:0.8643772px"
         id="path2653"
         inkscape:connector-curvature="0" />
      <path
         d="m -873.66406,199.55859 v -12.90625 h -1.90625 v 9.32422 l -4.36328,-9.32422 h -2.19922 v 12.90625 h 1.90625 v -9.09765 l 4.16797,9.09765 z"
         style="font-style:normal;font-variant:normal;font-weight:normal;font-stretch:normal;font-size:16px;line-height:100%;font-family:'Ume P Gothic Balsa-bold';-inkscape-font-specification:'Ume P Gothic Balsa-bold, Normal';font-variant-ligatures:normal;font-variant-caps:normal;font-variant-numeric:normal;font-feature-settings:normal;text-align:center;writing-mode:lr-tb;text-anchor:middle;fill:none;stroke:#ffffff;stroke-width:0.8643772px"
         id="path2655"
         inkscape:connector-curvature="0" />
      <path
         d="m -863.60156,188.49609 v -1.84375 h -8.90625 v 1.84375 h 3.5 v 11.0625 h 1.90625 v -11.0625 z"
         style="font-style:normal;font-variant:normal;font-weight:normal;font-stretch:normal;font-size:16px;line-height:100%;font-family:'Ume P Gothic Balsa-bold';-inkscape-font-specification:'Ume P Gothic Balsa-bold, Normal';font-variant-ligatures:normal;font-variant-caps:normal;font-variant-numeric:normal;font-feature-settings:normal;text-align:center;writing-mode:lr-tb;text-anchor:middle;fill:none;stroke:#ffffff;stroke-width:0.8643772px"
         id="path2657"
         inkscape:connector-curvature="0" />
      <path
         d="m -855.10156,199.55859 v -1.96875 h -5.4375 v -4.03125 h 4.8125 v -1.84375 h -4.8125 v -3.15625 h 5.4375 v -1.90625 h -7.34375 v 12.90625 z"
         style="font-style:normal;font-variant:normal;font-weight:normal;font-stretch:normal;font-size:16px;line-height:100%;font-family:'Ume P Gothic Balsa-bold';-inkscape-font-specification:'Ume P Gothic Balsa-bold, Normal';font-variant-ligatures:normal;font-variant-caps:normal;font-variant-numeric:normal;font-feature-settings:normal;text-align:center;writing-mode:lr-tb;text-anchor:middle;fill:none;stroke:#ffffff;stroke-width:0.8643772px"
         id="path2659"
         inkscape:connector-curvature="0" />
    </g>
    <g
       aria-label="12 "
       transform="matrix(0.53677664,0,0,1.1270017,504.47336,311.25616)"
       style="font-style:normal;font-variant:normal;font-weight:normal;font-stretch:normal;font-size:12px;line-height:125%;font-family:'Ume Mincho Balsa';-inkscape-font-specification:'Ume Mincho Balsa, Normal';font-variant-ligatures:normal;font-variant-caps:normal;font-variant-numeric:normal;font-feature-settings:normal;text-align:center;letter-spacing:0px;word-spacing:0px;writing-mode:lr-tb;text-anchor:middle;display:inline;fill:#ffffff;fill-opacity:1;stroke:#ffffff;stroke-width:0.05102639;stroke-linecap:butt;stroke-linejoin:miter;stroke-miterlimit:4;stroke-dasharray:none;stroke-opacity:1"
       id="flowRoot2571">
      <path
         d="m -914.76953,-14.152344 h 1.5625 v 0.375 h -4 v -0.375 h 1.5625 v -1.0625 -0.25 -8.125 l -1.5625,0.3125 v -0.375 l 2.125,-0.8125 h 0.3125 v 9 0.25 z"
         style="font-size:16px;fill:#ffffff;stroke:#ffffff;stroke-width:0.05102639;stroke-miterlimit:4;stroke-dasharray:none"
         id="path2640"
         inkscape:connector-curvature="0" />
      <path
         d="m -907.51953,-24.464844 q 1.5,0 2.4375,0.75 0.9375,0.75 0.9375,2.3125 0,1.3125 -2.125,3.1875 -3.125,2.75 -3.125,3.5 h 4.375 l 0.8125,-1.875 h 0.375 l -0.375,2.8125 h -6.25 v -0.5625 q 0,-1.25 3.375,-4.25 1.875,-1.625 1.875,-2.8125 0,-1.375 -0.6875,-2 -0.6875,-0.625 -1.625,-0.625 -0.6875,0 -1.21875,0.4375 -0.53125,0.4375 -0.71875,1.0625 0.5625,0.5 0.34375,0.90625 -0.21875,0.40625 -0.65625,0.40625 -0.25,-0.0625 -0.4375,-0.21875 -0.1875,-0.15625 -0.25,-0.46875 0,-1 0.78125,-1.78125 0.78125,-0.78125 2.15625,-0.78125 z"
         style="font-size:16px;fill:#ffffff;stroke:#ffffff;stroke-width:0.05102639;stroke-miterlimit:4;stroke-dasharray:none"
         id="path2642"
         inkscape:connector-curvature="0" />
    </g>
    <g
       aria-label="€"
       transform="matrix(0.50218412,0,0,1.0543722,482.078,311.84018)"
       style="font-style:normal;font-variant:normal;font-weight:normal;font-stretch:normal;font-size:12px;line-height:125%;font-family:'Ume Mincho Balsa';-inkscape-font-specification:'Ume Mincho Balsa, Normal';font-variant-ligatures:normal;font-variant-caps:normal;font-variant-numeric:normal;font-feature-settings:normal;text-align:center;letter-spacing:0px;word-spacing:0px;writing-mode:lr-tb;text-anchor:middle;display:inline;fill:#ffffff;fill-opacity:1;stroke:#ffffff;stroke-width:0;stroke-linecap:butt;stroke-linejoin:miter;stroke-miterlimit:4;stroke-dasharray:none;stroke-opacity:1"
       id="flowRoot2581">
      <path
         d="m -907.24607,-25.66802 v 1.66407 q -0.71095,-0.820316 -1.37501,-1.17188 -0.65625,-0.351564 -1.45313,-0.351564 -1.22657,0 -2.01564,0.781253 -0.78906,0.781254 -1.03907,2.242199 h 4.50784 l -0.42969,0.960942 h -4.20315 q -0.0156,0.1875 -0.0234,0.367189 0,0.179688 0,0.453127 0,0.250001 0,0.42969 0.008,0.179688 0.0234,0.367189 h 3.4844 l -0.43751,0.960942 h -2.92189 q 0.25001,1.460944 1.03907,2.250011 0.78907,0.789066 2.01564,0.789066 0.79688,0 1.45313,-0.351564 0.66406,-0.351564 1.37501,-1.171881 v 1.648445 q -0.69532,0.562503 -1.42189,0.843754 -0.71875,0.281252 -1.46875,0.281252 -1.85157,0 -3.06252,-1.132818 -1.20313,-1.132818 -1.51563,-3.156265 h -1.64845 l 0.42969,-0.960942 h 1.08595 q 0,-0.179689 -0.008,-0.359377 0,-0.187501 0,-0.437502 0,-0.273439 0,-0.453127 0.008,-0.187501 0.008,-0.367189 h -1.51564 l 0.42969,-0.960942 h 1.21876 q 0.3125,-2.007823 1.52344,-3.14064 1.21095,-1.132818 3.05471,-1.132818 0.76563,0 1.48438,0.281251 0.72656,0.273439 1.40626,0.828129 z"
         style="font-style:normal;font-variant:normal;font-weight:normal;font-stretch:normal;font-size:16.00007629px;font-family:'Ume P Gothic Balsa-bold';-inkscape-font-specification:'Ume P Gothic Balsa-bold, Normal';font-variant-ligatures:normal;font-variant-caps:normal;font-variant-numeric:normal;font-feature-settings:normal;text-align:center;writing-mode:lr-tb;text-anchor:middle;fill:#ffffff;stroke:#ffffff;stroke-width:0;stroke-miterlimit:4;stroke-dasharray:none"
         id="path2637"
         inkscape:connector-curvature="0" />
    </g>
  </g>
  <g
     inkscape:groupmode="layer"
     id="layer2"
     inkscape:label="txt"
     style="display:none"
     sodipodi:insensitive="true"
     transform="translate(32.207816,22.488825)">
    <flowRoot
       xml:space="preserve"
       id="flowRoot1665-8"
       style="font-style:normal;font-variant:normal;font-weight:normal;font-stretch:normal;font-size:12px;line-height:125%;font-family:'Ume P Gothic Vertical';-inkscape-font-specification:'Ume P Gothic Vertical, Normal';font-variant-ligatures:normal;font-variant-caps:normal;font-variant-numeric:normal;font-feature-settings:normal;text-align:center;letter-spacing:0px;word-spacing:0px;writing-mode:lr-tb;text-anchor:middle;display:inline;fill:#000000;fill-opacity:1;stroke:none;stroke-width:7.90612268px;stroke-linecap:butt;stroke-linejoin:miter;stroke-opacity:1"
       transform="matrix(0.03350781,0,0,0.03342353,36.536487,-2.64562)"><flowRegion
         id="flowRegion1667-5"
         style="font-style:normal;font-variant:normal;font-weight:normal;font-stretch:normal;font-size:12px;font-family:'Ume P Gothic Vertical';-inkscape-font-specification:'Ume P Gothic Vertical, Normal';font-variant-ligatures:normal;font-variant-caps:normal;font-variant-numeric:normal;font-feature-settings:normal;text-align:center;writing-mode:lr-tb;text-anchor:middle;fill:#000000;stroke-width:7.90612268px"><rect
           id="rect1669-9"
           width="83.421928"
           height="100.16672"
           x="-934.39111"
           y="185.41805"
           style="font-style:normal;font-variant:normal;font-weight:normal;font-stretch:normal;font-size:12px;font-family:'Ume P Gothic Vertical';-inkscape-font-specification:'Ume P Gothic Vertical, Normal';font-variant-ligatures:normal;font-variant-caps:normal;font-variant-numeric:normal;font-feature-settings:normal;text-align:center;writing-mode:lr-tb;text-anchor:middle;fill:#000000;stroke-width:7.90612268px" /></flowRegion><flowPara
         id="flowPara1673-6"
         style="font-style:normal;font-variant:normal;font-weight:normal;font-stretch:normal;font-size:16px;line-height:100%;font-family:'Ume P Gothic Balsa-bold';-inkscape-font-specification:'Ume P Gothic Balsa-bold, Normal';font-variant-ligatures:normal;font-variant-caps:normal;font-variant-numeric:normal;font-feature-settings:normal;text-align:center;writing-mode:lr-tb;text-anchor:middle;fill:#000000;stroke-width:7.90612268px">TARIF MÉCÈNE</flowPara></flowRoot>    <flowRoot
       transform="matrix(0.05882728,0,0,0.12291897,59.702425,7.9264397)"
       style="font-style:normal;font-variant:normal;font-weight:normal;font-stretch:normal;font-size:12px;line-height:125%;font-family:'Ume Mincho Balsa';-inkscape-font-specification:'Ume Mincho Balsa, Normal';font-variant-ligatures:normal;font-variant-caps:normal;font-variant-numeric:normal;font-feature-settings:normal;text-align:center;letter-spacing:0px;word-spacing:0px;writing-mode:lr-tb;text-anchor:middle;display:inline;fill:#000000;fill-opacity:1;stroke:none;stroke-width:0.46671858;stroke-linecap:butt;stroke-linejoin:miter;stroke-miterlimit:4;stroke-dasharray:none;stroke-opacity:1"
       id="flowRoot27457-6"
       xml:space="preserve"><flowRegion
         style="font-style:normal;font-variant:normal;font-weight:normal;font-stretch:normal;font-size:12px;font-family:'Ume Mincho Balsa';-inkscape-font-specification:'Ume Mincho Balsa, Normal';font-variant-ligatures:normal;font-variant-caps:normal;font-variant-numeric:normal;font-feature-settings:normal;text-align:center;writing-mode:lr-tb;text-anchor:middle;stroke-width:0.46671858;stroke-miterlimit:4;stroke-dasharray:none"
         id="flowRegion27453-1"><rect
           style="font-style:normal;font-variant:normal;font-weight:normal;font-stretch:normal;font-size:12px;font-family:'Ume Mincho Balsa';-inkscape-font-specification:'Ume Mincho Balsa, Normal';font-variant-ligatures:normal;font-variant-caps:normal;font-variant-numeric:normal;font-feature-settings:normal;text-align:center;writing-mode:lr-tb;text-anchor:middle;stroke-width:0.46671858;stroke-miterlimit:4;stroke-dasharray:none"
           y="-26.713987"
           x="-963.68555"
           height="71.860748"
           width="104.83277"
           id="rect27451-7" /></flowRegion><flowPara
         style="font-size:16px;stroke:#000000;stroke-width:0.46671858;stroke-miterlimit:4;stroke-dasharray:none"
         id="flowPara27455-5">20 </flowPara></flowRoot>    <flowRoot
       xml:space="preserve"
       id="flowRoot2293-5"
       style="font-style:normal;font-variant:normal;font-weight:normal;font-stretch:normal;font-size:12px;line-height:125%;font-family:'Ume Mincho Balsa';-inkscape-font-specification:'Ume Mincho Balsa, Normal';font-variant-ligatures:normal;font-variant-caps:normal;font-variant-numeric:normal;font-feature-settings:normal;text-align:center;letter-spacing:0px;word-spacing:0px;writing-mode:lr-tb;text-anchor:middle;display:inline;fill:#000000;fill-opacity:1;stroke:none;stroke-width:0;stroke-linecap:butt;stroke-linejoin:miter;stroke-miterlimit:4;stroke-dasharray:none;stroke-opacity:1"
       transform="matrix(0.05503616,0,0,0.11499747,57.248036,7.9901397)"><flowRegion
         id="flowRegion2287-6"
         style="font-style:normal;font-variant:normal;font-weight:normal;font-stretch:normal;font-size:12px;font-family:'Ume Mincho Balsa';-inkscape-font-specification:'Ume Mincho Balsa, Normal';font-variant-ligatures:normal;font-variant-caps:normal;font-variant-numeric:normal;font-feature-settings:normal;text-align:center;writing-mode:lr-tb;text-anchor:middle;stroke-width:0;stroke-miterlimit:4;stroke-dasharray:none"><rect
           id="rect2285-3"
           width="104.83277"
           height="71.860748"
           x="-963.68555"
           y="-26.713987"
           style="font-style:normal;font-variant:normal;font-weight:normal;font-stretch:normal;font-size:12px;font-family:'Ume Mincho Balsa';-inkscape-font-specification:'Ume Mincho Balsa, Normal';font-variant-ligatures:normal;font-variant-caps:normal;font-variant-numeric:normal;font-feature-settings:normal;text-align:center;writing-mode:lr-tb;text-anchor:middle;stroke-width:0;stroke-miterlimit:4;stroke-dasharray:none" /></flowRegion><flowPara
         id="flowPara2291-0"
         style="font-size:16px;stroke:#000000;stroke-width:0;stroke-miterlimit:4;stroke-dasharray:none"><flowSpan
           id="flowSpan2289-2"
           style="font-style:normal;font-variant:normal;font-weight:normal;font-stretch:normal;font-size:16.00007629px;font-family:'Ume P Gothic Balsa-bold';-inkscape-font-specification:'Ume P Gothic Balsa-bold, Normal';font-variant-ligatures:normal;font-variant-caps:normal;font-variant-numeric:normal;font-feature-settings:normal;text-align:center;writing-mode:lr-tb;text-anchor:middle;stroke-width:0;stroke-miterlimit:4;stroke-dasharray:none">€</flowSpan></flowPara></flowRoot>  </g>
</svg>
